"","V1","V2","V3"
"1","nachhaltig","entwicklung","0.2097"
"2","nachhaltig","ökologisch","0.0572"
"3","nachhaltig","tourismus","0.057"
"4","nachhaltig","dass","0.0543"
"5","nachhaltig","stadtentwicklung","0.0467"
"6","nachhaltig","verändern","0.044"
"7","nachhaltig","wirtschaft","0.0423"
"8","nachhaltig","ziel","0.0388"
"9","nachhaltig","prägen","0.0373"
"10","nachhaltig","sollen","0.0367"
"11","nachhaltig","stellen","0.0359"
"12","nachhaltig","schaden","0.0359"
"13","nachhaltig","projekt","0.0358"
"14","nachhaltig","sozial","0.0344"
"15","nachhaltig","politik","0.0335"
"16","nachhaltig","wirkung","0.0319"
"17","nachhaltig","müssen","0.0317"
"18","nachhaltig","landwirtschaft","0.0313"
"19","nachhaltig","berlin","0.0309"
"20","nachhaltig","stören","0.0308"
"21","nachhaltig","konzept","0.0299"
"22","nachhaltig","fordern","0.0299"
"23","nachhaltig","jedoch","0.0291"
"24","nachhaltig","gehen","0.029"
"25","nachhaltig","fördern","0.0284"
"26","nachhaltig","dabei","0.028"
"27","nachhaltig","förderung","0.0279"
"28","nachhaltig","mehr","0.0277"
"29","nachhaltig","deutschland","0.0274"
"30","nachhaltig","sagen","0.027"
"31","nachhaltig","rahmen","0.0268"
"32","nachhaltig","groß","0.0266"
"33","nachhaltig","erschüttern","0.0265"
"34","nachhaltig","zeigen","0.0265"
"35","nachhaltig","erklären","0.0264"
"36","nachhaltig","setzen","0.0259"
"37","nachhaltig","seit","0.0255"
"38","nachhaltig","neu","0.025"
"39","nachhaltig","politisch","0.025"
"40","nachhaltig","jahr","0.0246"
"41","nachhaltig","sinn","0.0243"
"42","nachhaltig","gesellschaft","0.0242"
"43","nachhaltig","mensch","0.0241"
"44","nachhaltig","natur","0.0241"
"45","nachhaltig","lassen","0.024"
"46","nachhaltig","erst","0.0239"
"47","nachhaltig","international","0.0238"
"48","nachhaltig","wer","0.0236"
"49","nachhaltig","rio","0.0234"
"50","nachhaltig","welt","0.0233"
"51","nachhaltig","immer","0.023"
"52","nachhaltig","beispiel","0.0229"
"53","nachhaltig","wirtschaftlich","0.0228"
"54","nachhaltig","land","0.0228"
"55","nachhaltig","eigen","0.0227"
"56","nachhaltig","soziale","0.0226"
"57","nachhaltig","bringen","0.0224"
"58","nachhaltig","stadt","0.0223"
"59","nachhaltig","thema","0.0222"
"60","nachhaltig","ende","0.022"
"61","nachhaltig","hamburg","0.0216"
"62","nachhaltig","geben","0.0215"
"63","nachhaltig","hoch","0.0213"
"64","nachhaltig","darüber","0.0212"
"65","nachhaltig","region","0.0209"
"66","nachhaltig","deutsch","0.0206"
"67","nachhaltig","all","0.0206"
"68","nachhaltig","sowie","0.0206"
"69","nachhaltig","scheinen","0.0204"
"70","nachhaltig","agenda","0.0202"
"71","nachhaltig","weit","0.0198"
"72","nachhaltig","schädigen","0.0194"
"73","nachhaltig","etwa","0.0193"
"74","nachhaltig","teil","0.0191"
"75","nachhaltig","grüne","0.0189"
"76","nachhaltig","dagegen","0.0188"
"77","nachhaltig","kommen","0.0188"
"78","nachhaltig","weltweit","0.0188"
"79","nachhaltig","heißen","0.0188"
"80","nachhaltig","frage","0.0188"
"81","nachhaltig","fall","0.0186"
"82","nachhaltig","versuchen","0.0186"
"83","nachhaltig","heute","0.0184"
"84","nachhaltig","fahren","0.0184"
"85","nachhaltig","erfolg","0.0184"
"86","nachhaltig","kriterium","0.0183"
"87","nachhaltig","halten","0.0181"
"88","nachhaltig","lang","0.0181"
"89","nachhaltig","unterstützen","0.0181"
"90","nachhaltig","jed","0.0179"
"91","nachhaltig","bleiben","0.0178"
"92","nachhaltig","familie","0.0178"
"93","nachhaltig","ökonomisch","0.0176"
"94","nachhaltig","generation","0.0176"
"95","nachhaltig","öffentlich","0.0176"
"96","nachhaltig","energie","0.0175"
"97","nachhaltig","gelingen","0.0174"
"98","nachhaltig","ganz","0.0174"
"99","nachhaltig","hamburger","0.0173"
"100","nachhaltig","bevölkerung","0.0172"
"101","nachhaltig","allerdings","0.017"
"102","nachhaltig","schon","0.017"
"103","nachhaltig","leben","0.0169"
"104","nachhaltig","interesse","0.0168"
"105","nachhaltig","gelten","0.0168"
"106","nachhaltig","nutzen","0.0168"
"107","nachhaltig","bild","0.0167"
"108","nachhaltig","gemeinsam","0.0166"
"109","nachhaltig","wenig","0.0164"
"110","nachhaltig","wirklich","0.0164"
"111","nachhaltig","arbeitslosigkeit","0.0163"
"112","nachhaltig","regierung","0.0162"
"113","nachhaltig","davon","0.0162"
"114","nachhaltig","verbessern","0.0162"
"115","nachhaltig","erleben","0.0162"
"116","nachhaltig","insbesondere","0.0161"
"117","nachhaltig","gut","0.016"
"118","nachhaltig","hinaus","0.016"
"119","nachhaltig","wasser","0.016"
"120","nachhaltig","politische","0.0159"
"121","nachhaltig","beim","0.0159"
"122","nachhaltig","liegen","0.0159"
"123","nachhaltig","geld","0.0158"
"124","nachhaltig","stark","0.0157"
"125","nachhaltig","zusammenarbeit","0.0157"
"126","nachhaltig","mittel","0.0157"
"127","nachhaltig","rede","0.0155"
"128","nachhaltig","begriff","0.0155"
"129","nachhaltig","zukunft","0.0154"
"130","nachhaltig","gestern","0.0154"
"131","nachhaltig","verhältnis","0.0154"
"132","nachhaltig","diskussion","0.0154"
"133","nachhaltig","reform","0.0154"
"134","nachhaltig","global","0.0154"
"135","nachhaltig","bereich","0.015"
"136","nachhaltig","wald","0.015"
"137","nachhaltig","bundesregierung","0.015"
"138","nachhaltig","ebenso","0.0149"
"139","nachhaltig","tun","0.0149"
"140","nachhaltig","nennen","0.0149"
"141","nachhaltig","dafür","0.0148"
"142","nachhaltig","internationale","0.0147"
"143","nachhaltig","lebensunterhalt","0.0147"
"144","nachhaltig","bewirtschaften","0.0146"
"145","nachhaltig","holzwirtschaft","0.0146"
"146","nachhaltig","geschichte","0.0146"
"147","nachhaltig","beschädigen","0.0145"
"148","nachhaltig","finanzpolitik","0.0145"
"149","nachhaltig","nie","0.0145"
"150","nachhaltig","darauf","0.0145"
"151","nachhaltig","möglich","0.0144"
"152","nachhaltig","beeindrucken","0.0144"
"153","nachhaltig","alt","0.0143"
"154","nachhaltig","entwickeln","0.0142"
"155","nachhaltig","hören","0.0142"
"156","nachhaltig","welch","0.0142"
"157","nachhaltig","sogar","0.0142"
"158","nachhaltig","führen","0.0142"
"159","nachhaltig","erarbeiten","0.0142"
"160","nachhaltig","allein","0.0142"
"161","nachhaltig","solch","0.0141"
"162","nachhaltig","eindruck","0.014"
"163","nachhaltig","zerstören","0.014"
"164","nachhaltig","schaffen","0.014"
"165","nachhaltig","rat","0.014"
"166","nachhaltig","umgang","0.0139"
"167","nachhaltig","gerechtigkeit","0.0138"
"168","nachhaltig","arbeit","0.0138"
"169","nachhaltig","unternehmen","0.0138"
"170","nachhaltig","boden","0.0136"
"171","nachhaltig","wichtig","0.0136"
"172","nachhaltig","initiative","0.0135"
"173","nachhaltig","richtung","0.0135"
"174","nachhaltig","kommend","0.0135"
"175","nachhaltig","mark","0.0135"
"176","nachhaltig","langfristig","0.0134"
"177","nachhaltig","präsentieren","0.0134"
"178","nachhaltig","beid","0.0134"
"179","nachhaltig","je","0.0133"
"180","nachhaltig","stehen","0.0133"
"181","nachhaltig","kaum","0.0133"
"182","nachhaltig","weder","0.0133"
"183","nachhaltig","mitglied","0.0132"
"184","nachhaltig","staat","0.0132"
"185","nachhaltig","gesamt","0.0132"
"186","nachhaltig","präsident","0.0132"
"187","nachhaltig","künftig","0.0131"
"188","nachhaltig","daher","0.013"
"189","nachhaltig","recht","0.013"
"190","nachhaltig","handeln","0.0129"
"191","nachhaltig","idee","0.0129"
"192","nachhaltig","wert","0.0129"
"193","nachhaltig","gewinnen","0.0129"
"194","nachhaltig","zusammen","0.0128"
"195","nachhaltig","arbeiten","0.0128"
"196","nachhaltig","chance","0.0127"
"197","nachhaltig","inzwischen","0.0127"
"198","nachhaltig","vergangen","0.0127"
"199","nachhaltig","programm","0.0125"
"200","nachhaltig","jahrhundert","0.0125"
"201","nachhaltig","bereits","0.0125"
"202","nachhaltig","spät","0.0125"
"203","nachhaltig","usa","0.0124"
"204","nachhaltig","erreichen","0.0124"
"205","nachhaltig","weiß","0.0124"
"206","nachhaltig","schröder","0.0123"
"207","nachhaltig","zukunftsfähig","0.0122"
"208","nachhaltig","zehn","0.0122"
"209","nachhaltig","frau","0.0122"
"210","nachhaltig","wissen","0.0121"
"211","nachhaltig","energieversorgung","0.0121"
"212","nachhaltig","behindern","0.0121"
"213","nachhaltig","kultur","0.012"
"214","nachhaltig","forstwirtschaft","0.012"
"215","nachhaltig","grün","0.012"
"216","nachhaltig","sehen","0.012"
"217","nachhaltig","statt","0.0119"
"218","nachhaltig","meist","0.0119"
"219","nachhaltig","zeit","0.0119"
"220","nachhaltig","leiter","0.0118"
"221","nachhaltig","berliner","0.0118"
"222","nachhaltig","technisch","0.0118"
"223","nachhaltig","zwei","0.0118"
"224","nachhaltig","zuschauer","0.0117"
"225","nachhaltig","perspektive","0.0117"
"226","nachhaltig","tisch","0.0117"
"227","nachhaltig","beziehung","0.0117"
"228","nachhaltig","engagement","0.0116"
"229","nachhaltig","urban","0.0116"
"230","nachhaltig","deshalb","0.0116"
"231","nachhaltig","sicht","0.0116"
"232","nachhaltig","ebene","0.0115"
"233","nachhaltig","kommission","0.0115"
"234","nachhaltig","beschäftigen","0.0115"
"235","nachhaltig","technik","0.0115"
"236","nachhaltig","grundlage","0.0115"
"237","nachhaltig","sicherheit","0.0115"
"238","nachhaltig","sparen","0.0115"
"239","nachhaltig","holz","0.0115"
"240","nachhaltig","einsetzen","0.0115"
"241","nachhaltig","bedeutung","0.0115"
"242","nachhaltig","vergangenheit","0.0114"
"243","nachhaltig","finanzieren","0.0114"
"244","nachhaltig","senat","0.0114"
"245","nachhaltig","system","0.0114"
"246","nachhaltig","lage","0.0114"
"247","nachhaltig","drei","0.0114"
"248","nachhaltig","rund","0.0113"
"249","nachhaltig","nehmen","0.0113"
"250","nachhaltig","auge","0.0113"
"251","nachhaltig","letzt","0.0112"
"252","nachhaltig","bald","0.0112"
"253","nachhaltig","genug","0.0112"
"254","nachhaltig","lernen","0.0112"
"255","nachhaltig","industrie","0.0112"
"256","nachhaltig","ändern","0.0111"
"257","nachhaltig","problem","0.0111"
"258","nachhaltig","gerade","0.0111"
"259","nachhaltig","lösung","0.011"
"260","nachhaltig","eu","0.011"
"261","nachhaltig","alternative","0.011"
"262","nachhaltig","mal","0.011"
"263","nachhaltig","möglichkeit","0.011"
"264","nachhaltig","gehören","0.011"
"265","nachhaltig","sorgen","0.0109"
"266","nachhaltig","niemand","0.0109"
"267","nachhaltig","sache","0.0109"
"268","nachhaltig","anfang","0.0108"
"269","nachhaltig","gruppe","0.0108"
"270","nachhaltig","tragen","0.0108"
"271","nachhaltig","erwarten","0.0108"
"272","nachhaltig","umwelt","0.0108"
"273","nachhaltig","erfahrung","0.0108"
"274","nachhaltig","genau","0.0107"
"275","nachhaltig","national","0.0107"
"276","nachhaltig","entscheiden","0.0107"
"277","nachhaltig","jen","0.0106"
"278","nachhaltig","deutlich","0.0106"
"279","nachhaltig","kosten","0.0105"
"280","nachhaltig","uhr","0.0104"
"281","nachhaltig","ja","0.0104"
"282","nachhaltig","europäisch","0.0104"
"283","nachhaltig","früh","0.0103"
"284","nachhaltig","europa","0.0102"
"285","nachhaltig","spielen","0.0102"
"286","nachhaltig","schreiben","0.0101"
"287","nachhaltig","nächst","0.0101"
"288","nachhaltig","bisher","0.01"
"289","nachhaltig","gar","0.0099"
"290","nachhaltig","regionalentwicklung","0.0098"
"291","nachhaltig","ruinieren","0.0098"
"292","nachhaltig","forest","0.0098"
"293","nachhaltig","wirtschaften","0.0098"
"294","nachhaltig","council","0.0097"
"295","nachhaltig","fsc","0.0097"
"296","nachhaltig","urwald","0.0097"
"297","nachhaltig","befürchtung","0.0097"
"298","nachhaltig","mann","0.0097"
"299","nachhaltig","lebensweise","0.0097"
"300","nachhaltig","tu","0.0097"
"301","nachhaltig","hinterlassen","0.0097"
"302","nachhaltig","bedürfnis","0.0097"
"303","nachhaltig","gefährtin","0.0097"
"304","nachhaltig","ökosystem","0.0096"
"305","nachhaltig","armutsbekämpfung","0.0096"
"306","nachhaltig","entwicklungshilfe","0.0096"
"307","nachhaltig","gegründet","0.0096"
"308","nachhaltig","mobilität","0.0096"
"309","nachhaltig","effekt","0.0096"
"310","nachhaltig","vollständig","0.0095"
"311","nachhaltig","lokale","0.0095"
"312","nachhaltig","dauerhaft","0.0095"
"313","nachhaltig","sterben","0.0095"
"314","nachhaltig","aussehen","0.0095"
"315","nachhaltig","gast","0.0095"
"316","nachhaltig","frank","0.0095"
"317","nachhaltig","klima","0.0095"
"318","nachhaltig","vertrag","0.0094"
"319","nachhaltig","verabschieden","0.0094"
"320","nachhaltig","vertrauen","0.0094"
"321","nachhaltig","lauten","0.0094"
"322","nachhaltig","retten","0.0094"
"323","nachhaltig","bedarf","0.0094"
"324","nachhaltig","zusätzlich","0.0094"
"325","nachhaltig","motto","0.0094"
"326","nachhaltig","integration","0.0094"
"327","nachhaltig","branche","0.0093"
"328","nachhaltig","sieben","0.0093"
"329","nachhaltig","landschaft","0.0093"
"330","nachhaltig","zwingen","0.0093"
"331","nachhaltig","gedanke","0.0093"
"332","nachhaltig","umwelt-","0.0093"
"333","nachhaltig","streit","0.0093"
"334","nachhaltig","bevor","0.0093"
"335","nachhaltig","strom","0.0093"
"336","nachhaltig","schließen","0.0093"
"337","nachhaltig","ansatz","0.0093"
"338","nachhaltig","jahrzehnt","0.0093"
"339","nachhaltig","umsetzen","0.0092"
"340","nachhaltig","frankreich","0.0092"
"341","nachhaltig","bestätigen","0.0092"
"342","nachhaltig","verband","0.0092"
"343","nachhaltig","nation","0.0092"
"344","nachhaltig","beitrag","0.0092"
"345","nachhaltig","protest","0.0092"
"346","nachhaltig","zentrum","0.0092"
"347","nachhaltig","pol","0.0092"
"348","nachhaltig","entsprechen","0.0091"
"349","nachhaltig","druck","0.0091"
"350","nachhaltig","verhindern","0.0091"
"351","nachhaltig","versuch","0.0091"
"352","nachhaltig","wachstum","0.0091"
"353","nachhaltig","ausstellung","0.0091"
"354","nachhaltig","weiterhin","0.0091"
"355","nachhaltig","leisten","0.0091"
"356","nachhaltig","öffentlichkeit","0.009"
"357","nachhaltig","zudem","0.009"
"358","nachhaltig","vorstellen","0.009"
"359","nachhaltig","ebenfalls","0.009"
"360","nachhaltig","de","0.009"
"361","nachhaltig","entscheidung","0.0089"
"362","nachhaltig","situation","0.0089"
"363","nachhaltig","kritisieren","0.0089"
"364","nachhaltig","vorstellung","0.0089"
"365","nachhaltig","gesellschaftlich","0.0089"
"366","nachhaltig","längst","0.0089"
"367","nachhaltig","erfolgreich","0.0089"
"368","nachhaltig","grüner","0.0089"
"369","nachhaltig","traditionell","0.0089"
"370","nachhaltig","zumindest","0.0089"
"371","nachhaltig","erkennen","0.0088"
"372","nachhaltig","kraft","0.0088"
"373","nachhaltig","legen","0.0088"
"374","nachhaltig","privat","0.0088"
"375","nachhaltig","diskutieren","0.0088"
"376","nachhaltig","hannover","0.0088"
"377","nachhaltig","außerdem","0.0088"
"378","nachhaltig","peter","0.0088"
"379","nachhaltig","aufgabe","0.0087"
"380","nachhaltig","manch","0.0087"
"381","nachhaltig","ort","0.0087"
"382","nachhaltig","bislang","0.0087"
"383","nachhaltig","politiker","0.0087"
"384","nachhaltig","eben","0.0086"
"385","nachhaltig","finden","0.0086"
"386","nachhaltig","derzeit","0.0086"
"387","nachhaltig","krieg","0.0085"
"388","nachhaltig","suchen","0.0085"
"389","nachhaltig","fehlen","0.0085"
"390","nachhaltig","sichern","0.0085"
"391","nachhaltig","verstehen","0.0085"
"392","nachhaltig","klaren","0.0084"
"393","nachhaltig","verlieren","0.0084"
"394","nachhaltig","wegen","0.0084"
"395","nachhaltig","monat","0.0084"
"396","nachhaltig","expo","0.0084"
"397","nachhaltig","milliarde","0.0083"
"398","nachhaltig","beginnen","0.0083"
"399","nachhaltig","erste","0.0082"
"400","nachhaltig","tatsächlich","0.0082"
"401","nachhaltig","vielleicht","0.0082"
"402","nachhaltig","warum","0.0081"
"403","nachhaltig","grund","0.0081"
"404","nachhaltig","fast","0.0079"
"405","nachhaltig","kind","0.0079"
"406","nachhaltig","neue","0.0078"
"407","nachhaltig","natürlich","0.0078"
"408","nachhaltig","prozent","0.0077"
"409","nachhaltig","tag","0.0076"
"410","nachhaltig","spd","0.0074"
"411","nachhaltig","wirtschaftsweise","0.0074"
"412","nachhaltig","taz","0.0074"
"413","nachhaltig","beeinträchtigen","0.0074"
"414","nachhaltig","tourismusentwicklung","0.0074"
"415","nachhaltig","kursbuch","0.0074"
"416","nachhaltig","werdenden","0.0074"
"417","nachhaltig","anstoßen","0.0074"
"418","nachhaltig","prämieren","0.0074"
"419","nachhaltig","stadtrand","0.0073"
"420","nachhaltig","bevölkerungsgruppen","0.0073"
"421","nachhaltig","pekinger","0.0073"
"422","nachhaltig","furcht","0.0073"
"423","nachhaltig","stewardship","0.0073"
"424","nachhaltig","störung","0.0073"
"425","nachhaltig","auswirken","0.0073"
"426","nachhaltig","gütesiegel","0.0073"
"427","nachhaltig","formen","0.0073"
"428","nachhaltig","zertifizierung","0.0073"
"429","nachhaltig","beleben","0.0073"
"430","nachhaltig","töpfer","0.0073"
"431","nachhaltig","empfehlung","0.0073"
"432","nachhaltig","beschlossen","0.0073"
"433","nachhaltig","inwieweit","0.0073"
"434","nachhaltig","fischerei","0.0073"
"435","nachhaltig","eingreifen","0.0073"
"436","nachhaltig","aufkommen","0.0073"
"437","nachhaltig","gtz","0.0073"
"438","nachhaltig","japanische","0.0073"
"439","nachhaltig","sturm","0.0073"
"440","nachhaltig","verdienst","0.0073"
"441","nachhaltig","professionell","0.0073"
"442","nachhaltig","erhaltung","0.0073"
"443","nachhaltig","grundgesetz","0.0073"
"444","nachhaltig","versorgung","0.0073"
"445","nachhaltig","gefordert","0.0073"
"446","nachhaltig","einstellung","0.0073"
"447","nachhaltig","verankern","0.0073"
"448","nachhaltig","reichtum","0.0073"
"449","nachhaltig","regenerativ","0.0073"
"450","nachhaltig","propagieren","0.0073"
"451","nachhaltig","gelegenheit","0.0073"
"452","nachhaltig","gunst","0.0073"
"453","nachhaltig","landen","0.0073"
"454","nachhaltig","kapitel","0.0073"
"455","nachhaltig","gleichwohl","0.0073"
"456","nachhaltig","naiv","0.0073"
"457","nachhaltig","sanft","0.0073"
"458","nachhaltig","mahnen","0.0072"
"459","nachhaltig","grundsatz","0.0072"
"460","nachhaltig","einstieg","0.0072"
"461","nachhaltig","akzeptanz","0.0072"
"462","nachhaltig","fehlend","0.0072"
"463","nachhaltig","atmosphäre","0.0072"
"464","nachhaltig","bremsen","0.0072"
"465","nachhaltig","argumentieren","0.0072"
"466","nachhaltig","spur","0.0072"
"467","nachhaltig","anstreben","0.0072"
"468","nachhaltig","vereinte","0.0072"
"469","nachhaltig","verbindlich","0.0072"
"470","nachhaltig","niveau","0.0072"
"471","nachhaltig","desto","0.0072"
"472","nachhaltig","sport","0.0072"
"473","nachhaltig","million","0.0072"
"474","nachhaltig","tour","0.0072"
"475","nachhaltig","bestreiten","0.0072"
"476","nachhaltig","achten","0.0072"
"477","nachhaltig","arbeitsmarkt","0.0072"
"478","nachhaltig","steigend","0.0072"
"479","nachhaltig","aufschwung","0.0072"
"480","nachhaltig","spezifisch","0.0072"
"481","nachhaltig","einwanderer","0.0072"
"482","nachhaltig","rohstoff","0.0072"
"483","nachhaltig","steigern","0.0072"
"484","nachhaltig","verde","0.0072"
"485","nachhaltig","bzw.","0.0072"
"486","nachhaltig","wandel","0.0072"
"487","nachhaltig","rahmenbedingungen","0.0072"
"488","nachhaltig","vermutlich","0.0072"
"489","nachhaltig","nötigen","0.0072"
"490","nachhaltig","rasch","0.0072"
"491","nachhaltig","schulde","0.0072"
"492","nachhaltig","richter","0.0072"
"493","nachhaltig","kontakt","0.0072"
"494","nachhaltig","elf","0.0072"
"495","nachhaltig","norden","0.0072"
"496","nachhaltig","analyse","0.0072"
"497","nachhaltig","wto","0.0072"
"498","nachhaltig","schriftsteller","0.0072"
"499","nachhaltig","führend","0.0072"
"500","nachhaltig","image","0.0072"
"501","nachhaltig","einfluss","0.0072"
"502","nachhaltig","orientierung","0.0071"
"503","nachhaltig","zusätzliche","0.0071"
"504","nachhaltig","ngos","0.0071"
"505","nachhaltig","französische","0.0071"
"506","nachhaltig","kooperation","0.0071"
"507","nachhaltig","wettbewerb","0.0071"
"508","nachhaltig","bundestag","0.0071"
"509","nachhaltig","aspekt","0.0071"
"510","nachhaltig","vorhaben","0.0071"
"511","nachhaltig","beweisen","0.0071"
"512","nachhaltig","drängen","0.0071"
"513","nachhaltig","umweltschützer","0.0071"
"514","nachhaltig","gewerkschaft","0.0071"
"515","nachhaltig","gerecht","0.0071"
"516","nachhaltig","integrieren","0.0071"
"517","nachhaltig","ökosteuer","0.0071"
"518","nachhaltig","aviv","0.0071"
"519","nachhaltig","schleichen","0.0071"
"520","nachhaltig","autobahn","0.0071"
"521","nachhaltig","ausgeben","0.0071"
"522","nachhaltig","widerspruch","0.0071"
"523","nachhaltig","gestalten","0.0071"
"524","nachhaltig","vision","0.0071"
"525","nachhaltig","praktisch","0.0071"
"526","nachhaltig","wachsend","0.0071"
"527","nachhaltig","dezember","0.0071"
"528","nachhaltig","hauptstadt","0.0071"
"529","nachhaltig","wissenschaft","0.0071"
"530","nachhaltig","tel","0.0071"
"531","nachhaltig","konferenz","0.0071"
"532","nachhaltig","band","0.0071"
"533","nachhaltig","sofort","0.0071"
"534","nachhaltig","ausdruck","0.0071"
"535","nachhaltig","haushalt","0.0071"
"536","nachhaltig","wirklichkeit","0.007"
"537","nachhaltig","werben","0.007"
"538","nachhaltig","experte","0.007"
"539","nachhaltig","greenpeace","0.007"
"540","nachhaltig","szene","0.007"
"541","nachhaltig","verzichten","0.007"
"542","nachhaltig","nutzung","0.007"
"543","nachhaltig","produktion","0.007"
"544","nachhaltig","verwenden","0.007"
"545","nachhaltig","danach","0.007"
"546","nachhaltig","brasilien","0.007"
"547","nachhaltig","betreiben","0.007"
"548","nachhaltig","gesellschaftliche","0.007"
"549","nachhaltig","heraus","0.007"
"550","nachhaltig","erfahren","0.007"
"551","nachhaltig","zentral","0.007"
"552","nachhaltig","republik","0.007"
"553","nachhaltig","selten","0.007"
"554","nachhaltig","geplant","0.007"
"555","nachhaltig","leider","0.007"
"556","nachhaltig","eichel","0.007"
"557","nachhaltig","kanzler","0.007"
"558","nachhaltig","bewohner","0.007"
"559","nachhaltig","gegenteil","0.007"
"560","nachhaltig","manchmal","0.007"
"561","nachhaltig","handel","0.007"
"562","nachhaltig","institution","0.007"
"563","nachhaltig","verfolgen","0.007"
"564","nachhaltig","unterstützung","0.007"
"565","nachhaltig","allgemein","0.007"
"566","nachhaltig","prinzip","0.007"
"567","nachhaltig","hingegen","0.007"
"568","nachhaltig","musik","0.007"
"569","nachhaltig","ressource","0.007"
"570","nachhaltig","erhöhen","0.007"
"571","nachhaltig","orientieren","0.007"
"572","nachhaltig","kritisch","0.007"
"573","nachhaltig","dritte","0.007"
"574","nachhaltig","juli","0.0069"
"575","nachhaltig","bündnis","0.0069"
"576","nachhaltig","kulturell","0.0069"
"577","nachhaltig","zunehmen","0.0069"
"578","nachhaltig","globalisierung","0.0069"
"579","nachhaltig","angebot","0.0069"
"580","nachhaltig","verpflichten","0.0069"
"581","nachhaltig","bedingung","0.0069"
"582","nachhaltig","anspruch","0.0069"
"583","nachhaltig","gegensatz","0.0069"
"584","nachhaltig","lieben","0.0069"
"585","nachhaltig","basis","0.0069"
"586","nachhaltig","strategie","0.0069"
"587","nachhaltig","türkisch","0.0069"
"588","nachhaltig","gründen","0.0069"
"589","nachhaltig","veränderung","0.0069"
"590","nachhaltig","architekt","0.0069"
"591","nachhaltig","bau","0.0069"
"592","nachhaltig","bilden","0.0069"
"593","nachhaltig","schutz","0.0069"
"594","nachhaltig","universität","0.0069"
"595","nachhaltig","lokal","0.0069"
"596","nachhaltig","umweltschutz","0.0069"
"597","nachhaltig","darum","0.0069"
"598","nachhaltig","verantwortung","0.0069"
"599","nachhaltig","produzieren","0.0069"
"600","nachhaltig","vertreter","0.0069"
"601","nachhaltig","konkret","0.0069"
"602","nachhaltig","formulieren","0.0069"
"603","nachhaltig","sowohl","0.0069"
"604","nachhaltig","demokratie","0.0068"
"605","nachhaltig","liefern","0.0068"
"606","nachhaltig","klaus","0.0068"
"607","nachhaltig","reich","0.0068"
"608","nachhaltig","vorschlag","0.0068"
"609","nachhaltig","reichen","0.0068"
"610","nachhaltig","aktuell","0.0068"
"611","nachhaltig","frei","0.0068"
"612","nachhaltig","new","0.0068"
"613","nachhaltig","forderung","0.0068"
"614","nachhaltig","voll","0.0068"
"615","nachhaltig","kunde","0.0068"
"616","nachhaltig","kunst","0.0068"
"617","nachhaltig","zugleich","0.0068"
"618","nachhaltig","reden","0.0068"
"619","nachhaltig","fühlen","0.0068"
"620","nachhaltig","lösen","0.0067"
"621","nachhaltig","übernehmen","0.0067"
"622","nachhaltig","ernst","0.0067"
"623","nachhaltig","studie","0.0067"
"624","nachhaltig","zweit","0.0067"
"625","nachhaltig","verbinden","0.0067"
"626","nachhaltig","angesichts","0.0067"
"627","nachhaltig","koalition","0.0067"
"628","nachhaltig","wirken","0.0067"
"629","nachhaltig","durchaus","0.0067"
"630","nachhaltig","mehrer","0.0067"
"631","nachhaltig","verschieden","0.0067"
"632","nachhaltig","verkaufen","0.0066"
"633","nachhaltig","kennen","0.0066"
"634","nachhaltig","insgesamt","0.0066"
"635","nachhaltig","fest","0.0066"
"636","nachhaltig","laufen","0.0066"
"637","nachhaltig","darin","0.0066"
"638","nachhaltig","blick","0.0066"
"639","nachhaltig","kritik","0.0066"
"640","nachhaltig","eigene","0.0066"
"641","nachhaltig","gleich","0.0066"
"642","nachhaltig","fragen","0.0066"
"643","nachhaltig","ehemalig","0.0066"
"644","nachhaltig","hand","0.0065"
"645","nachhaltig","wort","0.0065"
"646","nachhaltig","schwer","0.0065"
"647","nachhaltig","modern","0.0065"
"648","nachhaltig","markt","0.0065"
"649","nachhaltig","wahl","0.0065"
"650","nachhaltig","bestehen","0.0064"
"651","nachhaltig","partei","0.0064"
"652","nachhaltig","daran","0.0064"
"653","nachhaltig","entstehen","0.0064"
"654","nachhaltig","schlecht","0.0064"
"655","nachhaltig","pds","0.0064"
"656","nachhaltig","fünf","0.0064"
"657","nachhaltig","oft","0.0064"
"658","nachhaltig","kurz","0.0064"
"659","nachhaltig","jung","0.0063"
"660","nachhaltig","überhaupt","0.0063"
"661","nachhaltig","vier","0.0063"
"662","nachhaltig","glauben","0.0063"
"663","nachhaltig","bekommen","0.0063"
"664","nachhaltig","ziehen","0.0063"
"665","nachhaltig","folge","0.0062"
"666","nachhaltig","rolle","0.0062"
"667","nachhaltig","gegenüber","0.0062"
"668","nachhaltig","woche","0.0062"
"669","nachhaltig","brauchen","0.0062"
"670","nachhaltig","fischer","0.0062"
"671","nachhaltig","sprechen","0.0062"
"672","nachhaltig","leute","0.0061"
"673","nachhaltig","eigentlich","0.0061"
"674","nachhaltig","muß","0.0061"
"675","nachhaltig","cdu","0.0061"
"676","nachhaltig","mögen","0.006"
"677","nachhaltig","seite","0.006"
"678","nachhaltig","klein","0.006"
"679","nachhaltig","schließlich","0.0059"
"680","nachhaltig","ab","0.0057"
"681","nachhaltig","stromsparen","0.0049"
"682","nachhaltig","selbstbewußtsein","0.0049"
"683","nachhaltig","waldbewirtschaftung","0.0049"
"684","nachhaltig","überprüfbar","0.0049"
"685","nachhaltig","betonpisten","0.0049"
"686","nachhaltig","entwicklungsprozesse","0.0049"
"687","nachhaltig","liebesaffäre","0.0049"
"688","nachhaltig","geboten","0.0049"
"689","nachhaltig","unternehmertum","0.0049"
"690","nachhaltig","instituto","0.0049"
"691","nachhaltig","verärgern","0.0049"
"692","nachhaltig","schocken","0.0049"
"693","nachhaltig","schädigung","0.0049"
"694","nachhaltig","ausarbeitung","0.0049"
"695","nachhaltig","transnationalen","0.0049"
"696","nachhaltig","konkurrenzdruck","0.0049"
"697","nachhaltig","fauna","0.0049"
"698","nachhaltig","gütlich","0.0049"
"699","nachhaltig","neugier","0.0049"
"700","nachhaltig","umgehend","0.0049"
"701","nachhaltig","energieeinsparung","0.0049"
"702","nachhaltig","gesundung","0.0049"
"703","nachhaltig","herzen","0.0049"
"704","nachhaltig","konsumverhalten","0.0049"
"705","nachhaltig","anbauflächen","0.0049"
"706","nachhaltig","aufwertung","0.0049"
"707","nachhaltig","umweltsiegel","0.0049"
"708","nachhaltig","präventiven","0.0049"
"709","nachhaltig","bhutan","0.0049"
"710","nachhaltig","berücksichtigung","0.0049"
"711","nachhaltig","weitgehende","0.0049"
"712","nachhaltig","stadt-","0.0049"
"713","nachhaltig","niederschlagen","0.0049"
"714","nachhaltig","traumatisiert","0.0049"
"715","nachhaltig","koslowski","0.0049"
"716","nachhaltig","sc","0.0049"
"717","nachhaltig","ressourcenverbrauch","0.0049"
"718","nachhaltig","verprellen","0.0049"
"719","nachhaltig","umweltgerechte","0.0049"
"720","nachhaltig","weihnachtlich","0.0049"
"721","nachhaltig","un-konferenzen","0.0049"
"722","nachhaltig","schafhausen","0.0049"
"723","nachhaltig","erfrischen","0.0049"
"724","nachhaltig","zusammenbrechen","0.0049"
"725","nachhaltig","brasilianer","0.0049"
"726","nachhaltig","amsterdamer","0.0049"
"727","nachhaltig","völkerrechts","0.0049"
"728","nachhaltig","rotterdam","0.0049"
"729","nachhaltig","komitee","0.0049"
"730","nachhaltig","wohnungsunternehmen","0.0049"
"731","nachhaltig","wasserwirtschaft","0.0049"
"732","nachhaltig","angetan","0.0049"
"733","nachhaltig","erfinder","0.0049"
"734","nachhaltig","exemplarisch","0.0049"
"735","nachhaltig","wm","0.0049"
"736","nachhaltig","akzeptabel","0.0049"
"737","nachhaltig","umweltschäden","0.0049"
"738","nachhaltig","flora","0.0049"
"739","nachhaltig","andauernd","0.0049"
"740","nachhaltig","siegel","0.0049"
"741","nachhaltig","vorsitz","0.0049"
"742","nachhaltig","france","0.0049"
"743","nachhaltig","benin","0.0049"
"744","nachhaltig","schwingen","0.0049"
"745","nachhaltig","positionspapier","0.0049"
"746","nachhaltig","symposium","0.0049"
"747","nachhaltig","volkswirtschaften","0.0049"
"748","nachhaltig","csd","0.0049"
"749","nachhaltig","bereit","0.0049"
"750","nachhaltig","ambition","0.0049"
"751","nachhaltig","durcheinander","0.0049"
"752","nachhaltig","tourism","0.0049"
"753","nachhaltig","voranbringen","0.0049"
"754","nachhaltig","irritieren","0.0049"
"755","nachhaltig","erneuerbarer","0.0049"
"756","nachhaltig","unerheblich","0.0049"
"757","nachhaltig","vesper","0.0049"
"758","nachhaltig","precious","0.0049"
"759","nachhaltig","gebot","0.0049"
"760","nachhaltig","anerkannt","0.0049"
"761","nachhaltig","ungerecht","0.0049"
"762","nachhaltig","spd-fraktion","0.0049"
"763","nachhaltig","stetig","0.0049"
"764","nachhaltig","verträglich","0.0049"
"765","nachhaltig","erforschen","0.0049"
"766","nachhaltig","unterstreichen","0.0049"
"767","nachhaltig","europaweit","0.0049"
"768","nachhaltig","notfalls","0.0049"
"769","nachhaltig","runde","0.0049"
"770","nachhaltig","ungewöhnliche","0.0049"
"771","nachhaltig","befriedigen","0.0049"
"772","nachhaltig","woods","0.0049"
"773","nachhaltig","berühren","0.0049"
"774","nachhaltig","messe","0.0049"
"775","nachhaltig","soziales","0.0049"
"776","nachhaltig","einbürgern","0.0049"
"777","nachhaltig","ringen","0.0049"
"778","nachhaltig","spektrum","0.0049"
"779","nachhaltig","beschäftigungspolitik","0.0049"
"780","nachhaltig","aufzeigen","0.0049"
"781","nachhaltig","applaus","0.0049"
"782","nachhaltig","reformieren","0.0049"
"783","nachhaltig","programmatik","0.0049"
"784","nachhaltig","industrialisieren","0.0049"
"785","nachhaltig","kahlschlag","0.0049"
"786","nachhaltig","balance","0.0049"
"787","nachhaltig","plattform","0.0049"
"788","nachhaltig","eigenheim","0.0049"
"789","nachhaltig","house","0.0049"
"790","nachhaltig","sprengen","0.0049"
"791","nachhaltig","muschelfischerei","0.0049"
"792","nachhaltig","verunsichern","0.0049"
"793","nachhaltig","kartoffel","0.0049"
"794","nachhaltig","gedächtnis","0.0049"
"795","nachhaltig","stephan","0.0049"
"796","nachhaltig","materielle","0.0049"
"797","nachhaltig","ankurbeln","0.0049"
"798","nachhaltig","charles","0.0049"
"799","nachhaltig","strategische","0.0049"
"800","nachhaltig","costa","0.0049"
"801","nachhaltig","rica","0.0049"
"802","nachhaltig","umweltkonferenz","0.0049"
"803","nachhaltig","emotion","0.0049"
"804","nachhaltig","gift","0.0049"
"805","nachhaltig","raubbau","0.0049"
"806","nachhaltig","planer","0.0049"
"807","nachhaltig","provozieren","0.0049"
"808","nachhaltig","kindlich","0.0049"
"809","nachhaltig","debattieren","0.0049"
"810","nachhaltig","nationale","0.0049"
"811","nachhaltig","schmerzhaft","0.0049"
"812","nachhaltig","zusammenbringen","0.0049"
"813","nachhaltig","sieger","0.0049"
"814","nachhaltig","versehen","0.0049"
"815","nachhaltig","cdu/csu","0.0049"
"816","nachhaltig","einschränken","0.0049"
"817","nachhaltig","formulierung","0.0049"
"818","nachhaltig","arbeitskreis","0.0049"
"819","nachhaltig","chinesische","0.0049"
"820","nachhaltig","eu-kommission","0.0049"
"821","nachhaltig","herrn","0.0049"
"822","nachhaltig","kernenergie","0.0049"
"823","nachhaltig","verwendung","0.0049"
"824","nachhaltig","beeinflusst","0.0049"
"825","nachhaltig","koordinieren","0.0049"
"826","nachhaltig","konsument","0.0049"
"827","nachhaltig","pressekonferenz","0.0049"
"828","nachhaltig","psychisch","0.0049"
"829","nachhaltig","stabilisieren","0.0049"
"830","nachhaltig","schau","0.0049"
"831","nachhaltig","vorstoß","0.0049"
"832","nachhaltig","bekenntnis","0.0049"
"833","nachhaltig","schrumpfen","0.0049"
"834","nachhaltig","attacke","0.0049"
"835","nachhaltig","janeiro","0.0049"
"836","nachhaltig","verwalten","0.0049"
"837","nachhaltig","auflage","0.0049"
"838","nachhaltig","abfall","0.0049"
"839","nachhaltig","begeisterung","0.0049"
"840","nachhaltig","vergleichbar","0.0049"
"841","nachhaltig","wolf","0.0049"
"842","nachhaltig","währung","0.0049"
"843","nachhaltig","betroffen","0.0049"
"844","nachhaltig","weltmarkt","0.0049"
"845","nachhaltig","einheimische","0.0049"
"846","nachhaltig","vereinen","0.0049"
"847","nachhaltig","seither","0.0049"
"848","nachhaltig","sozialpolitik","0.0049"
"849","nachhaltig","auffällig","0.0049"
"850","nachhaltig","rau","0.0049"
"851","nachhaltig","nase","0.0049"
"852","nachhaltig","heben","0.0049"
"853","nachhaltig","ausdrücklich","0.0049"
"854","nachhaltig","hochschule","0.0049"
"855","nachhaltig","landwirtschaftlich","0.0049"
"856","nachhaltig","abbau","0.0049"
"857","nachhaltig","innovation","0.0049"
"858","nachhaltig","möbel","0.0049"
"859","nachhaltig","befassen","0.0049"
"860","nachhaltig","fragwürdig","0.0049"
"861","nachhaltig","weitaus","0.0049"
"862","nachhaltig","anbau","0.0049"
"863","nachhaltig","ökotourismus","0.0049"
"864","nachhaltig","emission","0.0049"
"865","nachhaltig","heimisch","0.0048"
"866","nachhaltig","effektiv","0.0048"
"867","nachhaltig","status","0.0048"
"868","nachhaltig","zukunftsrat","0.0048"
"869","nachhaltig","erneuerbaren","0.0048"
"870","nachhaltig","russland","0.0048"
"871","nachhaltig","ost","0.0048"
"872","nachhaltig","aussprechen","0.0048"
"873","nachhaltig","anstrengung","0.0048"
"874","nachhaltig","tebe","0.0048"
"875","nachhaltig","beeinflussen","0.0048"
"876","nachhaltig","fügen","0.0048"
"877","nachhaltig","glaubwürdigkeit","0.0048"
"878","nachhaltig","annähern","0.0048"
"879","nachhaltig","fangen","0.0048"
"880","nachhaltig","binden","0.0048"
"881","nachhaltig","einstig","0.0048"
"882","nachhaltig","begeistern","0.0048"
"883","nachhaltig","dahinter","0.0048"
"884","nachhaltig","wirtschafts-","0.0048"
"885","nachhaltig","derartig","0.0048"
"886","nachhaltig","zuerst","0.0048"
"887","nachhaltig","nazi","0.0048"
"888","nachhaltig","ignorieren","0.0048"
"889","nachhaltig","sozial-","0.0048"
"890","nachhaltig","betrieben","0.0048"
"891","nachhaltig","überzeugung","0.0048"
"892","nachhaltig","wirtschaftspolitik","0.0048"
"893","nachhaltig","dunkel","0.0048"
"894","nachhaltig","durchführen","0.0048"
"895","nachhaltig","schlauch","0.0048"
"896","nachhaltig","erlebnis","0.0048"
"897","nachhaltig","angeboten","0.0048"
"898","nachhaltig","bewahren","0.0048"
"899","nachhaltig","erforderlich","0.0048"
"900","nachhaltig","amtszeit","0.0048"
"901","nachhaltig","istanbul","0.0048"
"902","nachhaltig","manager","0.0048"
"903","nachhaltig","finanzierung","0.0048"
"904","nachhaltig","ans","0.0048"
"905","nachhaltig","ausrichten","0.0048"
"906","nachhaltig","nummer","0.0048"
"907","nachhaltig","mangelnd","0.0048"
"908","nachhaltig","zweitens","0.0048"
"909","nachhaltig","maßen","0.0048"
"910","nachhaltig","konservativ","0.0048"
"911","nachhaltig","fähigkeit","0.0048"
"912","nachhaltig","schaffung","0.0048"
"913","nachhaltig","zurückziehen","0.0048"
"914","nachhaltig","hinsicht","0.0048"
"915","nachhaltig","landbau","0.0048"
"916","nachhaltig","verständnis","0.0048"
"917","nachhaltig","verursachen","0.0048"
"918","nachhaltig","auftritt","0.0048"
"919","nachhaltig","günstig","0.0048"
"920","nachhaltig","auffordern","0.0048"
"921","nachhaltig","schleswig-holstein","0.0048"
"922","nachhaltig","niederlande","0.0048"
"923","nachhaltig","moor","0.0048"
"924","nachhaltig","kuba","0.0048"
"925","nachhaltig","menschliche","0.0048"
"926","nachhaltig","menschenrechte","0.0048"
"927","nachhaltig","erstens","0.0048"
"928","nachhaltig","wild","0.0048"
"929","nachhaltig","übergang","0.0048"
"930","nachhaltig","uno","0.0048"
"931","nachhaltig","derart","0.0048"
"932","nachhaltig","diskurs","0.0048"
"933","nachhaltig","robert","0.0048"
"934","nachhaltig","lauf","0.0048"
"935","nachhaltig","kündigen","0.0048"
"936","nachhaltig","fürs","0.0048"
"937","nachhaltig","unternehmer","0.0048"
"938","nachhaltig","eignen","0.0048"
"939","nachhaltig","a.","0.0048"
"940","nachhaltig","aufmerksam","0.0048"
"941","nachhaltig","einrichten","0.0048"
"942","nachhaltig","dicht","0.0048"
"943","nachhaltig","streichen","0.0048"
"944","nachhaltig","einführen","0.0048"
"945","nachhaltig","jahrelang","0.0048"
"946","nachhaltig","for","0.0048"
"947","nachhaltig","extrem","0.0048"
"948","nachhaltig","wahren","0.0048"
"949","nachhaltig","attraktiv","0.0048"
"950","nachhaltig","held","0.0048"
"951","nachhaltig","vortrag","0.0048"
"952","nachhaltig","demonstrieren","0.0048"
"953","nachhaltig","trennen","0.0048"
"954","nachhaltig","geist","0.0048"
"955","nachhaltig","vergeben","0.0048"
"956","nachhaltig","anbieter","0.0048"
"957","nachhaltig","abhängig","0.0048"
"958","nachhaltig","füllen","0.0048"
"959","nachhaltig","danken","0.0048"
"960","nachhaltig","strand","0.0048"
"961","nachhaltig","insel","0.0048"
"962","nachhaltig","leiten","0.0048"
"963","nachhaltig","verleihen","0.0048"
"964","nachhaltig","einbeziehen","0.0048"
"965","nachhaltig","stand","0.0048"
"966","nachhaltig","verbesserung","0.0048"
"967","nachhaltig","versichern","0.0048"
"968","nachhaltig","ruhe","0.0048"
"969","nachhaltig","nachbar","0.0048"
"970","nachhaltig","ereignis","0.0048"
"971","nachhaltig","komplex","0.0048"
"972","nachhaltig","wirtschaftswachstum","0.0048"
"973","nachhaltig","untersuchen","0.0048"
"974","nachhaltig","moderne","0.0048"
"975","nachhaltig","annehmen","0.0048"
"976","nachhaltig","rente","0.0048"
"977","nachhaltig","prüfen","0.0048"
"978","nachhaltig","belasten","0.0048"
"979","nachhaltig","dauern","0.0048"
"980","nachhaltig","canto","0.0048"
"981","nachhaltig","verwaltung","0.0048"
"982","nachhaltig","senken","0.0048"
"983","nachhaltig","plädieren","0.0048"
"984","nachhaltig","informieren","0.0048"
"985","nachhaltig","demokratische","0.0048"
"986","nachhaltig","bestehend","0.0048"
"987","nachhaltig","antrag","0.0048"
"988","nachhaltig","menschheit","0.0048"
"989","nachhaltig","arbeiter","0.0048"
"990","nachhaltig","zielen","0.0048"
"991","nachhaltig","bisschen","0.0048"
"992","nachhaltig","bewusst","0.0048"
"993","nachhaltig","kurzfristig","0.0048"
"994","nachhaltig","umfeld","0.0048"
"995","nachhaltig","teilweise","0.0048"
"996","nachhaltig","nahezu","0.0048"
"997","nachhaltig","aussicht","0.0048"
"998","nachhaltig","belegen","0.0048"
"999","nachhaltig","city","0.0048"
"1000","nachhaltig","ruf","0.0048"
"1001","nachhaltig","aussage","0.0048"
"1002","nachhaltig","irgendwann","0.0048"
"1003","nachhaltig","freitag","0.0048"
"1004","nachhaltig","technologie","0.0048"
"1005","nachhaltig","reaktion","0.0048"
"1006","nachhaltig","konsequenz","0.0048"
"1007","nachhaltig","mittler","0.0048"
"1008","nachhaltig","heiß","0.0048"
"1009","nachhaltig","erbe","0.0048"
"1010","nachhaltig","gesicht","0.0048"
"1011","nachhaltig","streiten","0.0048"
"1012","nachhaltig","york","0.0048"
"1013","nachhaltig","übertragen","0.0048"
"1014","nachhaltig","instrument","0.0048"
"1015","nachhaltig","modernisierung","0.0048"
"1016","nachhaltig","beraten","0.0048"
"1017","nachhaltig","anliegen","0.0048"
"1018","nachhaltig","zweifel","0.0048"
"1019","nachhaltig","gang","0.0048"
"1020","nachhaltig","suche","0.0048"
"1021","nachhaltig","gesundheit","0.0048"
"1022","nachhaltig","barbara","0.0048"
"1023","nachhaltig","erzielen","0.0048"
"1024","nachhaltig","tochter","0.0048"
"1025","nachhaltig","anfangen","0.0048"
"1026","nachhaltig","konkrete","0.0048"
"1027","nachhaltig","architektur","0.0047"
"1028","nachhaltig","umgehen","0.0047"
"1029","nachhaltig","tagung","0.0047"
"1030","nachhaltig","betroffene","0.0047"
"1031","nachhaltig","darstellung","0.0047"
"1032","nachhaltig","erwartung","0.0047"
"1033","nachhaltig","friede","0.0047"
"1034","nachhaltig","einführung","0.0047"
"1035","nachhaltig","umstritten","0.0047"
"1036","nachhaltig","grundsätzlich","0.0047"
"1037","nachhaltig","biologisch","0.0047"
"1038","nachhaltig","ersetzen","0.0047"
"1039","nachhaltig","ausstieg","0.0047"
"1040","nachhaltig","partner","0.0047"
"1041","nachhaltig","botschaft","0.0047"
"1042","nachhaltig","beteiligung","0.0047"
"1043","nachhaltig","standort","0.0047"
"1044","nachhaltig","jugend","0.0047"
"1045","nachhaltig","professor","0.0047"
"1046","nachhaltig","foto","0.0047"
"1047","nachhaltig","niederlage","0.0047"
"1048","nachhaltig","uwe","0.0047"
"1049","nachhaltig","wand","0.0047"
"1050","nachhaltig","brechen","0.0047"
"1051","nachhaltig","wahrscheinlich","0.0047"
"1052","nachhaltig","balkan","0.0047"
"1053","nachhaltig","erneut","0.0047"
"1054","nachhaltig","karriere","0.0047"
"1055","nachhaltig","these","0.0047"
"1056","nachhaltig","umweltpolitik","0.0047"
"1057","nachhaltig","zumal","0.0047"
"1058","nachhaltig","beitragen","0.0047"
"1059","nachhaltig","egal","0.0047"
"1060","nachhaltig","chef","0.0047"
"1061","nachhaltig","treiben","0.0047"
"1062","nachhaltig","la","0.0047"
"1063","nachhaltig","konkurrenz","0.0047"
"1064","nachhaltig","vorhanden","0.0047"
"1065","nachhaltig","stammen","0.0047"
"1066","nachhaltig","infrastruktur","0.0047"
"1067","nachhaltig","blair","0.0047"
"1068","nachhaltig","richten","0.0047"
"1069","nachhaltig","kulturelle","0.0047"
"1070","nachhaltig","februar","0.0047"
"1071","nachhaltig","zunehmend","0.0047"
"1072","nachhaltig","fortschritt","0.0047"
"1073","nachhaltig","erinnerung","0.0047"
"1074","nachhaltig","tatsache","0.0047"
"1075","nachhaltig","veröffentlichen","0.0047"
"1076","nachhaltig","voraussetzung","0.0047"
"1077","nachhaltig","westlich","0.0047"
"1078","nachhaltig","aktiv","0.0047"
"1079","nachhaltig","herstellen","0.0047"
"1080","nachhaltig","herz","0.0047"
"1081","nachhaltig","gegner","0.0047"
"1082","nachhaltig","ökologie","0.0047"
"1083","nachhaltig","forum","0.0047"
"1084","nachhaltig","heutig","0.0047"
"1085","nachhaltig","auswirkung","0.0047"
"1086","nachhaltig","jeweils","0.0047"
"1087","nachhaltig","brandenburg","0.0047"
"1088","nachhaltig","betreffen","0.0047"
"1089","nachhaltig","of","0.0047"
"1090","nachhaltig","müssten","0.0047"
"1091","nachhaltig","vorbei","0.0047"
"1092","nachhaltig","werk","0.0047"
"1093","nachhaltig","gerne","0.0047"
"1094","nachhaltig","wohnung","0.0047"
"1095","nachhaltig","leiden","0.0047"
"1096","nachhaltig","museum","0.0047"
"1097","nachhaltig","iwf","0.0047"
"1098","nachhaltig","darunter","0.0047"
"1099","nachhaltig","nato","0.0047"
"1100","nachhaltig","geschehen","0.0047"
"1101","nachhaltig","bemühen","0.0047"
"1102","nachhaltig","per","0.0047"
"1103","nachhaltig","entscheidend","0.0047"
"1104","nachhaltig","roman","0.0047"
"1105","nachhaltig","börse","0.0047"
"1106","nachhaltig","vermeiden","0.0047"
"1107","nachhaltig","massiv","0.0047"
"1108","nachhaltig","betrachten","0.0047"
"1109","nachhaltig","risiko","0.0047"
"1110","nachhaltig","sprache","0.0047"
"1111","nachhaltig","klingen","0.0047"
"1112","nachhaltig","besonder","0.0047"
"1113","nachhaltig","schweigen","0.0047"
"1114","nachhaltig","persönlich","0.0047"
"1115","nachhaltig","letzte","0.0047"
"1116","nachhaltig","hans","0.0047"
"1117","nachhaltig","möglichst","0.0047"
"1118","nachhaltig","euro","0.0047"
"1119","nachhaltig","rot-grüne","0.0047"
"1120","nachhaltig","funktionieren","0.0047"
"1121","nachhaltig","häufig","0.0046"
"1122","nachhaltig","tod","0.0046"
"1123","nachhaltig","dringen","0.0046"
"1124","nachhaltig","bahn","0.0046"
"1125","nachhaltig","maßnahme","0.0046"
"1126","nachhaltig","rufen","0.0046"
"1127","nachhaltig","werfen","0.0046"
"1128","nachhaltig","kampagne","0.0046"
"1129","nachhaltig","amerikanisch","0.0046"
"1130","nachhaltig","kilometer","0.0046"
"1131","nachhaltig","wolle","0.0046"
"1132","nachhaltig","kapital","0.0046"
"1133","nachhaltig","verdienen","0.0046"
"1134","nachhaltig","baum","0.0046"
"1135","nachhaltig","bewegung","0.0046"
"1136","nachhaltig","november","0.0046"
"1137","nachhaltig","tel.","0.0046"
"1138","nachhaltig","schützen","0.0046"
"1139","nachhaltig","widerstand","0.0046"
"1140","nachhaltig","derjenige","0.0046"
"1141","nachhaltig","kaufen","0.0046"
"1142","nachhaltig","jedenfalls","0.0046"
"1143","nachhaltig","künstler","0.0046"
"1144","nachhaltig","hängen","0.0046"
"1145","nachhaltig","geraten","0.0046"
"1146","nachhaltig","mai","0.0046"
"1147","nachhaltig","dadurch","0.0046"
"1148","nachhaltig","wohnen","0.0046"
"1149","nachhaltig","verkehr","0.0046"
"1150","nachhaltig","bloß","0.0046"
"1151","nachhaltig","neues","0.0046"
"1152","nachhaltig","beginn","0.0046"
"1153","nachhaltig","trittin","0.0046"
"1154","nachhaltig","befürchten","0.0046"
"1155","nachhaltig","offenbaren","0.0046"
"1156","nachhaltig","ohnehin","0.0046"
"1157","nachhaltig","michael","0.0046"
"1158","nachhaltig","juni","0.0046"
"1159","nachhaltig","plan","0.0046"
"1160","nachhaltig","ding","0.0046"
"1161","nachhaltig","meinung","0.0046"
"1162","nachhaltig","reise","0.0046"
"1163","nachhaltig","vertreten","0.0046"
"1164","nachhaltig","zusammenhang","0.0046"
"1165","nachhaltig","gerhard","0.0046"
"1166","nachhaltig","zählen","0.0046"
"1167","nachhaltig","nachdem","0.0046"
"1168","nachhaltig","hälfte","0.0046"
"1169","nachhaltig","gering","0.0046"
"1170","nachhaltig","jährlich","0.0046"
"1171","nachhaltig","dienen","0.0046"
"1172","nachhaltig","überzeugen","0.0046"
"1173","nachhaltig","freiheit","0.0045"
"1174","nachhaltig","zuletzt","0.0045"
"1175","nachhaltig","amt","0.0045"
"1176","nachhaltig","trotzen","0.0045"
"1177","nachhaltig","kopf","0.0045"
"1178","nachhaltig","stelle","0.0045"
"1179","nachhaltig","verlangen","0.0045"
"1180","nachhaltig","betonen","0.0045"
"1181","nachhaltig","gebiet","0.0045"
"1182","nachhaltig","westen","0.0045"
"1183","nachhaltig","entsprechend","0.0045"
"1184","nachhaltig","struktur","0.0045"
"1185","nachhaltig","direkt","0.0045"
"1186","nachhaltig","helfen","0.0045"
"1187","nachhaltig","betrieb","0.0045"
"1188","nachhaltig","union","0.0045"
"1189","nachhaltig","organisation","0.0045"
"1190","nachhaltig","film","0.0045"
"1191","nachhaltig","mittlerweile","0.0045"
"1192","nachhaltig","gesetz","0.0045"
"1193","nachhaltig","erinnern","0.0045"
"1194","nachhaltig","preis","0.0045"
"1195","nachhaltig","endlich","0.0045"
"1196","nachhaltig","debatte","0.0045"
"1197","nachhaltig","name","0.0044"
"1198","nachhaltig","spiel","0.0044"
"1199","nachhaltig","platz","0.0044"
"1200","nachhaltig","ganze","0.0044"
"1201","nachhaltig","scheitern","0.0044"
"1202","nachhaltig","schnellen","0.0044"
"1203","nachhaltig","volk","0.0044"
"1204","nachhaltig","pro","0.0044"
"1205","nachhaltig","schule","0.0044"
"1206","nachhaltig","bauen","0.0044"
"1207","nachhaltig","leicht","0.0044"
"1208","nachhaltig","völlig","0.0044"
"1209","nachhaltig","produkt","0.0043"
"1210","nachhaltig","buch","0.0043"
"1211","nachhaltig","straße","0.0043"
"1212","nachhaltig","bestimmen","0.0043"
"1213","nachhaltig","offen","0.0043"
"1214","nachhaltig","richtig","0.0043"
"1215","nachhaltig","gleichen","0.0043"
"1216","nachhaltig","besonders","0.0043"
"1217","nachhaltig","treffen","0.0043"
"1218","nachhaltig","einzig","0.0043"
"1219","nachhaltig","neben","0.0042"
"1220","nachhaltig","lässt","0.0042"
"1221","nachhaltig","art","0.0041"
"1222","nachhaltig","bieten","0.0041"
"1223","nachhaltig","wohl","0.0041"
"1224","nachhaltig","einfach","0.0041"
"1225","nachhaltig","haus","0.004"
"1226","nachhaltig","dürfen","0.0036"
