"","V1","V2","V3"
"1","nachhaltig","unternehmenserfolg","5.2146"
"2","nachhaltig","unesco-weltkonferenz","5.1658"
"3","nachhaltig","un-dekade","5.15"
"4","nachhaltig","unternehmensentwicklung","5.1376"
"5","nachhaltig","vergütungsstruktur","5.1376"
"6","nachhaltig","wachstumspfad","5.0323"
"7","nachhaltig","biomassestrom-nachhaltigkeitsverordnung","4.9145"
"8","nachhaltig","waldbewirtschaftung","4.8892"
"9","nachhaltig","partnerschaftsabkommen","4.8781"
"10","nachhaltig","tourismusentwicklung","4.8091"
"11","nachhaltig","pauschalreisen","4.8091"
"12","nachhaltig","rahmenprogramm","4.8091"
"13","nachhaltig","wirtschaftsmodell","4.8091"
"14","nachhaltig","nutzungskonzepte","4.8091"
"15","nachhaltig","kohlenstoffspeicherung","4.8091"
"16","nachhaltig","preisschwankungen","4.8091"
"17","nachhaltig","finanzbasis","4.8091"
"18","nachhaltig","kettenduldungen","4.7446"
"19","nachhaltig","bioenergien","4.7446"
"20","nachhaltig","chancen-","4.6268"
"21","nachhaltig","hochwasserschutz","4.6268"
"22","nachhaltig","anhäufung","4.6268"
"23","nachhaltig","energieeffizienten","4.6268"
"24","nachhaltig","weltkonferenz","4.6268"
"25","nachhaltig","zukunftsgerichtete","4.6268"
"26","nachhaltig","unesco-kommission","4.6268"
"27","nachhaltig","bewirtschaftung","4.5527"
"28","nachhaltig","klimaschonende","4.5468"
"29","nachhaltig","unendlichen","4.4726"
"30","nachhaltig","auflegung","4.4726"
"31","nachhaltig","ernährungs-","4.4036"
"32","nachhaltig","landbewirtschaftung","4.3391"
"33","nachhaltig","staatsfonds","4.3391"
"34","nachhaltig","produktive","4.3391"
"35","nachhaltig","zukunftsweisendes","4.3391"
"36","nachhaltig","halbzeit","4.3391"
"37","nachhaltig","defizitreduzierung","4.3391"
"38","nachhaltig","dekade","4.2903"
"39","nachhaltig","palmöl","4.2591"
"40","nachhaltig","beirat","4.2243"
"41","nachhaltig","zertifizierungssysteme","4.2213"
"42","nachhaltig","zweckbestimmung","4.2213"
"43","nachhaltig","umweltverträglich","4.2213"
"44","nachhaltig","biomasseproduktion","4.2213"
"45","nachhaltig","zertifizierungsstellen","4.2213"
"46","nachhaltig","eisenach","4.2213"
"47","nachhaltig","nachhaltigkeitspolitik","4.185"
"48","nachhaltig","staatseinnahmen","4.185"
"49","nachhaltig","küstenschutz","4.1673"
"50","nachhaltig","geldanlagen","4.116"
"51","nachhaltig","anlageformen","4.116"
"52","nachhaltig","produktionsstätten","4.116"
"53","nachhaltig","zukunftsgestaltung","4.116"
"54","nachhaltig","jugendkultur","4.116"
"55","nachhaltig","wettbewerbs-","4.116"
"56","nachhaltig","ökologisierung","4.116"
"57","nachhaltig","langfristigkeit","4.0672"
"58","nachhaltig","unumkehrbar","4.0207"
"59","nachhaltig","pflanzenschutz","4.0207"
"60","nachhaltig","vorsorgemaßnahmen","4.0207"
"61","nachhaltig","wirtschaften","3.9871"
"62","nachhaltig","wirtschaftsentwicklung","3.9824"
"63","nachhaltig","integrativ","3.9618"
"64","nachhaltig","millenniumserklärung","3.9336"
"65","nachhaltig","bewirtschaften","3.9336"
"66","nachhaltig","pflanzenzüchtung","3.9336"
"67","nachhaltig","unhaltbaren","3.9336"
"68","nachhaltig","flüssig","3.9336"
"69","nachhaltig","problemlösungen","3.9336"
"70","nachhaltig","erzeugt","3.9336"
"71","nachhaltig","ländliche","3.9336"
"72","nachhaltig","konsolidierungsanstrengungen","3.9336"
"73","nachhaltig","vergütungssysteme","3.9336"
"74","nachhaltig","bundeswaldgesetz","3.9336"
"75","nachhaltig","zukunftsweisende","3.8928"
"76","nachhaltig","strohfeuer","3.8796"
"77","nachhaltig","gesetzesfolgenabschätzung","3.8796"
"78","nachhaltig","wasserwirtschaft","3.8536"
"79","nachhaltig","landnutzung","3.8536"
"80","nachhaltig","verleiten","3.8283"
"81","nachhaltig","gesundheitswesens","3.8118"
"82","nachhaltig","ausgerichtet","3.7955"
"83","nachhaltig","investitionspolitik","3.7795"
"84","nachhaltig","eigenmittel","3.7795"
"85","nachhaltig","stringente","3.7795"
"86","nachhaltig","kleinbäuerlichen","3.7795"
"87","nachhaltig","bundeswaldgesetzes","3.7795"
"88","nachhaltig","ausgewogen","3.7618"
"89","nachhaltig","bündnisgrünen","3.7105"
"90","nachhaltig","vorstandsmitglieder","3.7105"
"91","nachhaltig","map","3.6885"
"92","nachhaltig","nachhaltigkeitsstrategie","3.6885"
"93","nachhaltig","konsolidierungspolitik","3.6885"
"94","nachhaltig","lebensräume","3.6885"
"95","nachhaltig","energieerzeugung","3.667"
"96","nachhaltig","agrarbetriebe","3.646"
"97","nachhaltig","generationengerecht","3.646"
"98","nachhaltig","interministerielle","3.5853"
"99","nachhaltig","grundfinanzierung","3.5853"
"100","nachhaltig","geschlagen","3.5853"
"101","nachhaltig","forstwirtschaft","3.5442"
"102","nachhaltig","wettbewerbsfähigen","3.5282"
"103","nachhaltig","weltwirtschaftlichen","3.5282"
"104","nachhaltig","gleichklang","3.5282"
"105","nachhaltig","schlüssige","3.5282"
"106","nachhaltig","bilanzieren","3.5282"
"107","nachhaltig","bewegungsfreiheit","3.5282"
"108","nachhaltig","aktionsplans","3.5282"
"109","nachhaltig","gütesiegel","3.5282"
"110","nachhaltig","mental","3.5282"
"111","nachhaltig","energiesystem","3.5282"
"112","nachhaltig","wettbewerbsfähige","3.5282"
"113","nachhaltig","unternehmensführung","3.5282"
"114","nachhaltig","ökosystem","3.5098"
"115","nachhaltig","städtisch","3.5008"
"116","nachhaltig","fortschrittsbericht","3.5008"
"117","nachhaltig","umgestaltung","3.4918"
"118","nachhaltig","sicherheitsgewinn","3.4741"
"119","nachhaltig","bundesseite","3.4741"
"120","nachhaltig","verträglich","3.4741"
"121","nachhaltig","regenwälder","3.4741"
"122","nachhaltig","erzeugung","3.4666"
"123","nachhaltig","wirtschaftswachstum","3.461"
"124","nachhaltig","holz","3.4481"
"125","nachhaltig","charta","3.4354"
"126","nachhaltig","leistungs-","3.4228"
"127","nachhaltig","ernährungssicherung","3.4228"
"128","nachhaltig","subsahara-afrika","3.4228"
"129","nachhaltig","zweistaatenlösung","3.4228"
"130","nachhaltig","verantwortungsbewusste","3.39"
"131","nachhaltig","nachhaltigkeitsprüfung","3.3836"
"132","nachhaltig","legale","3.374"
"133","nachhaltig","zukunftsfähigen","3.374"
"134","nachhaltig","gentechnologie","3.374"
"135","nachhaltig","gesteckt","3.374"
"136","nachhaltig","forschungsausgaben","3.374"
"137","nachhaltig","agrarstruktur","3.3505"
"138","nachhaltig","beschäftigungspolitik","3.3275"
"139","nachhaltig","bundesprogramm","3.305"
"140","nachhaltig","stadtentwicklungspolitik","3.305"
"141","nachhaltig","binnenkonjunktur","3.2977"
"142","nachhaltig","biomasse","3.2977"
"143","nachhaltig","demografischer","3.2977"
"144","nachhaltig","stützung","3.2831"
"145","nachhaltig","mittelstandspolitik","3.2831"
"146","nachhaltig","ankurbeln","3.2831"
"147","nachhaltig","ausweisung","3.2831"
"148","nachhaltig","entwicklung","3.2608"
"149","nachhaltig","konsum","3.2592"
"150","nachhaltig","überschuldet","3.2405"
"151","nachhaltig","auslaufend","3.2405"
"152","nachhaltig","genutzt","3.2405"
"153","nachhaltig","tragfähige","3.2267"
"154","nachhaltig","überweisungsvorschlag:","3.2131"
"155","nachhaltig","vermarkten","3.1997"
"156","nachhaltig","haushaltsführung","3.1997"
"157","nachhaltig","natur-","3.1997"
"158","nachhaltig","pittsburgh","3.1997"
"159","nachhaltig","leitbild","3.1897"
"160","nachhaltig","bezahlbare","3.1799"
"161","nachhaltig","umweltfreundlich","3.1715"
"162","nachhaltig","finanzpolitik","3.1695"
"163","nachhaltig","parlamentarische","3.1692"
"164","nachhaltig","gesamtstrategie","3.1605"
"165","nachhaltig","innovationsfähigkeit","3.1605"
"166","nachhaltig","nachhaltige","3.1605"
"167","nachhaltig","cross","3.1605"
"168","nachhaltig","lebensgrundlagen","3.1452"
"169","nachhaltig","solidarische","3.132"
"170","nachhaltig","einmalzahlung","3.1227"
"171","nachhaltig","energetisch","3.1227"
"172","nachhaltig","sozialverträglich","3.1227"
"173","nachhaltig","ökolandbau","3.1104"
"174","nachhaltig","rückgrat","3.0863"
"175","nachhaltig","zentralasien","3.0863"
"176","nachhaltig","zusammenpassen","3.0863"
"177","nachhaltig","vorbedingung","3.0863"
"178","nachhaltig","mobilität","3.07"
"179","nachhaltig","zertifizierung","3.0686"
"180","nachhaltig","zuführen","3.0582"
"181","nachhaltig","verankerung","3.0513"
"182","nachhaltig","gesamtsumme","3.0513"
"183","nachhaltig","wachstum","3.0435"
"184","nachhaltig","ordnen","3.0342"
"185","nachhaltig","haushaltspolitik","3.0296"
"186","nachhaltig","lebensqualität","3.0174"
"187","nachhaltig","ernährungssicherheit","3.0174"
"188","nachhaltig","energiebedarf","3.0174"
"189","nachhaltig","urban","3.0174"
"190","nachhaltig","schädigen","3.0041"
"191","nachhaltig","agrar-","2.9954"
"192","nachhaltig","sanieren","2.9846"
"193","nachhaltig","compliance","2.9846"
"194","nachhaltig","green","2.9846"
"195","nachhaltig","vergütungsstrukturen","2.9846"
"196","nachhaltig","partnerländern","2.9781"
"197","nachhaltig","substanzielle","2.9739"
"198","nachhaltig","angemessenheit","2.9739"
"199","nachhaltig","gesunden","2.9708"
"200","nachhaltig","ökologisch","2.9625"
"201","nachhaltig","strukturpolitik","2.9528"
"202","nachhaltig","politikfelder","2.9528"
"203","nachhaltig","umweltpolitik","2.945"
"204","nachhaltig","biogas","2.9425"
"205","nachhaltig","zukunftsfest","2.9322"
"206","nachhaltig","netzwerk","2.9322"
"207","nachhaltig","energieversorgung","2.9312"
"208","nachhaltig","fehlerhaft","2.922"
"209","nachhaltig","biokraftstoffe","2.922"
"210","nachhaltig","vital","2.922"
"211","nachhaltig","etablierung","2.922"
"212","nachhaltig","handelnd","2.912"
"213","nachhaltig","verkehrspolitik","2.9053"
"214","nachhaltig","westliche","2.8922"
"215","nachhaltig","eingeschlagen","2.8922"
"216","nachhaltig","politikfeldern","2.8922"
"217","nachhaltig","zielgerichtete","2.8922"
"218","nachhaltig","politikfeld","2.8922"
"219","nachhaltig","agrarwirtschaft","2.8922"
"220","nachhaltig","tätigkeitsbericht","2.8922"
"221","nachhaltig","bleiberechtsregelung","2.8922"
"222","nachhaltig","raubbau","2.8632"
"223","nachhaltig","entlohnen","2.8632"
"224","nachhaltig","produktion","2.8632"
"225","nachhaltig","unterricht","2.8537"
"226","nachhaltig","ländlich","2.8381"
"227","nachhaltig","präsidentschaft","2.835"
"228","nachhaltig","human","2.835"
"229","nachhaltig","familienunternehmen","2.835"
"230","nachhaltig","konjunkturprogrammen","2.835"
"231","nachhaltig","gewinnung","2.835"
"232","nachhaltig","wachstumsstrategie","2.835"
"233","nachhaltig","tierhaltung","2.835"
"234","nachhaltig","sparsam","2.8167"
"235","nachhaltig","aufräumen","2.8167"
"236","nachhaltig","nachwachsend","2.8167"
"237","nachhaltig","eindämmen","2.8131"
"238","nachhaltig","sportpolitik","2.8076"
"239","nachhaltig","wald","2.8029"
"240","nachhaltig","regierungshandeln","2.7987"
"241","nachhaltig","ökonomie","2.7987"
"242","nachhaltig","nachhaltigkeit","2.7942"
"243","nachhaltig","ganzheitlich","2.781"
"244","nachhaltig","bleiberecht","2.781"
"245","nachhaltig","kleinbauern","2.781"
"246","nachhaltig","immobilie","2.781"
"247","nachhaltig","partizipation","2.781"
"248","nachhaltig","solide","2.7626"
"249","nachhaltig","weiterentwickeln","2.7601"
"250","nachhaltig","prämisse","2.755"
"251","nachhaltig","zusammenwachsen","2.755"
"252","nachhaltig","klassische","2.7465"
"253","nachhaltig","längerfristig","2.7297"
"254","nachhaltig","umweltschutz","2.7297"
"255","nachhaltig","sozialsystem","2.7297"
"256","nachhaltig","weichenstellung","2.7297"
"257","nachhaltig","kapitaldeckung","2.7297"
"258","nachhaltig","weltagrarbericht","2.7297"
"259","nachhaltig","bewahrung","2.705"
"260","nachhaltig","weltmarkt","2.705"
"261","nachhaltig","waldbesitzer","2.705"
"262","nachhaltig","kohärent","2.6809"
"263","nachhaltig","bewerkstelligen","2.6809"
"264","nachhaltig","subsidiaritätsprinzip","2.6809"
"265","nachhaltig","weltgemeinschaft","2.6651"
"266","nachhaltig","kyritz-ruppiner","2.6574"
"267","nachhaltig","wohlstand","2.6537"
"268","nachhaltig","hinausgeht","2.6496"
"269","nachhaltig","heide","2.6496"
"270","nachhaltig","unerlässlich","2.6458"
"271","nachhaltig","einsetzung","2.6409"
"272","nachhaltig","weiterfahren","2.6344"
"273","nachhaltig","unternehmerische","2.6344"
"274","nachhaltig","gesundheitsversorgung","2.6344"
"275","nachhaltig","review","2.6344"
"276","nachhaltig","untrennbar","2.6344"
"277","nachhaltig","zukunftsfähige","2.6231"
"278","nachhaltig","finanzierung","2.6203"
"279","nachhaltig","finanzprodukte","2.6193"
"280","nachhaltig","stabilisierung","2.6132"
"281","nachhaltig","klima","2.6119"
"282","nachhaltig","bestrebungen","2.6119"
"283","nachhaltig","gesamtwirtschaftlichen","2.6119"
"284","nachhaltig","ertrag","2.6119"
"285","nachhaltig","regierungsführung","2.6119"
"286","nachhaltig","heimisch","2.6075"
"287","nachhaltig","multilaterale","2.5899"
"288","nachhaltig","mitunter","2.5899"
"289","nachhaltig","multilateralen","2.5899"
"290","nachhaltig","bäuerlich","2.5899"
"291","nachhaltig","fehmarnbelt-querung","2.5899"
"292","nachhaltig","schonen","2.5755"
"293","nachhaltig","störung","2.5755"
"294","nachhaltig","fossile","2.5684"
"295","nachhaltig","glatt","2.5684"
"296","nachhaltig","landwirtschaftlich","2.5654"
"297","nachhaltig","nutzung","2.5629"
"298","nachhaltig","strukturwandel","2.5613"
"299","nachhaltig","erholung","2.5613"
"300","nachhaltig","erschüttern","2.5474"
"301","nachhaltig","ressource","2.5474"
"302","nachhaltig","anhaltend","2.5474"
"303","nachhaltig","malaria","2.5474"
"304","nachhaltig","sozialstaates","2.5474"
"305","nachhaltig","schuldenregel","2.5474"
"306","nachhaltig","regierungskommission","2.537"
"307","nachhaltig","nahrungsmitteln","2.5267"
"308","nachhaltig","sanitärversorgung","2.5267"
"309","nachhaltig","waldschutz","2.5267"
"310","nachhaltig","energieträger","2.52"
"311","nachhaltig","verantwortbar","2.52"
"312","nachhaltig","umwelt-","2.518"
"313","nachhaltig","ausrichten","2.5089"
"314","nachhaltig","zukunftsinvestitionen","2.5065"
"315","nachhaltig","formell","2.5065"
"316","nachhaltig","konsument","2.5065"
"317","nachhaltig","biomethan","2.5065"
"318","nachhaltig","innovativ","2.4933"
"319","nachhaltig","wirtschaftsordnung","2.4867"
"320","nachhaltig","verfügbarkeit","2.4867"
"321","nachhaltig","tuberkulose","2.4867"
"322","nachhaltig","erforschung","2.4867"
"323","nachhaltig","wattenmeer","2.4867"
"324","nachhaltig","armutsbekämpfung","2.4737"
"325","nachhaltig","vermindern","2.4673"
"326","nachhaltig","schlüssel","2.4673"
"327","nachhaltig","dezentrale","2.4673"
"328","nachhaltig","resultat","2.4673"
"329","nachhaltig","energetische","2.4596"
"330","nachhaltig","tourismus","2.4546"
"331","nachhaltig","produktivität","2.4483"
"332","nachhaltig","funktionsfähig","2.4483"
"333","nachhaltig","sozialismus","2.4483"
"334","nachhaltig","gak","2.4483"
"335","nachhaltig","gebhart","2.4483"
"336","nachhaltig","senger-schäfer","2.4483"
"337","nachhaltig","forschungs-","2.442"
"338","nachhaltig","staatsfinanzen","2.442"
"339","nachhaltig","who","2.442"
"340","nachhaltig","tiefgreifend","2.4296"
"341","nachhaltig","energiewende","2.4296"
"342","nachhaltig","einbetten","2.4296"
"343","nachhaltig","abwälzen","2.4296"
"344","nachhaltig","jahresende","2.4296"
"345","nachhaltig","wirtschaftsstandort","2.4296"
"346","nachhaltig","gesundheitssystems","2.4296"
"347","nachhaltig","artenvielfalt","2.4296"
"348","nachhaltig","bau-","2.4296"
"349","nachhaltig","leitlinien","2.4296"
"350","nachhaltig","aufschwung","2.4265"
"351","nachhaltig","hunger","2.4234"
"352","nachhaltig","stromerzeugung","2.4173"
"353","nachhaltig","klimaschutzes","2.4173"
"354","nachhaltig","vorbildfunktion","2.4112"
"355","nachhaltig","waffenstillstand","2.4112"
"356","nachhaltig","lebenssituation","2.4112"
"357","nachhaltig","energiekosten","2.4112"
"358","nachhaltig","friedenspolitik","2.4112"
"359","nachhaltig","langfristig","2.4095"
"360","nachhaltig","schwellenländern","2.3932"
"361","nachhaltig","sozialsysteme","2.3932"
"362","nachhaltig","erhaltung","2.3932"
"363","nachhaltig","kurzum","2.3932"
"364","nachhaltig","gestalten","2.3902"
"365","nachhaltig","steuern","2.3843"
"366","nachhaltig","gemeinschaftsaufgabe","2.3843"
"367","nachhaltig","bildung","2.3752"
"368","nachhaltig","motivation","2.3581"
"369","nachhaltig","ganzes","2.3581"
"370","nachhaltig","garant","2.3581"
"371","nachhaltig","bildungseinrichtungen","2.3581"
"372","nachhaltig","versorgungssicherheit","2.3581"
"373","nachhaltig","einnahmeseite","2.3581"
"374","nachhaltig","entwicklungs-","2.3467"
"375","nachhaltig","stabil","2.3449"
"376","nachhaltig","spürbar","2.341"
"377","nachhaltig","ungleichheit","2.341"
"378","nachhaltig","effektivität","2.341"
"379","nachhaltig","haushalts-","2.341"
"380","nachhaltig","weiche","2.3386"
"381","nachhaltig","konsolidieren","2.3354"
"382","nachhaltig","qualitativ","2.3338"
"383","nachhaltig","regierungspolitik","2.3242"
"384","nachhaltig","verwunderlich","2.3242"
"385","nachhaltig","landwirtschaft","2.3217"
"386","nachhaltig","entwicklungsländern","2.3191"
"387","nachhaltig","verankern","2.3187"
"388","nachhaltig","streben","2.3077"
"389","nachhaltig","selbsthilfe","2.3077"
"390","nachhaltig","güterverkehr","2.3077"
"391","nachhaltig","herstellung","2.3044"
"392","nachhaltig","partnerländer","2.2914"
"393","nachhaltig","hochwertig","2.2914"
"394","nachhaltig","konsequente","2.2914"
"395","nachhaltig","institutionell","2.2914"
"396","nachhaltig","integrationspolitik","2.2807"
"397","nachhaltig","anregen","2.2807"
"398","nachhaltig","umbau","2.2786"
"399","nachhaltig","verleihen","2.2701"
"400","nachhaltig","legal","2.2701"
"401","nachhaltig","langzeitarbeitslosigkeit","2.2701"
"402","nachhaltig","klimaschutz","2.268"
"403","nachhaltig","bewusstsein","2.2641"
"404","nachhaltig","eigenverantwortlich","2.2597"
"405","nachhaltig","sicherheits-","2.2597"
"406","nachhaltig","bundeskanzleramt","2.2597"
"407","nachhaltig","weltweite","2.2534"
"408","nachhaltig","bereitstellung","2.2493"
"409","nachhaltig","konsolidierung","2.248"
"410","nachhaltig","energiepolitik","2.2442"
"411","nachhaltig","atmosphäre","2.2442"
"412","nachhaltig","infrastruktur","2.2434"
"413","nachhaltig","ernähren","2.239"
"414","nachhaltig","ausgeglichen","2.2289"
"415","nachhaltig","auswiegen","2.2289"
"416","nachhaltig","energieversorger","2.2289"
"417","nachhaltig","koppeln","2.2289"
"418","nachhaltig","innovative","2.2214"
"419","nachhaltig","dynamik","2.2214"
"420","nachhaltig","erde","2.2168"
"421","nachhaltig","intelligent","2.216"
"422","nachhaltig","zuwanderung","2.2139"
"423","nachhaltig","zielgerichtet","2.2139"
"424","nachhaltig","beeinflusst","2.2139"
"425","nachhaltig","eindringlich","2.2139"
"426","nachhaltig","aktionismus","2.2139"
"427","nachhaltig","maßvoll","2.2139"
"428","nachhaltig","kostengünstig","2.2089"
"429","nachhaltig","hinwirken","2.2089"
"430","nachhaltig","kapazität","2.2064"
"431","nachhaltig","strategie","2.2022"
"432","nachhaltig","meistern","2.199"
"433","nachhaltig","wirkungsvoll","2.199"
"434","nachhaltig","zerstören","2.199"
"435","nachhaltig","weltwirtschaft","2.199"
"436","nachhaltig","redebeitrag","2.199"
"437","nachhaltig","belohnen","2.199"
"438","nachhaltig","hochwertige","2.199"
"439","nachhaltig","wettbewerbsfähigkeit","2.1917"
"440","nachhaltig","investieren","2.1864"
"441","nachhaltig","ethische","2.1844"
"442","nachhaltig","trage","2.1844"
"443","nachhaltig","verknüpfung","2.1844"
"444","nachhaltig","verlässlich","2.1796"
"445","nachhaltig","pflege","2.1741"
"446","nachhaltig","erzeugen","2.1701"
"447","nachhaltig","zusammenkommen","2.1701"
"448","nachhaltig","hut","2.1701"
"449","nachhaltig","wirtschaftspolitik","2.1701"
"450","nachhaltig","barrierefreiheit","2.1701"
"451","nachhaltig","ökologie","2.1701"
"452","nachhaltig","bezahlbar","2.1629"
"453","nachhaltig","tragfähig","2.1606"
"454","nachhaltig","generation","2.1559"
"455","nachhaltig","zurückliegend","2.1559"
"456","nachhaltig","realisierung","2.1559"
"457","nachhaltig","drittstaaten","2.1559"
"458","nachhaltig","elektromobilität","2.1559"
"459","nachhaltig","meinungsfreiheit","2.1559"
"460","nachhaltig","impuls","2.1531"
"461","nachhaltig","finanz-","2.1469"
"462","nachhaltig","and","2.1419"
"463","nachhaltig","kultur-","2.135"
"464","nachhaltig","israelische","2.1281"
"465","nachhaltig","bmbf","2.1281"
"466","nachhaltig","verantwortungsvoll","2.1266"
"467","nachhaltig","eigenverantwortung","2.1235"
"468","nachhaltig","reduzierung","2.1179"
"469","nachhaltig","energiewirtschaft","2.1145"
"470","nachhaltig","steuerung","2.1145"
"471","nachhaltig","effektiv","2.1122"
"472","nachhaltig","handwerk","2.1091"
"473","nachhaltig","bosnien-herzegowina","2.1078"
"474","nachhaltig","verknüpfen","2.1055"
"475","nachhaltig","intensive","2.1055"
"476","nachhaltig","gemeinwohl","2.1011"
"477","nachhaltig","rezession","2.1011"
"478","nachhaltig","kurzfristig","2.0959"
"479","nachhaltig","zuverlässig","2.0878"
"480","nachhaltig","menschheit","2.0878"
"481","nachhaltig","verkehrsinfrastruktur","2.0878"
"482","nachhaltig","wirtschaftlichkeit","2.0878"
"483","nachhaltig","urlaub","2.0878"
"484","nachhaltig","optimale","2.0878"
"485","nachhaltig","verschiebung","2.0878"
"486","nachhaltig","wandel","2.0803"
"487","nachhaltig","sozialpolitik","2.0747"
"488","nachhaltig","daransetzen","2.0747"
"489","nachhaltig","illusion","2.0747"
"490","nachhaltig","enquete-kommission","2.0722"
"491","nachhaltig","gleichgewicht","2.0618"
"492","nachhaltig","lebenslang","2.0618"
"493","nachhaltig","zukunftsfähig","2.0618"
"494","nachhaltig","forschungsförderung","2.0533"
"495","nachhaltig","raum","2.0516"
"496","nachhaltig","hinreichend","2.0491"
"497","nachhaltig","bürgerschaftlichen","2.0491"
"498","nachhaltig","sozial","2.0475"
"499","nachhaltig","new","2.0449"
"500","nachhaltig","aufbau","2.0444"
"501","nachhaltig","illegal","2.0407"
"502","nachhaltig","einschlagen","2.0365"
"503","nachhaltig","ordnungsgemäß","2.0365"
"504","nachhaltig","bundesrechnungshof","2.0365"
"505","nachhaltig","friedliche","2.0365"
"506","nachhaltig","becker","2.0365"
"507","nachhaltig","fachlich","2.0315"
"508","nachhaltig","umsonst","2.0241"
"509","nachhaltig","ökonomisch","2.0223"
"510","nachhaltig","effiziente","2.02"
"511","nachhaltig","marktwirtschaft","2.0195"
"512","nachhaltig","konzentrieren","2.0118"
"513","nachhaltig","überwindung","2.0118"
"514","nachhaltig","einlassen","2.0118"
"515","nachhaltig","verbleiben","2.0118"
"516","nachhaltig","innovation","2.0098"
"517","nachhaltig","rasch","2.0058"
"518","nachhaltig","bildungssystem","2.0058"
"519","nachhaltig","beurteilung","2.0037"
"520","nachhaltig","stärken","2.0032"
"521","nachhaltig","arbeitsplätzen","1.9997"
"522","nachhaltig","kostensteigerungen","1.9997"
"523","nachhaltig","stören","1.9937"
"524","nachhaltig","vergütung","1.9937"
"525","nachhaltig","stabilisieren","1.9937"
"526","nachhaltig","beeinflussen","1.9877"
"527","nachhaltig","crone","1.9877"
"528","nachhaltig","familienpolitik","1.9877"
"529","nachhaltig","integrieren","1.9851"
"530","nachhaltig","eingesetzt","1.9798"
"531","nachhaltig","sachverständigenrat","1.9759"
"532","nachhaltig","umwandeln","1.9759"
"533","nachhaltig","effekt","1.972"
"534","nachhaltig","natur","1.972"
"535","nachhaltig","voranbringen","1.9668"
"536","nachhaltig","sozial-","1.9642"
"537","nachhaltig","sektor","1.9642"
"538","nachhaltig","effektive","1.9642"
"539","nachhaltig","lissabon-strategie","1.9642"
"540","nachhaltig","iter","1.9642"
"541","nachhaltig","wirksamkeit","1.9584"
"542","nachhaltig","überdenken","1.9526"
"543","nachhaltig","orientieren","1.9481"
"544","nachhaltig","anreiz","1.9469"
"545","nachhaltig","verringern","1.9458"
"546","nachhaltig","gesellschaftlich","1.9445"
"547","nachhaltig","mittel-","1.9412"
"548","nachhaltig","weichenstellungen","1.9412"
"549","nachhaltig","eindrucksvoll","1.9412"
"550","nachhaltig","erstmalig","1.9412"
"551","nachhaltig","plädieren","1.9412"
"552","nachhaltig","gesamtkonzept","1.9412"
"553","nachhaltig","drängend","1.9412"
"554","nachhaltig","verkennen","1.9412"
"555","nachhaltig","unfallversicherung","1.9412"
"556","nachhaltig","schwäche","1.9337"
"557","nachhaltig","parlamentarisch","1.9337"
"558","nachhaltig","entgegenwirken","1.9337"
"559","nachhaltig","mitteilung","1.9299"
"560","nachhaltig","wasser","1.9262"
"561","nachhaltig","rahmenbedingungen","1.9257"
"562","nachhaltig","korruption","1.9243"
"563","nachhaltig","nationale","1.9225"
"564","nachhaltig","produzieren","1.9225"
"565","nachhaltig","umfasst","1.9187"
"566","nachhaltig","spannung","1.9187"
"567","nachhaltig","auskommen","1.9187"
"568","nachhaltig","fortführung","1.9187"
"569","nachhaltig","anbau","1.9114"
"570","nachhaltig","energieeffizienz","1.9093"
"571","nachhaltig","forum","1.9077"
"572","nachhaltig","strengmann-kuhn","1.9077"
"573","nachhaltig","kindler","1.9077"
"574","nachhaltig","struktur","1.9017"
"575","nachhaltig","umwelt","1.9"
"576","nachhaltig","politik","1.8991"
"577","nachhaltig","berater","1.8968"
"578","nachhaltig","fortentwicklung","1.8968"
"579","nachhaltig","steigern","1.8937"
"580","nachhaltig","dauer","1.8924"
"581","nachhaltig","csu-bundestagsfraktion","1.8895"
"582","nachhaltig","finanz","1.8886"
"583","nachhaltig","aktionsplan","1.886"
"584","nachhaltig","kontinent","1.886"
"585","nachhaltig","klima-","1.886"
"586","nachhaltig","biodiversität","1.886"
"587","nachhaltig","stabile","1.8824"
"588","nachhaltig","meer","1.8824"
"589","nachhaltig","bekämpfen","1.8753"
"590","nachhaltig","transparent","1.8753"
"591","nachhaltig","vordergrund","1.8753"
"592","nachhaltig","fachkräfte","1.8753"
"593","nachhaltig","auflegen","1.8668"
"594","nachhaltig","landschaft","1.8647"
"595","nachhaltig","konjunkturell","1.8584"
"596","nachhaltig","müll","1.8542"
"597","nachhaltig","sicherungssysteme","1.8542"
"598","nachhaltig","wirtschaft","1.8514"
"599","nachhaltig","bewältigung","1.8459"
"600","nachhaltig","heilmann","1.8438"
"601","nachhaltig","daseinsvorsorge","1.8438"
"602","nachhaltig","versetzen","1.8418"
"603","nachhaltig","binnennachfrage","1.8404"
"604","nachhaltig","deal","1.8404"
"605","nachhaltig","bürgerversicherung","1.8387"
"606","nachhaltig","global","1.8336"
"607","nachhaltig","einseitig","1.8336"
"608","nachhaltig","zusammensetzen","1.8336"
"609","nachhaltig","beispielhaft","1.8336"
"610","nachhaltig","erwerbsleben","1.8336"
"611","nachhaltig","stellungnahme","1.8295"
"612","nachhaltig","zivilgesellschaft","1.8285"
"613","nachhaltig","finanzmärkte","1.8275"
"614","nachhaltig","sichern","1.8238"
"615","nachhaltig","begünstigen","1.8234"
"616","nachhaltig","voranzutreiben","1.8234"
"617","nachhaltig","pur","1.8234"
"618","nachhaltig","unsicher","1.8234"
"619","nachhaltig","gewährleisten","1.823"
"620","nachhaltig","handel","1.8214"
"621","nachhaltig","bilateral","1.8214"
"622","nachhaltig","finanzielle","1.817"
"623","nachhaltig","soziale","1.8161"
"624","nachhaltig","armut","1.8159"
"625","nachhaltig","manager","1.8134"
"626","nachhaltig","boden","1.8134"
"627","nachhaltig","existieren","1.8134"
"628","nachhaltig","geschlecht","1.8134"
"629","nachhaltig","christlich-liberalen","1.8134"
"630","nachhaltig","mitnehmen","1.8067"
"631","nachhaltig","modern","1.8011"
"632","nachhaltig","fortschritt","1.8001"
"633","nachhaltig","belange","1.8001"
"634","nachhaltig","finanzmarkt","1.7985"
"635","nachhaltig","ausrichtung","1.7985"
"636","nachhaltig","förderung","1.795"
"637","nachhaltig","zusammenhalt","1.7936"
"638","nachhaltig","haiti","1.7936"
"639","nachhaltig","pflegen","1.7936"
"640","nachhaltig","grundlegende","1.7936"
"641","nachhaltig","generationengerechtigkeit","1.7871"
"642","nachhaltig","einerseits","1.7849"
"643","nachhaltig","verweis","1.7838"
"644","nachhaltig","nichtregierungsorganisationen","1.7838"
"645","nachhaltig","hightech-strategie","1.7838"
"646","nachhaltig","aufgeben","1.7774"
"647","nachhaltig","isolieren","1.7742"
"648","nachhaltig","baustein","1.7742"
"649","nachhaltig","eu-mitgliedstaaten","1.7742"
"650","nachhaltig","afrikanisch","1.7742"
"651","nachhaltig","lokal","1.7742"
"652","nachhaltig","wirtschaftlich","1.7693"
"653","nachhaltig","entwicklungszusammenarbeit","1.7678"
"654","nachhaltig","qualifizierung","1.7646"
"655","nachhaltig","variante","1.7646"
"656","nachhaltig","förderprogramm","1.7646"
"657","nachhaltig","abwenden","1.7551"
"658","nachhaltig","wende","1.7551"
"659","nachhaltig","vorangetrieben","1.7551"
"660","nachhaltig","derartig","1.7551"
"661","nachhaltig","wirken","1.7471"
"662","nachhaltig","begriff","1.7407"
"663","nachhaltig","entwicklungspolitik","1.7364"
"664","nachhaltig","bildungs-","1.7364"
"665","nachhaltig","miete","1.7364"
"666","nachhaltig","vierte","1.7303"
"667","nachhaltig","regional","1.7303"
"668","nachhaltig","titel","1.7287"
"669","nachhaltig","überein","1.7272"
"670","nachhaltig","erhoffen","1.7272"
"671","nachhaltig","bollmann","1.7272"
"672","nachhaltig","rohstoff","1.7272"
"673","nachhaltig","wirksam","1.7259"
"674","nachhaltig","geeignet","1.7108"
"675","nachhaltig","niedersachsen","1.7001"
"676","nachhaltig","leistungsfähig","1.7001"
"677","nachhaltig","umfangreich","1.6941"
"678","nachhaltig","entwickeln","1.6912"
"679","nachhaltig","bündeln","1.6912"
"680","nachhaltig","marktanreizprogramm","1.6912"
"681","nachhaltig","erhalt","1.6859"
"682","nachhaltig","existenziell","1.6824"
"683","nachhaltig","methode","1.6765"
"684","nachhaltig","sudan","1.6765"
"685","nachhaltig","gesund","1.6736"
"686","nachhaltig","einklang","1.6707"
"687","nachhaltig","weltweit","1.6691"
"688","nachhaltig","kunert","1.665"
"689","nachhaltig","hervorrufen","1.665"
"690","nachhaltig","übergang","1.6607"
"691","nachhaltig","regionale","1.6592"
"692","nachhaltig","terror","1.6564"
"693","nachhaltig","steuer-","1.6564"
"694","nachhaltig","dauerhaft","1.6479"
"695","nachhaltig","erreichung","1.6479"
"696","nachhaltig","verwirklichen","1.6479"
"697","nachhaltig","zutiefst","1.6479"
"698","nachhaltig","begreifen","1.6479"
"699","nachhaltig","kulturelle","1.6479"
"700","nachhaltig","spd-bundestagsfraktion","1.6436"
"701","nachhaltig","engagement","1.6432"
"702","nachhaltig","beschäftigung","1.6418"
"703","nachhaltig","rücken","1.6406"
"704","nachhaltig","gesundheitspolitik","1.6394"
"705","nachhaltig","überwiegen","1.6311"
"706","nachhaltig","weiterentwicklung","1.6311"
"707","nachhaltig","schurer","1.6311"
"708","nachhaltig","pflegeversicherung","1.6311"
"709","nachhaltig","stützen","1.6269"
"710","nachhaltig","erneuerbare","1.6263"
"711","nachhaltig","etablieren","1.6255"
"712","nachhaltig","zustand","1.6207"
"713","nachhaltig","lebensmittel","1.62"
"714","nachhaltig","rösler","1.6186"
"715","nachhaltig","herausforderung","1.6181"
"716","nachhaltig","freier","1.6145"
"717","nachhaltig","sicherung","1.6125"
"718","nachhaltig","zutreffen","1.6091"
"719","nachhaltig","kinderbetreuung","1.6091"
"720","nachhaltig","nr.","1.6091"
"721","nachhaltig","bildungspolitik","1.6064"
"722","nachhaltig","stabilitäts-","1.6064"
"723","nachhaltig","lehre","1.6052"
"724","nachhaltig","ausmachen","1.6037"
"725","nachhaltig","verstärken","1.5997"
"726","nachhaltig","sowie","1.5997"
"727","nachhaltig","währung","1.5983"
"728","nachhaltig","andererseits","1.5942"
"729","nachhaltig","verbessern","1.5938"
"730","nachhaltig","krankenhäuser","1.5902"
"731","nachhaltig","koordinierung","1.5902"
"732","nachhaltig","anhand","1.5876"
"733","nachhaltig","produkt","1.5823"
"734","nachhaltig","wirtschaftskrise","1.5809"
"735","nachhaltig","benötigen","1.5787"
"736","nachhaltig","erzielen","1.5783"
"737","nachhaltig","verbesserung","1.5772"
"738","nachhaltig","aufbauen","1.5765"
"739","nachhaltig","steuerzahlerinnen","1.5744"
"740","nachhaltig","herangezogen","1.5744"
"741","nachhaltig","verwaltung","1.5744"
"742","nachhaltig","bildungsbereich","1.5665"
"743","nachhaltig","binnenmarkt","1.5665"
"744","nachhaltig","verständlich","1.5665"
"745","nachhaltig","widmen","1.5665"
"746","nachhaltig","klimawandels","1.5665"
"747","nachhaltig","staatengemeinschaft","1.5587"
"748","nachhaltig","beitrag","1.5526"
"749","nachhaltig","nachweis","1.551"
"750","nachhaltig","schaffung","1.5459"
"751","nachhaltig","fundament","1.5408"
"752","nachhaltig","ziel","1.5387"
"753","nachhaltig","perspektive","1.537"
"754","nachhaltig","gesundheitssystem","1.5358"
"755","nachhaltig","auslaufen","1.5358"
"756","nachhaltig","drucksachen","1.5348"
"757","nachhaltig","stadt","1.5337"
"758","nachhaltig","gerechtigkeit","1.5324"
"759","nachhaltig","hälfte","1.5314"
"760","nachhaltig","gewährleistung","1.5282"
"761","nachhaltig","grundlage","1.5248"
"762","nachhaltig","kommend","1.5207"
"763","nachhaltig","chancengleichheit","1.5207"
"764","nachhaltig","vorbild","1.5207"
"765","nachhaltig","eignen","1.5207"
"766","nachhaltig","dienstleistungen","1.517"
"767","nachhaltig","außenpolitik","1.5165"
"768","nachhaltig","steuersystem","1.5133"
"769","nachhaltig","generieren","1.5133"
"770","nachhaltig","beauftragen","1.5133"
"771","nachhaltig","erneuerbarer","1.5108"
"772","nachhaltig","prävention","1.5096"
"773","nachhaltig","unterrichtung","1.5096"
"774","nachhaltig","gerecht","1.5092"
"775","nachhaltig","sinn","1.5074"
"776","nachhaltig","entfalten","1.5059"
"777","nachhaltig","zuversichtlich","1.5059"
"778","nachhaltig","realistisch","1.5059"
"779","nachhaltig","ermöglichen","1.5052"
"780","nachhaltig","wirkung","1.5044"
"781","nachhaltig","basis","1.5015"
"782","nachhaltig","fördern","1.4986"
"783","nachhaltig","bonn","1.4986"
"784","nachhaltig","hinterlassen","1.4913"
"785","nachhaltig","inwieweit","1.4877"
"786","nachhaltig","sicher","1.4849"
"787","nachhaltig","sofortig","1.4841"
"788","nachhaltig","berücksichtigung","1.4841"
"789","nachhaltig","agieren","1.4805"
"790","nachhaltig","demokratische","1.4805"
"791","nachhaltig","beibehalten","1.4769"
"792","nachhaltig","krankenversicherung","1.4756"
"793","nachhaltig","voraussetzung","1.4745"
"794","nachhaltig","ausgestalten","1.4733"
"795","nachhaltig","gestaltung","1.4722"
"796","nachhaltig","jenseits","1.4698"
"797","nachhaltig","beweis","1.4674"
"798","nachhaltig","hre","1.4674"
"799","nachhaltig","naturschutz","1.467"
"800","nachhaltig","wahlperiode","1.4655"
"801","nachhaltig","sicherstellen","1.4637"
"802","nachhaltig","federführend","1.4627"
"803","nachhaltig","versicherung","1.4627"
"804","nachhaltig","unterstützen","1.462"
"805","nachhaltig","maßstab","1.4599"
"806","nachhaltig","buchstabe","1.4557"
"807","nachhaltig","gremium","1.4534"
"808","nachhaltig","zurückkommen","1.4534"
"809","nachhaltig","heutige","1.446"
"810","nachhaltig","verabschiedung","1.4441"
"811","nachhaltig","konsequent","1.4435"
"812","nachhaltig","anlegen","1.4377"
"813","nachhaltig","abbauen","1.4372"
"814","nachhaltig","beheben","1.4349"
"815","nachhaltig","peer","1.4349"
"816","nachhaltig","haushaltskonsolidierung","1.4349"
"817","nachhaltig","defizit","1.4322"
"818","nachhaltig","volkswirtschaft","1.4304"
"819","nachhaltig","rechtssicherheit","1.4304"
"820","nachhaltig","anstreben","1.4304"
"821","nachhaltig","legitim","1.4281"
"822","nachhaltig","gesundheit","1.4263"
"823","nachhaltig","strukturell","1.4236"
"824","nachhaltig","leistungsfähigkeit","1.4213"
"825","nachhaltig","annahme","1.4213"
"826","nachhaltig","reaktorsicherheit","1.4213"
"827","nachhaltig","kontraproduktiv","1.4213"
"828","nachhaltig","wichtigste","1.4168"
"829","nachhaltig","schwerpunkt","1.4163"
"830","nachhaltig","quelle","1.4146"
"831","nachhaltig","demokratisch","1.4146"
"832","nachhaltig","ausschöpfen","1.4146"
"833","nachhaltig","wohnen","1.4124"
"834","nachhaltig","beteiligte","1.4124"
"835","nachhaltig","beschränkung","1.4079"
"836","nachhaltig","trend","1.4079"
"837","nachhaltig","starke","1.4053"
"838","nachhaltig","klientelpolitik","1.4035"
"839","nachhaltig","lauterbach","1.4035"
"840","nachhaltig","projekt","1.4022"
"841","nachhaltig","alois","1.4013"
"842","nachhaltig","landwirt","1.4013"
"843","nachhaltig","aktivität","1.398"
"844","nachhaltig","künftig","1.3954"
"845","nachhaltig","europäer","1.3947"
"846","nachhaltig","akzent","1.3947"
"847","nachhaltig","zukünftig","1.3928"
"848","nachhaltig","stadtentwicklung","1.3914"
"849","nachhaltig","erfolg","1.3892"
"850","nachhaltig","parallel","1.3881"
"851","nachhaltig","wählerin","1.3881"
"852","nachhaltig","energie","1.3871"
"853","nachhaltig","berichterstattung","1.3862"
"854","nachhaltig","anpassen","1.3859"
"855","nachhaltig","strategisch","1.3816"
"856","nachhaltig","aufhalten","1.3816"
"857","nachhaltig","zurückkehren","1.3816"
"858","nachhaltig","verfolgen","1.3786"
"859","nachhaltig","stärkung","1.3751"
"860","nachhaltig","sämtliche","1.3751"
"861","nachhaltig","verteidigungsminister","1.3751"
"862","nachhaltig","umgang","1.3724"
"863","nachhaltig","akteur","1.3713"
"864","nachhaltig","gebäude","1.3687"
"865","nachhaltig","gleichermaßen","1.3687"
"866","nachhaltig","nachweisen","1.3687"
"867","nachhaltig","vereinte","1.3644"
"868","nachhaltig","menge","1.3602"
"869","nachhaltig","schuldenbremse","1.3578"
"870","nachhaltig","ressort","1.356"
"871","nachhaltig","betreiben","1.3484"
"872","nachhaltig","bewirken","1.3476"
"873","nachhaltig","spekulation","1.3434"
"874","nachhaltig","begleitung","1.3434"
"875","nachhaltig","dortig","1.3434"
"876","nachhaltig","auswirken","1.3434"
"877","nachhaltig","hoffentlich","1.3392"
"878","nachhaltig","gemeinsame","1.3392"
"879","nachhaltig","bau","1.3377"
"880","nachhaltig","engagieren","1.3356"
"881","nachhaltig","stark","1.3327"
"882","nachhaltig","investition","1.3317"
"883","nachhaltig","lösung","1.3314"
"884","nachhaltig","handlungsfähig","1.331"
"885","nachhaltig","rechtsstaatlichkeit","1.331"
"886","nachhaltig","umso","1.331"
"887","nachhaltig","nahe","1.3279"
"888","nachhaltig","solidarisch","1.3268"
"889","nachhaltig","dar","1.3228"
"890","nachhaltig","bekenntnis","1.3228"
"891","nachhaltig","klimawandel","1.3217"
"892","nachhaltig","glaubwürdig","1.3187"
"893","nachhaltig","ideologie","1.3187"
"894","nachhaltig","miersch","1.3187"
"895","nachhaltig","demografischen","1.3146"
"896","nachhaltig","drittens","1.3133"
"897","nachhaltig","individuelle","1.3126"
"898","nachhaltig","bestandteil","1.3096"
"899","nachhaltig","gegensatz","1.3086"
"900","nachhaltig","anstrengung","1.3066"
"901","nachhaltig","balance","1.3066"
"902","nachhaltig","bekämpfung","1.3054"
"903","nachhaltig","versorgung","1.3051"
"904","nachhaltig","automobilindustrie","1.3006"
"905","nachhaltig","potenziale","1.3006"
"906","nachhaltig","andreae","1.3006"
"907","nachhaltig","aspekt","1.297"
"908","nachhaltig","säule","1.2946"
"909","nachhaltig","gewinnen","1.2946"
"910","nachhaltig","gesundheitswesen","1.2946"
"911","nachhaltig","stabilität","1.2946"
"912","nachhaltig","verordnung","1.2946"
"913","nachhaltig","neben","1.2909"
"914","nachhaltig","konzept","1.2884"
"915","nachhaltig","zukunft","1.2869"
"916","nachhaltig","gelingen","1.2857"
"917","nachhaltig","infolge","1.2828"
"918","nachhaltig","gründung","1.2828"
"919","nachhaltig","anbieten","1.2804"
"920","nachhaltig","gegeben","1.2744"
"921","nachhaltig","zielen","1.2711"
"922","nachhaltig","betrachtung","1.2711"
"923","nachhaltig","bestand","1.2711"
"924","nachhaltig","region","1.2703"
"925","nachhaltig","vielzahl","1.2595"
"926","nachhaltig","überwinden","1.2566"
"927","nachhaltig","einigkeit","1.2538"
"928","nachhaltig","anwalt","1.2538"
"929","nachhaltig","verschlechtern","1.2538"
"930","nachhaltig","erwachsene","1.2538"
"931","nachhaltig","plenum","1.2509"
"932","nachhaltig","letztlich","1.2497"
"933","nachhaltig","vorrang","1.2481"
"934","nachhaltig","effizienz","1.2481"
"935","nachhaltig","reform","1.2472"
"936","nachhaltig","solange","1.2452"
"937","nachhaltig","verwendung","1.2424"
"938","nachhaltig","prägen","1.2424"
"939","nachhaltig","anforderung","1.2424"
"940","nachhaltig","aufzeigen","1.2396"
"941","nachhaltig","schaffen","1.2384"
"942","nachhaltig","verpflichten","1.2343"
"943","nachhaltig","befasst","1.233"
"944","nachhaltig","modernisierung","1.2293"
"945","nachhaltig","kopf","1.2274"
"946","nachhaltig","irgendwelche","1.2256"
"947","nachhaltig","rot","1.2256"
"948","nachhaltig","ausbauen","1.224"
"949","nachhaltig","nötig","1.2219"
"950","nachhaltig","bereitstellen","1.2201"
"951","nachhaltig","krise","1.2193"
"952","nachhaltig","ansatz","1.2177"
"953","nachhaltig","weiterentwickel","1.2173"
"954","nachhaltig","ausgleich","1.2173"
"955","nachhaltig","chance","1.2154"
"956","nachhaltig","einnehmen","1.2118"
"957","nachhaltig","erfolgreich","1.2111"
"958","nachhaltig","explizit","1.2091"
"959","nachhaltig","planung","1.2072"
"960","nachhaltig","gebiet","1.2067"
"961","nachhaltig","programm","1.2066"
"962","nachhaltig","hierbei","1.2063"
"963","nachhaltig","zugleich","1.2058"
"964","nachhaltig","organisieren","1.2052"
"965","nachhaltig","setzen","1.2043"
"966","nachhaltig","zahlreich","1.2036"
"967","nachhaltig","gegenteil","1.1986"
"968","nachhaltig","tagesordnungspunkte","1.1982"
"969","nachhaltig","vertrauen","1.1969"
"970","nachhaltig","aussehen","1.195"
"971","nachhaltig","beschlossen","1.1928"
"972","nachhaltig","gezielt","1.1928"
"973","nachhaltig","effizient","1.1907"
"974","nachhaltig","systematisch","1.1874"
"975","nachhaltig","messen","1.1857"
"976","nachhaltig","erreichen","1.1846"
"977","nachhaltig","wirtschafts-","1.1842"
"978","nachhaltig","großteil","1.1821"
"979","nachhaltig","gentechnik","1.1821"
"980","nachhaltig","aufstellen","1.1821"
"981","nachhaltig","behindern","1.1821"
"982","nachhaltig","arbeitsmarkt","1.1768"
"983","nachhaltig","spiel","1.1768"
"984","nachhaltig","pflanze","1.1768"
"985","nachhaltig","wiederaufbau","1.1715"
"986","nachhaltig","überzeugen","1.1692"
"987","nachhaltig","beitragen","1.1672"
"988","nachhaltig","arbeitsgruppe","1.1663"
"989","nachhaltig","mittelpunkt","1.1637"
"990","nachhaltig","ernährung","1.1611"
"991","nachhaltig","unterstreichen","1.1576"
"992","nachhaltig","begegnen","1.1576"
"993","nachhaltig","auffordern","1.1541"
"994","nachhaltig","humanitär","1.1528"
"995","nachhaltig","nr","1.1507"
"996","nachhaltig","tätig","1.1507"
"997","nachhaltig","vielfältig","1.1507"
"998","nachhaltig","einräumen","1.1473"
"999","nachhaltig","tradition","1.1456"
"1000","nachhaltig","schülerin","1.1456"
"1001","nachhaltig","koalitionsvertrag","1.1419"
"1002","nachhaltig","sichtbar","1.1404"
"1003","nachhaltig","verlässliche","1.1404"
"1004","nachhaltig","welt","1.1367"
"1005","nachhaltig","vereinbaren","1.1353"
"1006","nachhaltig","tackmann","1.1353"
"1007","nachhaltig","verdeutlichen","1.1353"
"1008","nachhaltig","zurückführen","1.1353"
"1009","nachhaltig","zentrale","1.1332"
"1010","nachhaltig","entziehen","1.1303"
"1011","nachhaltig","gefasst","1.1303"
"1012","nachhaltig","arbeitslosenversicherung","1.1303"
"1013","nachhaltig","keineswegs","1.1303"
"1014","nachhaltig","interesse","1.1296"
"1015","nachhaltig","umfassend","1.1288"
"1016","nachhaltig","funktion","1.1269"
"1017","nachhaltig","maßen","1.1269"
"1018","nachhaltig","kommunal","1.1258"
"1019","nachhaltig","vermeintlich","1.1252"
"1020","nachhaltig","einschließlich","1.1252"
"1021","nachhaltig","konsens","1.1242"
"1022","nachhaltig","möglichst","1.1213"
"1023","nachhaltig","leisten","1.1188"
"1024","nachhaltig","bericht","1.1179"
"1025","nachhaltig","existenz","1.1152"
"1026","nachhaltig","mädchen","1.1152"
"1027","nachhaltig","sinnvoll","1.1145"
"1028","nachhaltig","jeweilig","1.1143"
"1029","nachhaltig","arbeitsmarktpolitik","1.1136"
"1030","nachhaltig","quote","1.1136"
"1031","nachhaltig","ausgestaltung","1.1103"
"1032","nachhaltig","befreien","1.1103"
"1033","nachhaltig","ergreifen","1.1089"
"1034","nachhaltig","partner","1.1089"
"1035","nachhaltig","weiterbildung","1.107"
"1036","nachhaltig","ausgehen","1.1066"
"1037","nachhaltig","einsparung","1.1053"
"1038","nachhaltig","absehen","1.1053"
"1039","nachhaltig","umsetzen","1.1028"
"1040","nachhaltig","finanzkrise","1.1017"
"1041","nachhaltig","kontext","1.1004"
"1042","nachhaltig","nachfolgend","1.1004"
"1043","nachhaltig","bieten","1.0989"
"1044","nachhaltig","verschuldung","1.0972"
"1045","nachhaltig","beschreiben","1.0972"
"1046","nachhaltig","kompetenz","1.0965"
"1047","nachhaltig","wirtschaftspolitisch","1.0955"
"1048","nachhaltig","volkswirtschaftlich","1.0955"
"1049","nachhaltig","versicherte","1.0946"
"1050","nachhaltig","beginn","1.0943"
"1051","nachhaltig","schulde","1.0935"
"1052","nachhaltig","schwächen","1.0907"
"1053","nachhaltig","ablehnung","1.0887"
"1054","nachhaltig","spätestens","1.0874"
"1055","nachhaltig","priorität","1.0858"
"1056","nachhaltig","bafin","1.0858"
"1057","nachhaltig","standard","1.0829"
"1058","nachhaltig","bundesebene","1.081"
"1059","nachhaltig","gesellschaftliche","1.081"
"1060","nachhaltig","praxis","1.0798"
"1061","nachhaltig","erweitern","1.0786"
"1062","nachhaltig","qualifizieren","1.0778"
"1063","nachhaltig","fokus","1.0762"
"1064","nachhaltig","präsentieren","1.0762"
"1065","nachhaltig","aktive","1.0714"
"1066","nachhaltig","schwierigkeit","1.0714"
"1067","nachhaltig","nation","1.0699"
"1068","nachhaltig","folgend","1.0679"
"1069","nachhaltig","menschenrechte","1.0676"
"1070","nachhaltig","sorgen","1.0671"
"1071","nachhaltig","seriös","1.0667"
"1072","nachhaltig","begrüßen","1.0628"
"1073","nachhaltig","wunsch","1.0601"
"1074","nachhaltig","bedeutung","1.0591"
"1075","nachhaltig","teilhabe","1.0582"
"1076","nachhaltig","ausmaß","1.0573"
"1077","nachhaltig","ankündigen","1.0573"
"1078","nachhaltig","rot-grüne","1.0573"
"1079","nachhaltig","einfordern","1.0557"
"1080","nachhaltig","einsparen","1.0557"
"1081","nachhaltig","schutz","1.0532"
"1082","nachhaltig","initiative","1.0509"
"1083","nachhaltig","forschung","1.0497"
"1084","nachhaltig","antrages","1.0479"
"1085","nachhaltig","eintreten","1.0417"
"1086","nachhaltig","gesetzlich","1.0402"
"1087","nachhaltig","auswirkung","1.0398"
"1088","nachhaltig","unverzichtbar","1.0387"
"1089","nachhaltig","fair","1.0359"
"1090","nachhaltig","einbeziehen","1.0356"
"1091","nachhaltig","nützen","1.0341"
"1092","nachhaltig","prozeß","1.0341"
"1093","nachhaltig","höfken","1.0341"
"1094","nachhaltig","form","1.0319"
"1095","nachhaltig","formulierung","1.031"
"1096","nachhaltig","freude","1.0295"
"1097","nachhaltig","zentrum","1.0249"
"1098","nachhaltig","weder","1.0222"
"1099","nachhaltig","stammen","1.0219"
"1100","nachhaltig","extrem","1.0204"
"1101","nachhaltig","beziehung","1.0189"
"1102","nachhaltig","sparkasse","1.0159"
"1103","nachhaltig","anmessen","1.0159"
"1104","nachhaltig","wert","1.0159"
"1105","nachhaltig","regierungskoalition","1.0159"
"1106","nachhaltig","hinaus","1.0129"
"1107","nachhaltig","zivil","1.0105"
"1108","nachhaltig","herstellen","1.0091"
"1109","nachhaltig","prinzip","1.008"
"1110","nachhaltig","vergeben","1.0069"
"1111","nachhaltig","gesetzgebungsverfahren","1.0069"
"1112","nachhaltig","kommission","1.0047"
"1113","nachhaltig","positiv","1.0039"
"1114","nachhaltig","wachsend","1.0025"
"1115","nachhaltig","vorstand","1.0025"
"1116","nachhaltig","sozialstaat","1.0025"
"1117","nachhaltig","haushalt","1.0025"
"1118","nachhaltig","gefährden","1.0025"
"1119","nachhaltig","bemühen","1.0016"
"1120","nachhaltig","idee","1.0013"
"1121","nachhaltig","absehbar","0.998"
"1122","nachhaltig","zielsetzung","0.9936"
"1123","nachhaltig","blockieren","0.9936"
"1124","nachhaltig","kooperation","0.9936"
"1125","nachhaltig","legen","0.9921"
"1126","nachhaltig","genügen","0.9848"
"1127","nachhaltig","befassen","0.9834"
"1128","nachhaltig","darin","0.9825"
"1129","nachhaltig","finanzmärkten","0.9805"
"1130","nachhaltig","gesetzliche","0.9768"
"1131","nachhaltig","nachfrage","0.9761"
"1132","nachhaltig","angeblich","0.9761"
"1133","nachhaltig","steigend","0.9718"
"1134","nachhaltig","freiwillige","0.9718"
"1135","nachhaltig","zugang","0.9706"
"1136","nachhaltig","kontrolle","0.9689"
"1137","nachhaltig","friede","0.9684"
"1138","nachhaltig","faire","0.9675"
"1139","nachhaltig","entlastung","0.9667"
"1140","nachhaltig","erarbeiten","0.9667"
"1141","nachhaltig","hinblick","0.9604"
"1142","nachhaltig","sparen","0.9604"
"1143","nachhaltig","schüler","0.9604"
"1144","nachhaltig","daher","0.9566"
"1145","nachhaltig","deutschland","0.9527"
"1146","nachhaltig","europa","0.9521"
"1147","nachhaltig","neue","0.9519"
"1148","nachhaltig","gebrauchen","0.9519"
"1149","nachhaltig","vergleichbar","0.9505"
"1150","nachhaltig","bedauern","0.9505"
"1151","nachhaltig","bedingung","0.9499"
"1152","nachhaltig","berücksichtigen","0.9491"
"1153","nachhaltig","grünen","0.9463"
"1154","nachhaltig","morgen","0.9453"
"1155","nachhaltig","ursache","0.9446"
"1156","nachhaltig","bilden","0.9442"
"1157","nachhaltig","stand","0.9435"
"1158","nachhaltig","verantwortlich","0.9421"
"1159","nachhaltig","volumen","0.9421"
"1160","nachhaltig","ebenso","0.9407"
"1161","nachhaltig","instrument","0.9405"
"1162","nachhaltig","steuerlich","0.9396"
"1163","nachhaltig","gesellschaft","0.9392"
"1164","nachhaltig","aufbringen","0.9379"
"1165","nachhaltig","erhöhung","0.9379"
"1166","nachhaltig","breit","0.9367"
"1167","nachhaltig","international","0.9366"
"1168","nachhaltig","ernsthaft","0.9365"
"1169","nachhaltig","brauchen","0.9352"
"1170","nachhaltig","subvention","0.9351"
"1171","nachhaltig","vorteil","0.9338"
"1172","nachhaltig","verbraucherinnen","0.9338"
"1173","nachhaltig","begleiten","0.9329"
"1174","nachhaltig","beschluß","0.9324"
"1175","nachhaltig","akzeptanz","0.9324"
"1176","nachhaltig","arbeitnehmerinnen","0.9296"
"1177","nachhaltig","handeln","0.9294"
"1178","nachhaltig","wichtig","0.9273"
"1179","nachhaltig","nutzen","0.9271"
"1180","nachhaltig","fläche","0.9269"
"1181","nachhaltig","gewinn","0.9255"
"1182","nachhaltig","katrin","0.9255"
"1183","nachhaltig","veranstaltung","0.9255"
"1184","nachhaltig","zentral","0.9249"
"1185","nachhaltig","entlasten","0.9247"
"1186","nachhaltig","island","0.9214"
"1187","nachhaltig","entscheidend","0.9206"
"1188","nachhaltig","funktionieren","0.9204"
"1189","nachhaltig","erforderlich","0.9187"
"1190","nachhaltig","streiten","0.9173"
"1191","nachhaltig","unglaublich","0.9173"
"1192","nachhaltig","gefordert","0.9173"
"1193","nachhaltig","sowohl","0.9169"
"1194","nachhaltig","belasten","0.9165"
"1195","nachhaltig","einstieg","0.9132"
"1196","nachhaltig","technik","0.9132"
"1197","nachhaltig","kirsten","0.9132"
"1198","nachhaltig","öffentlich","0.9132"
"1199","nachhaltig","schaden","0.9112"
"1200","nachhaltig","verändern","0.9092"
"1201","nachhaltig","qualifikation","0.9092"
"1202","nachhaltig","streit","0.9092"
"1203","nachhaltig","buch","0.9092"
"1204","nachhaltig","zeigen","0.9086"
"1205","nachhaltig","afrika","0.9078"
"1206","nachhaltig","angela","0.9051"
"1207","nachhaltig","nahezu","0.9011"
"1208","nachhaltig","mittelstand","0.8991"
"1209","nachhaltig","einhalten","0.8971"
"1210","nachhaltig","faktor","0.8971"
"1211","nachhaltig","stehend","0.8931"
"1212","nachhaltig","anschließen","0.8911"
"1213","nachhaltig","überlegen","0.8907"
"1214","nachhaltig","voraus","0.8891"
"1215","nachhaltig","verhältnis","0.8891"
"1216","nachhaltig","gesetzentwürfe","0.8891"
"1217","nachhaltig","verein","0.8891"
"1218","nachhaltig","attraktiv","0.8812"
"1219","nachhaltig","binden","0.8812"
"1220","nachhaltig","stattdessen","0.8812"
"1221","nachhaltig","wirklich","0.8784"
"1222","nachhaltig","national","0.8773"
"1223","nachhaltig","jetzige","0.8773"
"1224","nachhaltig","funktionierend","0.8773"
"1225","nachhaltig","haushaltsentwurf","0.8773"
"1226","nachhaltig","gang","0.8734"
"1227","nachhaltig","anliegen","0.8721"
"1228","nachhaltig","ulrike","0.8682"
"1229","nachhaltig","behinderung","0.8682"
"1230","nachhaltig","helfen","0.8656"
"1231","nachhaltig","friedlich","0.8656"
"1232","nachhaltig","richtung","0.864"
"1233","nachhaltig","grüner","0.8637"
"1234","nachhaltig","arbeitsplätze","0.8614"
"1235","nachhaltig","gemeinsam","0.8589"
"1236","nachhaltig","ordnung","0.8579"
"1237","nachhaltig","angeboten","0.8579"
"1238","nachhaltig","arbeiten","0.8557"
"1239","nachhaltig","wissenschaft","0.8553"
"1240","nachhaltig","vorhanden","0.8513"
"1241","nachhaltig","erfreulich","0.8502"
"1242","nachhaltig","erstellen","0.8502"
"1243","nachhaltig","sorgfältig","0.8502"
"1244","nachhaltig","drucksache","0.8498"
"1245","nachhaltig","ausschuß","0.848"
"1246","nachhaltig","anteil","0.8473"
"1247","nachhaltig","einfahren","0.8464"
"1248","nachhaltig","institut","0.8464"
"1249","nachhaltig","überweisen","0.8464"
"1250","nachhaltig","insbesondere","0.8447"
"1251","nachhaltig","kulturell","0.8426"
"1252","nachhaltig","finanzieren","0.8392"
"1253","nachhaltig","träger","0.8388"
"1254","nachhaltig","bereich","0.8387"
"1255","nachhaltig","jährlich","0.8381"
"1256","nachhaltig","abschaffen","0.8381"
"1257","nachhaltig","csu-fraktion","0.8376"
"1258","nachhaltig","dirk","0.8376"
"1259","nachhaltig","eu","0.8345"
"1260","nachhaltig","statt","0.8322"
"1261","nachhaltig","kern","0.8313"
"1262","nachhaltig","arm","0.8313"
"1263","nachhaltig","vereinigte","0.8313"
"1264","nachhaltig","maßnahme","0.8309"
"1265","nachhaltig","anstatt","0.8301"
"1266","nachhaltig","zuletzt","0.8291"
"1267","nachhaltig","darum","0.8261"
"1268","nachhaltig","veränderung","0.8251"
"1269","nachhaltig","sozusagen","0.8238"
"1270","nachhaltig","technikfolgenabschätzung","0.8226"
"1271","nachhaltig","notwendige","0.822"
"1272","nachhaltig","bundesagentur","0.8183"
"1273","nachhaltig","osten","0.8164"
"1274","nachhaltig","erweisen","0.8164"
"1275","nachhaltig","hervorheben","0.8164"
"1276","nachhaltig","somalia","0.8164"
"1277","nachhaltig","kriterium","0.8157"
"1278","nachhaltig","aufgabe","0.8152"
"1279","nachhaltig","legislaturperiode","0.815"
"1280","nachhaltig","kommune","0.8102"
"1281","nachhaltig","festhalten","0.8079"
"1282","nachhaltig","regel","0.8073"
"1283","nachhaltig","schwierige","0.8054"
"1284","nachhaltig","verzeichnen","0.8054"
"1285","nachhaltig","letztendlich","0.8054"
"1286","nachhaltig","vorredner","0.8018"
"1287","nachhaltig","bislang","0.7982"
"1288","nachhaltig","entwicklungsländer","0.7909"
"1289","nachhaltig","verkehr","0.7861"
"1290","nachhaltig","ebene","0.7838"
"1291","nachhaltig","geplant","0.7838"
"1292","nachhaltig","interessieren","0.7784"
"1293","nachhaltig","wähler","0.7731"
"1294","nachhaltig","genauso","0.771"
"1295","nachhaltig","verbinden","0.7686"
"1296","nachhaltig","kaum","0.7684"
"1297","nachhaltig","dahin","0.7672"
"1298","nachhaltig","ort","0.7668"
"1299","nachhaltig","freiwillig","0.7661"
"1300","nachhaltig","zugrunde","0.7626"
"1301","nachhaltig","wissenschaftler","0.7626"
"1302","nachhaltig","lage","0.7621"
"1303","nachhaltig","januar","0.7614"
"1304","nachhaltig","zudem","0.7614"
"1305","nachhaltig","umfassen","0.7591"
"1306","nachhaltig","einsetzen","0.7576"
"1307","nachhaltig","unmittelbar","0.7573"
"1308","nachhaltig","schnellen","0.7569"
"1309","nachhaltig","behauptung","0.7556"
"1310","nachhaltig","fehlen","0.7547"
"1311","nachhaltig","militärisch","0.751"
"1312","nachhaltig","erneuerbaren","0.7506"
"1313","nachhaltig","element","0.7487"
"1314","nachhaltig","bedürfnis","0.7487"
"1315","nachhaltig","kauch","0.7487"
"1316","nachhaltig","ungerecht","0.7487"
"1317","nachhaltig","aktiv","0.7473"
"1318","nachhaltig","vier","0.7466"
"1319","nachhaltig","werben","0.7464"
"1320","nachhaltig","nachdenken","0.7459"
"1321","nachhaltig","klar","0.7457"
"1322","nachhaltig","nähern","0.7452"
"1323","nachhaltig","gesichtspunkt","0.7452"
"1324","nachhaltig","europäisch","0.743"
"1325","nachhaltig","gleichzeitig","0.7418"
"1326","nachhaltig","qualität","0.7404"
"1327","nachhaltig","überweisungsvorschlag","0.7362"
"1328","nachhaltig","rat","0.7361"
"1329","nachhaltig","insgesamt","0.7355"
"1330","nachhaltig","dringen","0.735"
"1331","nachhaltig","kasse","0.735"
"1332","nachhaltig","konstruktiv","0.7327"
"1333","nachhaltig","schiene","0.7316"
"1334","nachhaltig","schritt","0.7311"
"1335","nachhaltig","abgeordneter","0.7282"
"1336","nachhaltig","heiß","0.7282"
"1337","nachhaltig","eigene","0.7282"
"1338","nachhaltig","gesetzgebung","0.7282"
"1339","nachhaltig","gutes","0.7268"
"1340","nachhaltig","konflikt","0.7265"
"1341","nachhaltig","betrieben","0.7248"
"1342","nachhaltig","bundesministeriums","0.7237"
"1343","nachhaltig","verabschieden","0.7206"
"1344","nachhaltig","rahmen","0.7176"
"1345","nachhaltig","medikament","0.7148"
"1346","nachhaltig","kontakt","0.7148"
"1347","nachhaltig","steigerung","0.7148"
"1348","nachhaltig","verschieden","0.7139"
"1349","nachhaltig","verbraucher","0.7133"
"1350","nachhaltig","umstand","0.7126"
"1351","nachhaltig","thema","0.7111"
"1352","nachhaltig","nämlich","0.71"
"1353","nachhaltig","festschreiben","0.7081"
"1354","nachhaltig","wachsen","0.7037"
"1355","nachhaltig","stuttgart","0.7037"
"1356","nachhaltig","entstehen","0.703"
"1357","nachhaltig","niveau","0.6993"
"1358","nachhaltig","kirche","0.6982"
"1359","nachhaltig","einzig","0.6964"
"1360","nachhaltig","wesentlich","0.695"
"1361","nachhaltig","vorsehen","0.6933"
"1362","nachhaltig","notwendig","0.6919"
"1363","nachhaltig","weise","0.6917"
"1364","nachhaltig","mittler","0.6906"
"1365","nachhaltig","gemeinschaft","0.6906"
"1366","nachhaltig","gegenstand","0.6885"
"1367","nachhaltig","stiftung","0.6868"
"1368","nachhaltig","geschäftsordnung","0.6863"
"1369","nachhaltig","öffnen","0.6852"
"1370","nachhaltig","ausweitung","0.6852"
"1371","nachhaltig","überprüfen","0.6836"
"1372","nachhaltig","betrachten","0.6804"
"1373","nachhaltig","auffassung","0.6796"
"1374","nachhaltig","achten","0.6788"
"1375","nachhaltig","dimension","0.6788"
"1376","nachhaltig","plötzlich","0.6788"
"1377","nachhaltig","einrichtung","0.6768"
"1378","nachhaltig","herbst","0.6755"
"1379","nachhaltig","freuen","0.6723"
"1380","nachhaltig","grün","0.6723"
"1381","nachhaltig","fortsetzen","0.6723"
"1382","nachhaltig","dienen","0.6713"
"1383","nachhaltig","merkel","0.671"
"1384","nachhaltig","schule","0.6692"
"1385","nachhaltig","doppeln","0.6692"
"1386","nachhaltig","hingegen","0.6692"
"1387","nachhaltig","hoch","0.6687"
"1388","nachhaltig","erleichtern","0.666"
"1389","nachhaltig","ausführen","0.6649"
"1390","nachhaltig","laufend","0.6628"
"1391","nachhaltig","gerd","0.6628"
"1392","nachhaltig","steuerhinterziehung","0.6628"
"1393","nachhaltig","rufe","0.6621"
"1394","nachhaltig","konjunkturpaket","0.6597"
"1395","nachhaltig","abwarten","0.6597"
"1396","nachhaltig","einhaltung","0.6597"
"1397","nachhaltig","unverantwortlich","0.6565"
"1398","nachhaltig","sicherungsverwahrung","0.6565"
"1399","nachhaltig","system","0.6551"
"1400","nachhaltig","schwierig","0.6544"
"1401","nachhaltig","auftreten","0.6534"
"1402","nachhaltig","bald","0.6502"
"1403","nachhaltig","je","0.649"
"1404","nachhaltig","zweite","0.6487"
"1405","nachhaltig","fahren","0.6474"
"1406","nachhaltig","sicht","0.6474"
"1407","nachhaltig","entgegen","0.6471"
"1408","nachhaltig","rein","0.6461"
"1409","nachhaltig","erhöhen","0.6446"
"1410","nachhaltig","erwartung","0.644"
"1411","nachhaltig","weiterhin","0.6419"
"1412","nachhaltig","ansetzen","0.6409"
"1413","nachhaltig","fähigkeit","0.6409"
"1414","nachhaltig","lösen","0.6396"
"1415","nachhaltig","eng","0.6378"
"1416","nachhaltig","deutsch","0.6331"
"1417","nachhaltig","internationale","0.6323"
"1418","nachhaltig","not","0.6317"
"1419","nachhaltig","genannt","0.6296"
"1420","nachhaltig","bauen","0.6286"
"1421","nachhaltig","markt","0.6271"
"1422","nachhaltig","politisch","0.6259"
"1423","nachhaltig","energiekonzept","0.6255"
"1424","nachhaltig","jedenfalls","0.6245"
"1425","nachhaltig","nächst","0.6233"
"1426","nachhaltig","maßgeblich","0.6225"
"1427","nachhaltig","experte","0.6195"
"1428","nachhaltig","modell","0.6195"
"1429","nachhaltig","umsetzung","0.6181"
"1430","nachhaltig","unternehmen","0.6176"
"1431","nachhaltig","heraus","0.6154"
"1432","nachhaltig","versuchen","0.6134"
"1433","nachhaltig","herz","0.6104"
"1434","nachhaltig","endlich","0.6074"
"1435","nachhaltig","vorne","0.6074"
"1436","nachhaltig","sport","0.6074"
"1437","nachhaltig","innerhalb","0.6066"
"1438","nachhaltig","geltend","0.6054"
"1439","nachhaltig","vernünftig","0.6014"
"1440","nachhaltig","häufig","0.6003"
"1441","nachhaltig","anerkennen","0.6"
"1442","nachhaltig","eher","0.5995"
"1443","nachhaltig","greifen","0.5985"
"1444","nachhaltig","jen","0.5985"
"1445","nachhaltig","stellung","0.5985"
"1446","nachhaltig","volk","0.5975"
"1447","nachhaltig","wissenschaftlich","0.5955"
"1448","nachhaltig","angesichts","0.5948"
"1449","nachhaltig","bezeichnen","0.5896"
"1450","nachhaltig","besonder","0.5896"
"1451","nachhaltig","bundesländer","0.5896"
"1452","nachhaltig","anzahl","0.5896"
"1453","nachhaltig","tatsächlich","0.5887"
"1454","nachhaltig","land","0.5835"
"1455","nachhaltig","demokratie","0.5829"
"1456","nachhaltig","branche","0.5823"
"1457","nachhaltig","bzw.","0.5821"
"1458","nachhaltig","institution","0.5799"
"1459","nachhaltig","bewähren","0.575"
"1460","nachhaltig","zeit","0.5739"
"1461","nachhaltig","harald","0.5721"
"1462","nachhaltig","denken","0.5718"
"1463","nachhaltig","forderung","0.569"
"1464","nachhaltig","blick","0.5687"
"1465","nachhaltig","bemühung","0.5663"
"1466","nachhaltig","zusammenarbeit","0.5635"
"1467","nachhaltig","technologie","0.562"
"1468","nachhaltig","grundsatz","0.5618"
"1469","nachhaltig","staat","0.5613"
"1470","nachhaltig","freund","0.5606"
"1471","nachhaltig","aigner","0.5606"
"1472","nachhaltig","wille","0.5587"
"1473","nachhaltig","tragen","0.5578"
"1474","nachhaltig","bisherig","0.5572"
"1475","nachhaltig","gemeinde","0.5568"
"1476","nachhaltig","bundesregierung","0.5551"
"1477","nachhaltig","november","0.553"
"1478","nachhaltig","bürokratie","0.5521"
"1479","nachhaltig","kompromiss","0.5521"
"1480","nachhaltig","konzern","0.5521"
"1481","nachhaltig","reduzieren","0.5493"
"1482","nachhaltig","übertragen","0.5493"
"1483","nachhaltig","jahrzehnt","0.5478"
"1484","nachhaltig","betroffen","0.5464"
"1485","nachhaltig","kampf","0.5455"
"1486","nachhaltig","teuer","0.5436"
"1487","nachhaltig","kerstin","0.5436"
"1488","nachhaltig","dritt","0.5428"
"1489","nachhaltig","standort","0.5408"
"1490","nachhaltig","deshalb","0.5344"
"1491","nachhaltig","bewältigen","0.5324"
"1492","nachhaltig","preis","0.5324"
"1493","nachhaltig","cdu","0.5294"
"1494","nachhaltig","kämpfen","0.5269"
"1495","nachhaltig","konferenz","0.5251"
"1496","nachhaltig","erfüllen","0.5232"
"1497","nachhaltig","formulieren","0.5225"
"1498","nachhaltig","durchsetzen","0.5167"
"1499","nachhaltig","durchführen","0.5137"
"1500","nachhaltig","verursachen","0.5132"
"1501","nachhaltig","gut","0.5123"
"1502","nachhaltig","heißen","0.5095"
"1503","nachhaltig","drei","0.5093"
"1504","nachhaltig","überzeugung","0.5069"
"1505","nachhaltig","halbe","0.505"
"1506","nachhaltig","stellen","0.5042"
"1507","nachhaltig","stichwort","0.5032"
"1508","nachhaltig","technisch","0.5032"
"1509","nachhaltig","zusammen","0.502"
"1510","nachhaltig","erstens","0.5017"
"1511","nachhaltig","mensch","0.4998"
"1512","nachhaltig","dafür","0.4966"
"1513","nachhaltig","gerhard","0.4943"
"1514","nachhaltig","erste","0.4936"
"1515","nachhaltig","ganze","0.4934"
"1516","nachhaltig","leben","0.4934"
"1517","nachhaltig","schützen","0.4916"
"1518","nachhaltig","zusätzlich","0.489"
"1519","nachhaltig","ausbau","0.4868"
"1520","nachhaltig","bürgerin","0.4863"
"1521","nachhaltig","summe","0.4863"
"1522","nachhaltig","empfehlen","0.4863"
"1523","nachhaltig","befinden","0.4858"
"1524","nachhaltig","unterstützung","0.4837"
"1525","nachhaltig","eingehen","0.4821"
"1526","nachhaltig","streichen","0.4819"
"1527","nachhaltig","vielmehr","0.481"
"1528","nachhaltig","verhandlung","0.4805"
"1529","nachhaltig","erbringen","0.4784"
"1530","nachhaltig","begrenzen","0.4784"
"1531","nachhaltig","bisher","0.4731"
"1532","nachhaltig","hilfe","0.4725"
"1533","nachhaltig","spd","0.4716"
"1534","nachhaltig","gehören","0.47"
"1535","nachhaltig","müssen","0.4692"
"1536","nachhaltig","koalition","0.4685"
"1537","nachhaltig","vielfalt","0.4679"
"1538","nachhaltig","rente","0.4653"
"1539","nachhaltig","zählen","0.4653"
"1540","nachhaltig","protokoll","0.4627"
"1541","nachhaltig","rufen","0.4601"
"1542","nachhaltig","rechnung","0.4575"
"1543","nachhaltig","bank","0.4558"
"1544","nachhaltig","kultur","0.4555"
"1545","nachhaltig","eindruck","0.455"
"1546","nachhaltig","zp","0.455"
"1547","nachhaltig","uhr","0.4524"
"1548","nachhaltig","bezug","0.4514"
"1549","nachhaltig","ausreichend","0.4498"
"1550","nachhaltig","beraten","0.4453"
"1551","nachhaltig","unbedingt","0.4447"
"1552","nachhaltig","zumindest","0.4429"
"1553","nachhaltig","verhindern","0.4428"
"1554","nachhaltig","hinzu","0.4422"
"1555","nachhaltig","planen","0.4422"
"1556","nachhaltig","ursprünglich","0.4397"
"1557","nachhaltig","angriff","0.4346"
"1558","nachhaltig","erkennen","0.4335"
"1559","nachhaltig","hochschule","0.4334"
"1560","nachhaltig","fordern","0.4287"
"1561","nachhaltig","herrschen","0.4271"
"1562","nachhaltig","vorgehen","0.4246"
"1563","nachhaltig","ding","0.4246"
"1564","nachhaltig","mittelständisch","0.4246"
"1565","nachhaltig","halb","0.4246"
"1566","nachhaltig","hierfür","0.4246"
"1567","nachhaltig","betrag","0.4221"
"1568","nachhaltig","teilnehmen","0.4221"
"1569","nachhaltig","bereits","0.4193"
"1570","nachhaltig","bevölkerung","0.419"
"1571","nachhaltig","erneut","0.4188"
"1572","nachhaltig","belastung","0.4155"
"1573","nachhaltig","regulierung","0.4147"
"1574","nachhaltig","möglich","0.4128"
"1575","nachhaltig","zweitens","0.4101"
"1576","nachhaltig","daran","0.4099"
"1577","nachhaltig","lernen","0.4097"
"1578","nachhaltig","gefährlich","0.4097"
"1579","nachhaltig","dabei","0.4092"
"1580","nachhaltig","reich","0.4057"
"1581","nachhaltig","kümmern","0.404"
"1582","nachhaltig","vorstellung","0.404"
"1583","nachhaltig","einrichten","0.4024"
"1584","nachhaltig","anfangen","0.4024"
"1585","nachhaltig","bürger","0.4015"
"1586","nachhaltig","beispiel","0.4005"
"1587","nachhaltig","verdienen","0.3985"
"1588","nachhaltig","verteilen","0.3975"
"1589","nachhaltig","diskussion","0.3966"
"1590","nachhaltig","einheit","0.3951"
"1591","nachhaltig","hinweg","0.3951"
"1592","nachhaltig","geld","0.3922"
"1593","nachhaltig","erhalten","0.3915"
"1594","nachhaltig","beschlussempfehlung","0.3908"
"1595","nachhaltig","mittlerweile","0.3879"
"1596","nachhaltig","arbeitslosigkeit","0.3863"
"1597","nachhaltig","ausnahme","0.3855"
"1598","nachhaltig","wesentliche","0.3855"
"1599","nachhaltig","unterschiedlich","0.3851"
"1600","nachhaltig","jugendliche","0.384"
"1601","nachhaltig","gott","0.3831"
"1602","nachhaltig","beratung","0.3823"
"1603","nachhaltig","einnahme","0.3815"
"1604","nachhaltig","vorbei","0.3807"
"1605","nachhaltig","sollen","0.3791"
"1606","nachhaltig","leider","0.3787"
"1607","nachhaltig","sofort","0.3767"
"1608","nachhaltig","besonders","0.3757"
"1609","nachhaltig","bestehend","0.3747"
"1610","nachhaltig","weit","0.3721"
"1611","nachhaltig","fest","0.3706"
"1612","nachhaltig","verfassungsrechtlich","0.3688"
"1613","nachhaltig","anlage","0.3665"
"1614","nachhaltig","debatte","0.3655"
"1615","nachhaltig","ankommen","0.3641"
"1616","nachhaltig","spät","0.3633"
"1617","nachhaltig","dass","0.3633"
"1618","nachhaltig","verlangen","0.3606"
"1619","nachhaltig","inzwischen","0.3594"
"1620","nachhaltig","bedarf","0.3594"
"1621","nachhaltig","unabhängig","0.3566"
"1622","nachhaltig","verstehen","0.3538"
"1623","nachhaltig","zusammenhang","0.3531"
"1624","nachhaltig","dadurch","0.353"
"1625","nachhaltig","einsatz","0.3529"
"1626","nachhaltig","bestätigen","0.3501"
"1627","nachhaltig","karl","0.3486"
"1628","nachhaltig","weitergehen","0.3478"
"1629","nachhaltig","de","0.3478"
"1630","nachhaltig","bringen","0.3477"
"1631","nachhaltig","transparenz","0.3455"
"1632","nachhaltig","vereinbarung","0.3455"
"1633","nachhaltig","matthias","0.3455"
"1634","nachhaltig","mittel","0.3425"
"1635","nachhaltig","cdu/csu","0.3414"
"1636","nachhaltig","circa","0.3409"
"1637","nachhaltig","stunde","0.3396"
"1638","nachhaltig","stehen","0.339"
"1639","nachhaltig","betroffene","0.3382"
"1640","nachhaltig","kanzlerin","0.3363"
"1641","nachhaltig","politische","0.3356"
"1642","nachhaltig","längst","0.3348"
"1643","nachhaltig","jung","0.3341"
"1644","nachhaltig","bzw","0.3329"
"1645","nachhaltig","tagesordnungspunkt","0.3323"
"1646","nachhaltig","alternative","0.3303"
"1647","nachhaltig","wiederholen","0.3284"
"1648","nachhaltig","brüssel","0.3272"
"1649","nachhaltig","zeitraum","0.3272"
"1650","nachhaltig","risiko","0.3272"
"1651","nachhaltig","anschauen","0.3272"
"1652","nachhaltig","deutlich","0.3271"
"1653","nachhaltig","wolle","0.325"
"1654","nachhaltig","anweisen","0.325"
"1655","nachhaltig","aktuelle","0.325"
"1656","nachhaltig","gutachten","0.325"
"1657","nachhaltig","eröffnen","0.3235"
"1658","nachhaltig","ziemlich","0.3227"
"1659","nachhaltig","teilen","0.3205"
"1660","nachhaltig","juli","0.3205"
"1661","nachhaltig","zwingen","0.3197"
"1662","nachhaltig","plan","0.3182"
"1663","nachhaltig","linie","0.3167"
"1664","nachhaltig","eindeutig","0.3126"
"1665","nachhaltig","entsprechen","0.3115"
"1666","nachhaltig","erster","0.3093"
"1667","nachhaltig","damalig","0.3093"
"1668","nachhaltig","richtig","0.3086"
"1669","nachhaltig","problem","0.3083"
"1670","nachhaltig","belegen","0.3049"
"1671","nachhaltig","garantieren","0.3005"
"1672","nachhaltig","zehn","0.2994"
"1673","nachhaltig","vorliegend","0.2986"
"1674","nachhaltig","mindestens","0.2975"
"1675","nachhaltig","daraus","0.2972"
"1676","nachhaltig","rechtlich","0.2961"
"1677","nachhaltig","juni","0.2946"
"1678","nachhaltig","gesetz","0.2913"
"1679","nachhaltig","neu","0.2913"
"1680","nachhaltig","davon","0.291"
"1681","nachhaltig","verbot","0.2873"
"1682","nachhaltig","schick","0.2852"
"1683","nachhaltig","derzeit","0.2839"
"1684","nachhaltig","finden","0.2796"
"1685","nachhaltig","all","0.2787"
"1686","nachhaltig","sozialdemokrat","0.2744"
"1687","nachhaltig","september","0.2744"
"1688","nachhaltig","bestehen","0.274"
"1689","nachhaltig","froh","0.2729"
"1690","nachhaltig","merken","0.2722"
"1691","nachhaltig","vorschlag","0.2718"
"1692","nachhaltig","arbeit","0.2699"
"1693","nachhaltig","verantwortung","0.2692"
"1694","nachhaltig","darüber","0.2687"
"1695","nachhaltig","gerade","0.2679"
"1696","nachhaltig","beschäftigte","0.2672"
"1697","nachhaltig","darauf","0.2669"
"1698","nachhaltig","allein","0.2668"
"1699","nachhaltig","regierung","0.2643"
"1700","nachhaltig","antrag","0.264"
"1701","nachhaltig","mut","0.2595"
"1702","nachhaltig","möglichkeit","0.258"
"1703","nachhaltig","ziehen","0.2579"
"1704","nachhaltig","betonen","0.2573"
"1705","nachhaltig","verbindlich","0.2573"
"1706","nachhaltig","bundesministerium","0.2573"
"1707","nachhaltig","christlich-liberale","0.2573"
"1708","nachhaltig","prozess","0.2559"
"1709","nachhaltig","erst","0.2557"
"1710","nachhaltig","natürlich","0.2555"
"1711","nachhaltig","stecken","0.2552"
"1712","nachhaltig","treffen","0.2531"
"1713","nachhaltig","grundgesetzes","0.2517"
"1714","nachhaltig","genug","0.251"
"1715","nachhaltig","aussprechen","0.2503"
"1716","nachhaltig","eigen","0.2489"
"1717","nachhaltig","einzelne","0.2489"
"1718","nachhaltig","aufgrund","0.2469"
"1719","nachhaltig","weisen","0.2469"
"1720","nachhaltig","spd-fraktion","0.2469"
"1721","nachhaltig","redner","0.2448"
"1722","nachhaltig","vorgabe","0.2448"
"1723","nachhaltig","rolle","0.2413"
"1724","nachhaltig","vergangen","0.2399"
"1725","nachhaltig","aktuell","0.2371"
"1726","nachhaltig","lohnen","0.2365"
"1727","nachhaltig","anlass","0.2365"
"1728","nachhaltig","abgeordnete","0.2359"
"1729","nachhaltig","gesamt","0.2351"
"1730","nachhaltig","pflicht","0.231"
"1731","nachhaltig","fraktion","0.2289"
"1732","nachhaltig","angemessen","0.2282"
"1733","nachhaltig","folge","0.2262"
"1734","nachhaltig","abschluss","0.2262"
"1735","nachhaltig","versprechen","0.2231"
"1736","nachhaltig","hintergrund","0.2217"
"1737","nachhaltig","wenig","0.2204"
"1738","nachhaltig","grenze","0.2187"
"1739","nachhaltig","ab","0.2182"
"1740","nachhaltig","erklärung","0.216"
"1741","nachhaltig","vornehm","0.214"
"1742","nachhaltig","mehr","0.2138"
"1743","nachhaltig","bündnis","0.2094"
"1744","nachhaltig","grüne","0.2083"
"1745","nachhaltig","aufmerksamkeit","0.208"
"1746","nachhaltig","umgehen","0.2049"
"1747","nachhaltig","punkt","0.2027"
"1748","nachhaltig","einkommen","0.2019"
"1749","nachhaltig","sicherheit","0.2004"
"1750","nachhaltig","zurzeit","0.2"
"1751","nachhaltig","scheinen","0.196"
"1752","nachhaltig","vereinbart","0.196"
"1753","nachhaltig","stolz","0.194"
"1754","nachhaltig","entwurf","0.1925"
"1755","nachhaltig","gehen","0.1908"
"1756","nachhaltig","tun","0.1901"
"1757","nachhaltig","schwarz-gelb","0.1881"
"1758","nachhaltig","kosovo","0.1861"
"1759","nachhaltig","überhaupt","0.1822"
"1760","nachhaltig","vorgesehen","0.1802"
"1761","nachhaltig","ministerium","0.1793"
"1762","nachhaltig","linke","0.1789"
"1763","nachhaltig","rede","0.1777"
"1764","nachhaltig","grund","0.1769"
"1765","nachhaltig","führen","0.173"
"1766","nachhaltig","erkenntnis","0.1686"
"1767","nachhaltig","zug","0.1686"
"1768","nachhaltig","mehrer","0.1673"
"1769","nachhaltig","verhalten","0.1673"
"1770","nachhaltig","ganz","0.167"
"1771","nachhaltig","position","0.1666"
"1772","nachhaltig","satz","0.1638"
"1773","nachhaltig","verlieren","0.1638"
"1774","nachhaltig","kurz","0.1631"
"1775","nachhaltig","hinsichtlich","0.1622"
"1776","nachhaltig","eingebracht","0.159"
"1777","nachhaltig","nennen","0.1584"
"1778","nachhaltig","griechenland","0.1583"
"1779","nachhaltig","kraft","0.1578"
"1780","nachhaltig","angehen","0.1578"
"1781","nachhaltig","klären","0.1571"
"1782","nachhaltig","ergeben","0.1545"
"1783","nachhaltig","zweiter","0.1533"
"1784","nachhaltig","ulla","0.1514"
"1785","nachhaltig","bundeshaushalt","0.1457"
"1786","nachhaltig","verlassen","0.1438"
"1787","nachhaltig","richtige","0.1419"
"1788","nachhaltig","glauben","0.1409"
"1789","nachhaltig","woche","0.1404"
"1790","nachhaltig","müsste","0.1382"
"1791","nachhaltig","notwendigkeit","0.1363"
"1792","nachhaltig","festlegen","0.1332"
"1793","nachhaltig","immerhin","0.1307"
"1794","nachhaltig","beschäftigen","0.1292"
"1795","nachhaltig","konkret","0.127"
"1796","nachhaltig","vorwurf","0.127"
"1797","nachhaltig","mehrheit","0.1262"
"1798","nachhaltig","stimme","0.1241"
"1799","nachhaltig","widerspruch","0.1233"
"1800","nachhaltig","steuerzahler","0.1233"
"1801","nachhaltig","zusätzliche","0.1196"
"1802","nachhaltig","deutschen","0.1189"
"1803","nachhaltig","prüfen","0.1178"
"1804","nachhaltig","übrigens","0.1153"
"1805","nachhaltig","gespräch","0.115"
"1806","nachhaltig","entsprechend","0.1115"
"1807","nachhaltig","heute","0.1105"
"1808","nachhaltig","dienst","0.1086"
"1809","nachhaltig","meinung","0.1074"
"1810","nachhaltig","feststellen","0.1068"
"1811","nachhaltig","trotzen","0.1014"
"1812","nachhaltig","deutsche","0.1004"
"1813","nachhaltig","netz","0.0996"
"1814","nachhaltig","großen","0.0996"
"1815","nachhaltig","einzeln","0.0996"
"1816","nachhaltig","ende","0.099"
"1817","nachhaltig","europäische","0.097"
"1818","nachhaltig","auge","0.0969"
"1819","nachhaltig","tag","0.0932"
"1820","nachhaltig","regelung","0.0924"
"1821","nachhaltig","petra","0.0918"
"1822","nachhaltig","klaren","0.0898"
"1823","nachhaltig","jetzig","0.0888"
"1824","nachhaltig","abkomme","0.0888"
"1825","nachhaltig","einführung","0.0871"
"1826","nachhaltig","mehrfach","0.0853"
"1827","nachhaltig","schnell","0.0853"
"1828","nachhaltig","krieg","0.0847"
"1829","nachhaltig","aufgreifen","0.0817"
"1830","nachhaltig","gesetzgeber","0.0817"
"1831","nachhaltig","martin","0.0817"
"1832","nachhaltig","debattieren","0.0782"
"1833","nachhaltig","dürfen","0.0767"
"1834","nachhaltig","kritisch","0.0764"
"1835","nachhaltig","eigentlich","0.0745"
"1836","nachhaltig","intensiv","0.0729"
"1837","nachhaltig","seit","0.0724"
"1838","nachhaltig","jahr","0.0716"
"1839","nachhaltig","sehen","0.0706"
"1840","nachhaltig","gestern","0.0677"
"1841","nachhaltig","vollständig","0.0677"
"1842","nachhaltig","sitzung","0.0671"
"1843","nachhaltig","immer","0.0667"
"1844","nachhaltig","gewerkschaft","0.0659"
"1845","nachhaltig","union","0.064"
"1846","nachhaltig","integration","0.0636"
"1847","nachhaltig","richten","0.0624"
"1848","nachhaltig","gefahr","0.0616"
"1849","nachhaltig","minister","0.0577"
"1850","nachhaltig","betreffen","0.0575"
"1851","nachhaltig","schreiben","0.0555"
"1852","nachhaltig","angebot","0.0509"
"1853","nachhaltig","alt","0.0487"
"1854","nachhaltig","straße","0.0452"
"1855","nachhaltig","groß","0.0431"
"1856","nachhaltig","fdp","0.0394"
"1857","nachhaltig","ständig","0.0384"
"1858","nachhaltig","privat","0.0384"
"1859","nachhaltig","bleiben","0.0376"
"1860","nachhaltig","lang","0.0369"
"1861","nachhaltig","vertreten","0.0362"
"1862","nachhaltig","bewusst","0.0339"
"1863","nachhaltig","zeichen","0.0334"
"1864","nachhaltig","ausschuss","0.0283"
"1865","nachhaltig","organisation","0.0283"
"1866","nachhaltig","äußern","0.0261"
"1867","nachhaltig","einbringen","0.0241"
"1868","nachhaltig","arbeitnehmer","0.023"
"1869","nachhaltig","bund","0.0228"
"1870","nachhaltig","stattfinden","0.0225"
"1871","nachhaltig","klein","0.0216"
"1872","nachhaltig","bundestag","0.0207"
"1873","nachhaltig","schauen","0.0161"
"1874","nachhaltig","etwa","0.015"
"1875","nachhaltig","hand","0.0123"
"1876","nachhaltig","csu","0.0106"
"1877","nachhaltig","zunächst","0.0018"
"1878","nachhaltig","einstellen","0.0002"
