"","V1","V2","V3"
"1","nachhaltig","zukunftsverträglichen","6.5715"
"2","nachhaltig","stadtentwicklung","6.1407"
"3","nachhaltig","umweltgipfel","5.7242"
"4","nachhaltig","sustainable","5.7242"
"5","nachhaltig","raumentwicklung","5.7242"
"6","nachhaltig","innovationsprozeß","5.7242"
"7","nachhaltig","ressourcenschonenden","5.4729"
"8","nachhaltig","siedlungsentwicklung","5.4729"
"9","nachhaltig","neunziger","5.3187"
"10","nachhaltig","machtverhältnisse","5.3187"
"11","nachhaltig","wirtschaftsweise","5.2278"
"12","nachhaltig","stadt-","5.1852"
"13","nachhaltig","rio-konferenz","5.0674"
"14","nachhaltig","leitbild","5.0674"
"15","nachhaltig","energieeinsatz","5.0674"
"16","nachhaltig","fischfang","4.9621"
"17","nachhaltig","reformmaßnahmen","4.8668"
"18","nachhaltig","tourismusentwicklung","4.8668"
"19","nachhaltig","wirtschaftstätigkeit","4.8668"
"20","nachhaltig","umweltgerechten","4.8538"
"21","nachhaltig","gaukeln","4.7797"
"22","nachhaltig","bewirtschaftung","4.7562"
"23","nachhaltig","revier","4.6997"
"24","nachhaltig","wirtschaften","4.6591"
"25","nachhaltig","standortqualität","4.6256"
"26","nachhaltig","neuausrichtung","4.6256"
"27","nachhaltig","hilfsprogramme","4.6256"
"28","nachhaltig","ausscheren","4.6256"
"29","nachhaltig","umweltgerechte","4.5566"
"30","nachhaltig","habitat","4.5566"
"31","nachhaltig","wirtschaftsentwicklung","4.5433"
"32","nachhaltig","agenda","4.5401"
"33","nachhaltig","tropenwälder","4.4921"
"34","nachhaltig","umweltverträglichen","4.4921"
"35","nachhaltig","leitbilder","4.4921"
"36","nachhaltig","ent","4.4921"
"37","nachhaltig","landbewirtschaftung","4.4314"
"38","nachhaltig","implizieren","4.3743"
"39","nachhaltig","kreislaufwirtschaft","4.3379"
"40","nachhaltig","umorientierung","4.3202"
"41","nachhaltig","siedlung","4.2689"
"42","nachhaltig","lebensweise","4.2689"
"43","nachhaltig","rio","4.2689"
"44","nachhaltig","zukunftsfähigen","4.2201"
"45","nachhaltig","umweltverträgliche","4.1556"
"46","nachhaltig","forschungspolitik","4.1556"
"47","nachhaltig","süd","4.1437"
"48","nachhaltig","fischbestände","4.1292"
"49","nachhaltig","the","4.0866"
"50","nachhaltig","umsteuern","4.0325"
"51","nachhaltig","istanbul","4.0325"
"52","nachhaltig","massenkaufkraft","4.0065"
"53","nachhaltig","raubbau","3.9688"
"54","nachhaltig","gerichtshofs","3.9688"
"55","nachhaltig","zukunftsfähige","3.9505"
"56","nachhaltig","umweltministeriums","3.9324"
"57","nachhaltig","bergarbeiterwohnungsbaus","3.9324"
"58","nachhaltig","verträgliche","3.8634"
"59","nachhaltig","beleben","3.8634"
"60","nachhaltig","minimal","3.8634"
"61","nachhaltig","marktzugang","3.8634"
"62","nachhaltig","wut","3.8634"
"63","nachhaltig","bundesumweltministerium","3.8307"
"64","nachhaltig","ganzheitlich","3.82"
"65","nachhaltig","nord","3.7989"
"66","nachhaltig","preisstabilität","3.7783"
"67","nachhaltig","umweltschutzes","3.7467"
"68","nachhaltig","abfallwirtschaft","3.7383"
"69","nachhaltig","industrieforschung","3.7383"
"70","nachhaltig","ausrichtung","3.7266"
"71","nachhaltig","süden","3.7237"
"72","nachhaltig","diplomatische","3.7093"
"73","nachhaltig","andenken","3.6271"
"74","nachhaltig","lektüre","3.6271"
"75","nachhaltig","forstwirtschaft","3.5758"
"76","nachhaltig","norden","3.5462"
"77","nachhaltig","vorläufersubstanzen","3.527"
"78","nachhaltig","lebensgrundlagen","3.5112"
"79","nachhaltig","rationell","3.5034"
"80","nachhaltig","entwicklung","3.4899"
"81","nachhaltig","erfolgversprechend","3.4805"
"82","nachhaltig","querschnittsaufgabe","3.458"
"83","nachhaltig","fischerei","3.4145"
"84","nachhaltig","lebensqualität","3.4074"
"85","nachhaltig","wald","3.3987"
"86","nachhaltig","enkel","3.3934"
"87","nachhaltig","tragfähige","3.3934"
"88","nachhaltig","erschüttern","3.3934"
"89","nachhaltig","einzigartig","3.3728"
"90","nachhaltig","neuorientierung","3.366"
"91","nachhaltig","dienstrecht","3.3526"
"92","nachhaltig","innovationspolitik","3.3526"
"93","nachhaltig","wirtschaftswachstum","3.3526"
"94","nachhaltig","nachwuchs","3.3328"
"95","nachhaltig","einhergehen","3.3134"
"96","nachhaltig","bau-","3.3134"
"97","nachhaltig","industrienationen","3.2944"
"98","nachhaltig","lokal","3.2944"
"99","nachhaltig","konkretisieren","3.2757"
"100","nachhaltig","schlüssel","3.2664"
"101","nachhaltig","lebenssituation","3.2216"
"102","nachhaltig","bürgerrechte","3.2042"
"103","nachhaltig","ausgewogen","3.1956"
"104","nachhaltig","bequem","3.1703"
"105","nachhaltig","strukturpolitik","3.1538"
"106","nachhaltig","wohngeldes","3.1375"
"107","nachhaltig","biologisch","3.1268"
"108","nachhaltig","ressource","3.1238"
"109","nachhaltig","einschneidend","3.1215"
"110","nachhaltig","dauerhaft","3.1058"
"111","nachhaltig","biologische","3.0903"
"112","nachhaltig","vielfalt","3.0851"
"113","nachhaltig","haushaltskonsolidierung","3.06"
"114","nachhaltig","nutzung","3.059"
"115","nachhaltig","leitlinien","3.0451"
"116","nachhaltig","sparsam","3.0451"
"117","nachhaltig","beeinträchtigen","3.0334"
"118","nachhaltig","forum","3.0305"
"119","nachhaltig","industriell","2.9949"
"120","nachhaltig","kontroverse","2.988"
"121","nachhaltig","zögern","2.9208"
"122","nachhaltig","verminderung","2.9079"
"123","nachhaltig","zerstörung","2.8952"
"124","nachhaltig","umweltpolitik","2.864"
"125","nachhaltig","meer","2.8458"
"126","nachhaltig","haushaltspolitik","2.8338"
"127","nachhaltig","belange","2.8181"
"128","nachhaltig","beeinträchtigung","2.8103"
"129","nachhaltig","friedliche","2.8103"
"130","nachhaltig","bundesministerin","2.7964"
"131","nachhaltig","beeinflussen","2.7873"
"132","nachhaltig","bekenntnis","2.7873"
"133","nachhaltig","eingangs","2.7873"
"134","nachhaltig","revolution","2.7873"
"135","nachhaltig","ressort","2.776"
"136","nachhaltig","sozial-","2.7575"
"137","nachhaltig","altlasten","2.7538"
"138","nachhaltig","unerläßlich","2.7429"
"139","nachhaltig","übergang","2.732"
"140","nachhaltig","erziehung","2.732"
"141","nachhaltig","menschheit","2.7214"
"142","nachhaltig","natur","2.7183"
"143","nachhaltig","unterstützen","2.7171"
"144","nachhaltig","theorie","2.7108"
"145","nachhaltig","weitreichend","2.7108"
"146","nachhaltig","überwachung","2.6899"
"147","nachhaltig","unmißverständlich","2.6899"
"148","nachhaltig","stabile","2.6899"
"149","nachhaltig","atomenergie","2.6595"
"150","nachhaltig","wachstum","2.6478"
"151","nachhaltig","frieden","2.6446"
"152","nachhaltig","klima","2.6446"
"153","nachhaltig","wohneigentumsförderung","2.6299"
"154","nachhaltig","erreichbar","2.6203"
"155","nachhaltig","verantwortbar","2.6107"
"156","nachhaltig","stören","2.6012"
"157","nachhaltig","gezielt","2.5825"
"158","nachhaltig","hinterlassen","2.5733"
"159","nachhaltig","langfristig","2.5712"
"160","nachhaltig","energiepolitik","2.5702"
"161","nachhaltig","ausrichten","2.5596"
"162","nachhaltig","unterstreichen","2.5564"
"163","nachhaltig","arbeitsmarktpolitischen","2.5461"
"164","nachhaltig","expo","2.5461"
"165","nachhaltig","konsolidierung","2.5461"
"166","nachhaltig","ländlich","2.5417"
"167","nachhaltig","betreffend","2.5284"
"168","nachhaltig","beibehaltung","2.5284"
"169","nachhaltig","vision","2.5197"
"170","nachhaltig","impuls","2.5111"
"171","nachhaltig","leistungsfähigkeit","2.5076"
"172","nachhaltig","drohend","2.494"
"173","nachhaltig","weltweite","2.494"
"174","nachhaltig","friedensprozeß","2.494"
"175","nachhaltig","wiederherstellen","2.4855"
"176","nachhaltig","umweltschutz","2.4751"
"177","nachhaltig","behindern","2.4508"
"178","nachhaltig","angela","2.4444"
"179","nachhaltig","bewähren","2.4379"
"180","nachhaltig","verbleiben","2.4363"
"181","nachhaltig","instrumentarium","2.4205"
"182","nachhaltig","umweltministerin","2.4205"
"183","nachhaltig","intervention","2.4126"
"184","nachhaltig","industrieländer","2.4126"
"185","nachhaltig","grundlegende","2.3971"
"186","nachhaltig","einigkeit","2.3971"
"187","nachhaltig","emission","2.3971"
"188","nachhaltig","aufschwung","2.3971"
"189","nachhaltig","funktion","2.3856"
"190","nachhaltig","praktische","2.3818"
"191","nachhaltig","finanzpolitik","2.3754"
"192","nachhaltig","stärkung","2.3583"
"193","nachhaltig","erhaltung","2.3471"
"194","nachhaltig","verbesserung","2.3345"
"195","nachhaltig","dorf","2.3302"
"196","nachhaltig","ökologisch","2.3293"
"197","nachhaltig","landwirtschaft","2.3238"
"198","nachhaltig","umstrukturierung","2.323"
"199","nachhaltig","verschuldung","2.323"
"200","nachhaltig","einmalig","2.323"
"201","nachhaltig","nachdrücklich","2.3201"
"202","nachhaltig","wende","2.3183"
"203","nachhaltig","begrenzung","2.3088"
"204","nachhaltig","begegnen","2.3088"
"205","nachhaltig","weiche","2.3088"
"206","nachhaltig","volumen","2.3088"
"207","nachhaltig","beschreiten","2.2948"
"208","nachhaltig","überfordern","2.2948"
"209","nachhaltig","verbessern","2.2818"
"210","nachhaltig","catenhusen","2.2742"
"211","nachhaltig","umwelt","2.2683"
"212","nachhaltig","stabilisieren","2.2607"
"213","nachhaltig","konferenz","2.254"
"214","nachhaltig","merkel","2.2507"
"215","nachhaltig","demonstrieren","2.2474"
"216","nachhaltig","fangen","2.2212"
"217","nachhaltig","versehen","2.2212"
"218","nachhaltig","bescheiden","2.2148"
"219","nachhaltig","gleichermaßen","2.2021"
"220","nachhaltig","zielen","2.2021"
"221","nachhaltig","menschlich","2.2021"
"222","nachhaltig","bewirken","2.1957"
"223","nachhaltig","voranbringen","2.1895"
"224","nachhaltig","reduzierung","2.187"
"225","nachhaltig","fördern","2.1832"
"226","nachhaltig","metall","2.1832"
"227","nachhaltig","vermissen","2.177"
"228","nachhaltig","generation","2.1634"
"229","nachhaltig","mittelfristig","2.1617"
"230","nachhaltig","entwicklungsländer","2.1607"
"231","nachhaltig","betrachtung","2.1467"
"232","nachhaltig","ökonomisch","2.1419"
"233","nachhaltig","somit","2.123"
"234","nachhaltig","effekt","2.123"
"235","nachhaltig","orientieren","2.121"
"236","nachhaltig","weltbank","2.1056"
"237","nachhaltig","effektiv","2.0942"
"238","nachhaltig","planung","2.0885"
"239","nachhaltig","ii","2.0857"
"240","nachhaltig","kurs","2.0829"
"241","nachhaltig","erfordern","2.0829"
"242","nachhaltig","prägen","2.0791"
"243","nachhaltig","konzern","2.0773"
"244","nachhaltig","konzentrieren","2.0717"
"245","nachhaltig","rand","2.0717"
"246","nachhaltig","erschweren","2.0717"
"247","nachhaltig","technologie","2.0705"
"248","nachhaltig","schutz","2.0696"
"249","nachhaltig","verschlechtern","2.0661"
"250","nachhaltig","aufbau","2.0593"
"251","nachhaltig","vernichten","2.0552"
"252","nachhaltig","öffnung","2.0552"
"253","nachhaltig","wirtschaft","2.051"
"254","nachhaltig","nahe","2.0497"
"255","nachhaltig","einsetzen","2.0401"
"256","nachhaltig","innovation","2.0389"
"257","nachhaltig","konstruktiv","2.0353"
"258","nachhaltig","entwicklungszusammenarbeit","2.0335"
"259","nachhaltig","wirksam","2.0206"
"260","nachhaltig","kernenergie","2.0203"
"261","nachhaltig","anmahnen","2.0176"
"262","nachhaltig","einschätzung","2.015"
"263","nachhaltig","glaubwürdigkeit","2.0106"
"264","nachhaltig","spielraum","2.0071"
"265","nachhaltig","wohnungsbau","2.0071"
"266","nachhaltig","umfassen","2.0045"
"267","nachhaltig","tragend","2.002"
"268","nachhaltig","potential","1.9968"
"269","nachhaltig","decken","1.9916"
"270","nachhaltig","strukturwandel","1.9865"
"271","nachhaltig","begrüßen","1.984"
"272","nachhaltig","konvention","1.9764"
"273","nachhaltig","ursprünglich","1.9739"
"274","nachhaltig","förderung","1.9713"
"275","nachhaltig","raum","1.9649"
"276","nachhaltig","staatsquote","1.9613"
"277","nachhaltig","tschernobyl","1.9564"
"278","nachhaltig","ziel","1.9554"
"279","nachhaltig","stets","1.9514"
"280","nachhaltig","maßstab","1.9514"
"281","nachhaltig","größe","1.9465"
"282","nachhaltig","abbauen","1.9465"
"283","nachhaltig","gemeinschaftsaufgabe","1.9416"
"284","nachhaltig","kulturell","1.9368"
"285","nachhaltig","aktuell","1.934"
"286","nachhaltig","aufzeigen","1.9303"
"287","nachhaltig","umgang","1.9247"
"288","nachhaltig","verändern","1.9156"
"289","nachhaltig","kolb","1.9128"
"290","nachhaltig","auswirkung","1.9094"
"291","nachhaltig","gebot","1.894"
"292","nachhaltig","zugunsten","1.8857"
"293","nachhaltig","bestehend","1.8736"
"294","nachhaltig","wirtschaftlich","1.8698"
"295","nachhaltig","konzept","1.8661"
"296","nachhaltig","enquete-kommission","1.865"
"297","nachhaltig","rahmenbedingungen","1.8642"
"298","nachhaltig","einleiten","1.859"
"299","nachhaltig","fürchten","1.8575"
"300","nachhaltig","richtung","1.8554"
"301","nachhaltig","erde","1.853"
"302","nachhaltig","vermitteln","1.8412"
"303","nachhaltig","voraussetzung","1.8401"
"304","nachhaltig","sielaff","1.8397"
"305","nachhaltig","modernisierung","1.8331"
"306","nachhaltig","betrieblich","1.8324"
"307","nachhaltig","ig","1.8309"
"308","nachhaltig","landwirtschaftlich","1.8222"
"309","nachhaltig","verursachen","1.8179"
"310","nachhaltig","produzieren","1.8179"
"311","nachhaltig","informationsgesellschaft","1.8136"
"312","nachhaltig","anstatt","1.8122"
"313","nachhaltig","umfassend","1.811"
"314","nachhaltig","spätestens","1.8051"
"315","nachhaltig","verbindung","1.8008"
"316","nachhaltig","arm","1.7868"
"317","nachhaltig","verringern","1.784"
"318","nachhaltig","übernahme","1.784"
"319","nachhaltig","industrie","1.7826"
"320","nachhaltig","prozeß","1.7798"
"321","nachhaltig","vorrang","1.7798"
"322","nachhaltig","forschung","1.7739"
"323","nachhaltig","fortsetzung","1.7716"
"324","nachhaltig","wandel","1.7716"
"325","nachhaltig","basis","1.7691"
"326","nachhaltig","zusammenfassen","1.7593"
"327","nachhaltig","initiative","1.7563"
"328","nachhaltig","gang","1.7539"
"329","nachhaltig","perspektive","1.7512"
"330","nachhaltig","verpflichten","1.7432"
"331","nachhaltig","grundlegend","1.7352"
"332","nachhaltig","kredit","1.7352"
"333","nachhaltig","erkennen","1.7343"
"334","nachhaltig","rechtsprechung","1.7313"
"335","nachhaltig","bekämpfen","1.7293"
"336","nachhaltig","umsetzung","1.7273"
"337","nachhaltig","international","1.7255"
"338","nachhaltig","sachverständige","1.7234"
"339","nachhaltig","begriff","1.7226"
"340","nachhaltig","naturschutz","1.7221"
"341","nachhaltig","kabinett","1.7195"
"342","nachhaltig","engagieren","1.7195"
"343","nachhaltig","effizient","1.7078"
"344","nachhaltig","kämpfen","1.7065"
"345","nachhaltig","ausmaß","1.704"
"346","nachhaltig","verankern","1.704"
"347","nachhaltig","arbeitsmarkt","1.704"
"348","nachhaltig","schaden","1.6985"
"349","nachhaltig","einstellung","1.6963"
"350","nachhaltig","schwerpunkt","1.6793"
"351","nachhaltig","positiv","1.677"
"352","nachhaltig","besteuerung","1.6699"
"353","nachhaltig","weitgehend","1.6662"
"354","nachhaltig","begrenzen","1.6644"
"355","nachhaltig","verbraucher","1.6638"
"356","nachhaltig","staatliche","1.6613"
"357","nachhaltig","wissenschaftler","1.6588"
"358","nachhaltig","klarmachen","1.6552"
"359","nachhaltig","vertrauen","1.6547"
"360","nachhaltig","nachteil","1.6515"
"361","nachhaltig","steuerreform","1.6418"
"362","nachhaltig","tradition","1.6406"
"363","nachhaltig","anheben","1.6406"
"364","nachhaltig","russisch","1.6334"
"365","nachhaltig","erfolg","1.6256"
"366","nachhaltig","friedlich","1.6227"
"367","nachhaltig","gelingen","1.6171"
"368","nachhaltig","zügig","1.6157"
"369","nachhaltig","mittelstand","1.611"
"370","nachhaltig","widerstand","1.6087"
"371","nachhaltig","aktivität","1.6052"
"372","nachhaltig","gesellschaftliche","1.6052"
"373","nachhaltig","global","1.6034"
"374","nachhaltig","wirtschafts-","1.6017"
"375","nachhaltig","vorsichtig","1.6017"
"376","nachhaltig","rasch","1.6017"
"377","nachhaltig","bauer","1.5994"
"378","nachhaltig","aussehen","1.5925"
"379","nachhaltig","einschränken","1.5913"
"380","nachhaltig","verbindlich","1.5879"
"381","nachhaltig","strukturell","1.5879"
"382","nachhaltig","nützen","1.5845"
"383","nachhaltig","sowohl","1.5811"
"384","nachhaltig","verpflichtung","1.5783"
"385","nachhaltig","anstrengung","1.5709"
"386","nachhaltig","einerseits","1.5698"
"387","nachhaltig","sinn","1.5686"
"388","nachhaltig","anschauen","1.5676"
"389","nachhaltig","unzureichend","1.5642"
"390","nachhaltig","verordnung","1.5631"
"391","nachhaltig","ansetzen","1.5609"
"392","nachhaltig","nachher","1.5609"
"393","nachhaltig","unverzichtbar","1.5542"
"394","nachhaltig","entlasten","1.5509"
"395","nachhaltig","erkenntnis","1.5476"
"396","nachhaltig","projekt","1.54"
"397","nachhaltig","berücksichtigung","1.5378"
"398","nachhaltig","kampf","1.5313"
"399","nachhaltig","senkung","1.5302"
"400","nachhaltig","fortschritt","1.5294"
"401","nachhaltig","auftreten","1.5249"
"402","nachhaltig","ständig","1.5227"
"403","nachhaltig","beschäftigung","1.5224"
"404","nachhaltig","abhängig","1.5216"
"405","nachhaltig","funktionieren","1.5174"
"406","nachhaltig","hängen","1.5131"
"407","nachhaltig","abgabe","1.5047"
"408","nachhaltig","konsequent","1.5005"
"409","nachhaltig","volk","1.4932"
"410","nachhaltig","verwirklichen","1.4932"
"411","nachhaltig","erzielen","1.4885"
"412","nachhaltig","oben","1.487"
"413","nachhaltig","struktur","1.4851"
"414","nachhaltig","bild","1.4818"
"415","nachhaltig","wiedervereinigung","1.4777"
"416","nachhaltig","entwickeln","1.4769"
"417","nachhaltig","pflege","1.4716"
"418","nachhaltig","derzeitig","1.4716"
"419","nachhaltig","zielsetzung","1.4686"
"420","nachhaltig","grundlage","1.4656"
"421","nachhaltig","strategie","1.4656"
"422","nachhaltig","künftig","1.4647"
"423","nachhaltig","darlegen","1.4595"
"424","nachhaltig","rechtsstaat","1.4595"
"425","nachhaltig","gegenstand","1.4565"
"426","nachhaltig","wachsend","1.4565"
"427","nachhaltig","dennoch","1.4535"
"428","nachhaltig","mitte","1.4505"
"429","nachhaltig","bilanz","1.4446"
"430","nachhaltig","korrigieren","1.4416"
"431","nachhaltig","zukünftig","1.4401"
"432","nachhaltig","papier","1.4357"
"433","nachhaltig","macht","1.4357"
"434","nachhaltig","ausführlich","1.4328"
"435","nachhaltig","prinzip","1.431"
"436","nachhaltig","handel","1.4298"
"437","nachhaltig","stichwort","1.4279"
"438","nachhaltig","sozial","1.4268"
"439","nachhaltig","erleichtern","1.424"
"440","nachhaltig","schützen","1.4226"
"441","nachhaltig","gesellschaftlich","1.4211"
"442","nachhaltig","steigend","1.4211"
"443","nachhaltig","konkret","1.4207"
"444","nachhaltig","regional","1.4182"
"445","nachhaltig","unterrichtung","1.4124"
"446","nachhaltig","defizit","1.4086"
"447","nachhaltig","entwicklungspolitik","1.4067"
"448","nachhaltig","herausforderung","1.4067"
"449","nachhaltig","bahn","1.4029"
"450","nachhaltig","mitgliedstaaten","1.401"
"451","nachhaltig","gerechtigkeit","1.401"
"452","nachhaltig","fügen","1.401"
"453","nachhaltig","beitrag","1.3976"
"454","nachhaltig","stadt","1.3965"
"455","nachhaltig","priorität","1.3953"
"456","nachhaltig","erlauben","1.3935"
"457","nachhaltig","einseitig","1.3869"
"458","nachhaltig","verlängerung","1.3869"
"459","nachhaltig","petitionsausschusses","1.3841"
"460","nachhaltig","einsparung","1.3823"
"461","nachhaltig","qualität","1.3767"
"462","nachhaltig","begreifen","1.3702"
"463","nachhaltig","nachbar","1.3702"
"464","nachhaltig","durchsetzen","1.3675"
"465","nachhaltig","kreis","1.3647"
"466","nachhaltig","regel","1.3552"
"467","nachhaltig","produktion","1.3538"
"468","nachhaltig","steigerung","1.3511"
"469","nachhaltig","verfolgen","1.3498"
"470","nachhaltig","bezeichnen","1.3431"
"471","nachhaltig","erreichen","1.3407"
"472","nachhaltig","jahrhundert","1.3404"
"473","nachhaltig","ansatz","1.3372"
"474","nachhaltig","teilen","1.3351"
"475","nachhaltig","erwecken","1.3351"
"476","nachhaltig","organisation","1.3351"
"477","nachhaltig","folge","1.3324"
"478","nachhaltig","andererseits","1.314"
"479","nachhaltig","hart","1.314"
"480","nachhaltig","finanziell","1.3097"
"481","nachhaltig","bislang","1.3088"
"482","nachhaltig","reaktorsicherheit","1.3088"
"483","nachhaltig","schritt","1.3059"
"484","nachhaltig","ausbau","1.3036"
"485","nachhaltig","betonen","1.3011"
"486","nachhaltig","daher","1.2998"
"487","nachhaltig","deutschen","1.2992"
"488","nachhaltig","ernsthaft","1.2947"
"489","nachhaltig","wundern","1.2934"
"490","nachhaltig","inner","1.2934"
"491","nachhaltig","energie","1.2917"
"492","nachhaltig","beschreiben","1.2908"
"493","nachhaltig","falle","1.2782"
"494","nachhaltig","abbau","1.2782"
"495","nachhaltig","boden","1.2657"
"496","nachhaltig","erarbeiten","1.2632"
"497","nachhaltig","einfluß","1.2608"
"498","nachhaltig","hilfe","1.2583"
"499","nachhaltig","gegenteil","1.2583"
"500","nachhaltig","einnahme","1.2583"
"501","nachhaltig","wirkung","1.255"
"502","nachhaltig","seiten","1.2534"
"503","nachhaltig","wettbewerbsfähigkeit","1.2534"
"504","nachhaltig","landwirt","1.2534"
"505","nachhaltig","gemeinsam","1.2527"
"506","nachhaltig","ebene","1.2497"
"507","nachhaltig","zukunft","1.2491"
"508","nachhaltig","ostdeutsch","1.2424"
"509","nachhaltig","feld","1.2388"
"510","nachhaltig","gleichzeitig","1.2374"
"511","nachhaltig","ebenso","1.234"
"512","nachhaltig","weitergehen","1.2316"
"513","nachhaltig","gestalten","1.2304"
"514","nachhaltig","technik","1.2292"
"515","nachhaltig","außerhalb","1.2196"
"516","nachhaltig","ort","1.2185"
"517","nachhaltig","außenpolitik","1.2173"
"518","nachhaltig","aufgabe","1.2156"
"519","nachhaltig","arbeitslosigkeit","1.209"
"520","nachhaltig","firma","1.2055"
"521","nachhaltig","ursache","1.204"
"522","nachhaltig","politik","1.1982"
"523","nachhaltig","gegenwärtig","1.1962"
"524","nachhaltig","tourismus","1.1893"
"525","nachhaltig","welt","1.1865"
"526","nachhaltig","privatisierung","1.1809"
"527","nachhaltig","vorteil","1.1801"
"528","nachhaltig","gerecht","1.1801"
"529","nachhaltig","verbinden","1.1779"
"530","nachhaltig","betreiben","1.1779"
"531","nachhaltig","wirtschaftspolitik","1.1756"
"532","nachhaltig","appellieren","1.1756"
"533","nachhaltig","erhöhung","1.1756"
"534","nachhaltig","heißen","1.1656"
"535","nachhaltig","zentrale","1.151"
"536","nachhaltig","notwendig","1.1501"
"537","nachhaltig","ministerin","1.1465"
"538","nachhaltig","marktwirtschaft","1.1443"
"539","nachhaltig","überall","1.1443"
"540","nachhaltig","soziale","1.1434"
"541","nachhaltig","kritisch","1.1378"
"542","nachhaltig","bemühen","1.1367"
"543","nachhaltig","gebiet","1.1334"
"544","nachhaltig","bundesregierung","1.1286"
"545","nachhaltig","gefährden","1.1276"
"546","nachhaltig","ergreifen","1.1269"
"547","nachhaltig","armut","1.1226"
"548","nachhaltig","senken","1.1194"
"549","nachhaltig","juni","1.1162"
"550","nachhaltig","sichern","1.1119"
"551","nachhaltig","beweisen","1.1119"
"552","nachhaltig","jedoch","1.1084"
"553","nachhaltig","belegen","1.1077"
"554","nachhaltig","möglichkeit","1.1066"
"555","nachhaltig","technisch","1.1055"
"556","nachhaltig","vertrag","1.1034"
"557","nachhaltig","darin","1.102"
"558","nachhaltig","benötigen","1.1013"
"559","nachhaltig","interesse","1.0992"
"560","nachhaltig","ohnehin","1.0992"
"561","nachhaltig","institution","1.0992"
"562","nachhaltig","wirklich","1.0917"
"563","nachhaltig","arbeitsmarktpolitik","1.0909"
"564","nachhaltig","beteiligte","1.0888"
"565","nachhaltig","zwingen","1.0881"
"566","nachhaltig","sorgen","1.0875"
"567","nachhaltig","integration","1.0867"
"568","nachhaltig","sicher","1.0846"
"569","nachhaltig","sicherung","1.0826"
"570","nachhaltig","eindruck","1.0793"
"571","nachhaltig","notwendige","1.0784"
"572","nachhaltig","programm","1.076"
"573","nachhaltig","bedenken","1.0743"
"574","nachhaltig","niveau","1.0743"
"575","nachhaltig","interessant","1.0702"
"576","nachhaltig","setzen","1.069"
"577","nachhaltig","petition","1.0641"
"578","nachhaltig","vorhanden","1.0581"
"579","nachhaltig","sowie","1.0572"
"580","nachhaltig","bemühung","1.05"
"581","nachhaltig","reduzieren","1.0474"
"582","nachhaltig","steuerlich","1.046"
"583","nachhaltig","nächst","1.0457"
"584","nachhaltig","belastung","1.0421"
"585","nachhaltig","gesellschaft","1.0346"
"586","nachhaltig","geplant","1.0342"
"587","nachhaltig","lage","1.0288"
"588","nachhaltig","bürger","1.0274"
"589","nachhaltig","idee","1.0263"
"590","nachhaltig","formulieren","1.0263"
"591","nachhaltig","empfehlen","1.0224"
"592","nachhaltig","juli","1.0224"
"593","nachhaltig","vorgang","1.0205"
"594","nachhaltig","überprüfen","1.0166"
"595","nachhaltig","vereinte","1.0147"
"596","nachhaltig","verdienen","1.0147"
"597","nachhaltig","leben","1.0143"
"598","nachhaltig","kommission","1.0127"
"599","nachhaltig","internationale","1.0099"
"600","nachhaltig","beitragen","1.007"
"601","nachhaltig","dringen","1.0054"
"602","nachhaltig","fällen","1.0051"
"603","nachhaltig","entschließungsantrag","1.0041"
"604","nachhaltig","gefahr","0.9984"
"605","nachhaltig","entlastung","0.9943"
"606","nachhaltig","einführung","0.9918"
"607","nachhaltig","wenigstens","0.9842"
"608","nachhaltig","mieter","0.9675"
"609","nachhaltig","aufbauen","0.9657"
"610","nachhaltig","finanzminister","0.9596"
"611","nachhaltig","vorhaben","0.9547"
"612","nachhaltig","unterschied","0.9523"
"613","nachhaltig","gegensatz","0.9511"
"614","nachhaltig","alternative","0.9511"
"615","nachhaltig","gemeinde","0.9496"
"616","nachhaltig","wahrnehmen","0.9457"
"617","nachhaltig","tisch","0.9439"
"618","nachhaltig","weltweit","0.9427"
"619","nachhaltig","post","0.9421"
"620","nachhaltig","lernen","0.9403"
"621","nachhaltig","erbringen","0.9385"
"622","nachhaltig","instrument","0.9349"
"623","nachhaltig","engagement","0.9331"
"624","nachhaltig","bedingung","0.932"
"625","nachhaltig","schwierig","0.9296"
"626","nachhaltig","finanzielle","0.9296"
"627","nachhaltig","jahrzehnt","0.9278"
"628","nachhaltig","veränderung","0.9252"
"629","nachhaltig","brauchen","0.9237"
"630","nachhaltig","angeblich","0.9208"
"631","nachhaltig","sicherstellen","0.919"
"632","nachhaltig","tatsächlich","0.9184"
"633","nachhaltig","halte","0.9161"
"634","nachhaltig","vorliegend","0.9155"
"635","nachhaltig","bekämpfung","0.9138"
"636","nachhaltig","ministerpräsident","0.9103"
"637","nachhaltig","demokratie","0.9097"
"638","nachhaltig","leisten","0.9093"
"639","nachhaltig","chance","0.9077"
"640","nachhaltig","mittelständisch","0.9051"
"641","nachhaltig","mut","0.9016"
"642","nachhaltig","zuletzt","0.9016"
"643","nachhaltig","beruflich","0.9016"
"644","nachhaltig","besonder","0.9005"
"645","nachhaltig","vermeiden","0.8999"
"646","nachhaltig","bewußt","0.8925"
"647","nachhaltig","vereinbarung","0.8905"
"648","nachhaltig","verkehr","0.8891"
"649","nachhaltig","erteilen","0.8879"
"650","nachhaltig","osten","0.8837"
"651","nachhaltig","insgesamt","0.8811"
"652","nachhaltig","berücksichtigen","0.8755"
"653","nachhaltig","gutachten","0.8744"
"654","nachhaltig","fordern","0.8724"
"655","nachhaltig","modell","0.8694"
"656","nachhaltig","reform","0.8688"
"657","nachhaltig","währungsunion","0.8677"
"658","nachhaltig","schaffen","0.867"
"659","nachhaltig","nämlich","0.8651"
"660","nachhaltig","ministerium","0.8594"
"661","nachhaltig","gedanke","0.8594"
"662","nachhaltig","bevölkerung","0.8578"
"663","nachhaltig","möglich","0.8572"
"664","nachhaltig","betreffen","0.8505"
"665","nachhaltig","laut","0.8495"
"666","nachhaltig","bisher","0.8472"
"667","nachhaltig","kaum","0.8447"
"668","nachhaltig","unterstützung","0.8422"
"669","nachhaltig","sparen","0.8371"
"670","nachhaltig","friede","0.8349"
"671","nachhaltig","dadurch","0.833"
"672","nachhaltig","dabei","0.8292"
"673","nachhaltig","zusammen","0.8285"
"674","nachhaltig","letztlich","0.8285"
"675","nachhaltig","rentenversicherung","0.8274"
"676","nachhaltig","hinzu","0.8269"
"677","nachhaltig","haushalt","0.8212"
"678","nachhaltig","privat","0.8205"
"679","nachhaltig","umsetzen","0.8189"
"680","nachhaltig","produkt","0.8126"
"681","nachhaltig","auffassung","0.8107"
"682","nachhaltig","verantwortung","0.8074"
"683","nachhaltig","anteil","0.8074"
"684","nachhaltig","erwarten","0.8069"
"685","nachhaltig","intensiv","0.8047"
"686","nachhaltig","absolut","0.8001"
"687","nachhaltig","legen","0.8001"
"688","nachhaltig","deutlich","0.7991"
"689","nachhaltig","auffordern","0.7969"
"690","nachhaltig","verweigern","0.7954"
"691","nachhaltig","massiv","0.7938"
"692","nachhaltig","freiheit","0.7908"
"693","nachhaltig","danach","0.7861"
"694","nachhaltig","mißbrauchen","0.7846"
"695","nachhaltig","verschieden","0.7826"
"696","nachhaltig","manch","0.7815"
"697","nachhaltig","übrigens","0.7815"
"698","nachhaltig","steuer","0.7808"
"699","nachhaltig","schnell","0.7785"
"700","nachhaltig","muß","0.7727"
"701","nachhaltig","schaffung","0.7724"
"702","nachhaltig","rexrodt","0.7724"
"703","nachhaltig","tat","0.7694"
"704","nachhaltig","ost","0.7694"
"705","nachhaltig","ebenfalls","0.7671"
"706","nachhaltig","beim","0.7664"
"707","nachhaltig","maßnahme","0.7637"
"708","nachhaltig","darstellen","0.7604"
"709","nachhaltig","deswegen","0.7604"
"710","nachhaltig","sinnvoll","0.7594"
"711","nachhaltig","hinweisen","0.7569"
"712","nachhaltig","bewegen","0.7544"
"713","nachhaltig","wert","0.7504"
"714","nachhaltig","betrieb","0.7391"
"715","nachhaltig","mittler","0.7352"
"716","nachhaltig","unmittelbar","0.7338"
"717","nachhaltig","erinnern","0.7338"
"718","nachhaltig","feststellen","0.7328"
"719","nachhaltig","überlegen","0.7294"
"720","nachhaltig","druck","0.7265"
"721","nachhaltig","rechnen","0.7251"
"722","nachhaltig","gegenüber","0.7246"
"723","nachhaltig","bericht","0.7238"
"724","nachhaltig","erfüllen","0.7231"
"725","nachhaltig","ändern","0.7164"
"726","nachhaltig","dauer","0.7093"
"727","nachhaltig","jugendliche","0.7093"
"728","nachhaltig","verhältnis","0.7041"
"729","nachhaltig","krankenversicherung","0.7022"
"730","nachhaltig","bereich","0.702"
"731","nachhaltig","europäisch","0.699"
"732","nachhaltig","land","0.6971"
"733","nachhaltig","allerdings","0.6959"
"734","nachhaltig","selber","0.6938"
"735","nachhaltig","neue","0.6932"
"736","nachhaltig","erhöhen","0.6931"
"737","nachhaltig","eigentlich","0.6928"
"738","nachhaltig","schlagen","0.6882"
"739","nachhaltig","europäische","0.6858"
"740","nachhaltig","deshalb","0.6848"
"741","nachhaltig","kraft","0.6764"
"742","nachhaltig","stattfinden","0.6707"
"743","nachhaltig","nation","0.6702"
"744","nachhaltig","verstärken","0.6702"
"745","nachhaltig","weiterhin","0.658"
"746","nachhaltig","tag","0.6561"
"747","nachhaltig","mensch","0.6553"
"748","nachhaltig","beziehung","0.6459"
"749","nachhaltig","folgen","0.6437"
"750","nachhaltig","situation","0.6422"
"751","nachhaltig","zusätzliche","0.6326"
"752","nachhaltig","einzig","0.632"
"753","nachhaltig","insbesondere","0.6302"
"754","nachhaltig","vergessen","0.63"
"755","nachhaltig","märz","0.6287"
"756","nachhaltig","statt","0.6287"
"757","nachhaltig","oft","0.6287"
"758","nachhaltig","zeigen","0.6274"
"759","nachhaltig","debatte","0.6242"
"760","nachhaltig","praxis","0.6235"
"761","nachhaltig","gering","0.6209"
"762","nachhaltig","forderung","0.6203"
"763","nachhaltig","vergleich","0.6196"
"764","nachhaltig","beispiel","0.6175"
"765","nachhaltig","deutschland","0.6158"
"766","nachhaltig","endlich","0.612"
"767","nachhaltig","möglicherweise","0.6066"
"768","nachhaltig","erhalten","0.6062"
"769","nachhaltig","immer","0.6049"
"770","nachhaltig","entsprechend","0.6038"
"771","nachhaltig","beispielsweise","0.6028"
"772","nachhaltig","gut","0.6025"
"773","nachhaltig","breit","0.5977"
"774","nachhaltig","einrichtung","0.5964"
"775","nachhaltig","bedarf","0.5926"
"776","nachhaltig","bedeutung","0.5918"
"777","nachhaltig","kosten","0.5905"
"778","nachhaltig","minister","0.5905"
"779","nachhaltig","hören","0.5884"
"780","nachhaltig","verantwortlich","0.585"
"781","nachhaltig","zweitens","0.5844"
"782","nachhaltig","finanzieren","0.5775"
"783","nachhaltig","unternehmen","0.5773"
"784","nachhaltig","führen","0.5757"
"785","nachhaltig","bekennen","0.575"
"786","nachhaltig","änderung","0.575"
"787","nachhaltig","erfolgen","0.5742"
"788","nachhaltig","erforderlich","0.5684"
"789","nachhaltig","vergangen","0.5676"
"790","nachhaltig","notwendigkeit","0.5651"
"791","nachhaltig","erheblich","0.5645"
"792","nachhaltig","dagegen","0.5627"
"793","nachhaltig","eigene","0.5602"
"794","nachhaltig","bundesländern","0.5574"
"795","nachhaltig","zusammenarbeit","0.5529"
"796","nachhaltig","seit","0.5526"
"797","nachhaltig","ausdruck","0.5505"
"798","nachhaltig","natürlich","0.5454"
"799","nachhaltig","grundsatz","0.5432"
"800","nachhaltig","menschenrechte","0.5408"
"801","nachhaltig","eigen","0.5368"
"802","nachhaltig","bürgerin","0.5312"
"803","nachhaltig","inzwischen","0.5297"
"804","nachhaltig","interfraktionell","0.5277"
"805","nachhaltig","wesentlich","0.5232"
"806","nachhaltig","wichtig","0.5221"
"807","nachhaltig","voll","0.5218"
"808","nachhaltig","erfolgreich","0.5206"
"809","nachhaltig","investition","0.5202"
"810","nachhaltig","müssen","0.5185"
"811","nachhaltig","etwa","0.5175"
"812","nachhaltig","deutsch","0.515"
"813","nachhaltig","öffentlich","0.5103"
"814","nachhaltig","jemand","0.5089"
"815","nachhaltig","ding","0.5063"
"816","nachhaltig","erste","0.5062"
"817","nachhaltig","kürzung","0.5042"
"818","nachhaltig","all","0.4985"
"819","nachhaltig","nutzen","0.4973"
"820","nachhaltig","eintreten","0.4881"
"821","nachhaltig","dienen","0.487"
"822","nachhaltig","eher","0.4847"
"823","nachhaltig","zuständig","0.4813"
"824","nachhaltig","glauben","0.4797"
"825","nachhaltig","lassen","0.4762"
"826","nachhaltig","trotzen","0.4745"
"827","nachhaltig","finden","0.4736"
"828","nachhaltig","je","0.4723"
"829","nachhaltig","handeln","0.4712"
"830","nachhaltig","regierung","0.4706"
"831","nachhaltig","mittel","0.4697"
"832","nachhaltig","diskussion","0.4683"
"833","nachhaltig","vielmehr","0.4682"
"834","nachhaltig","sprechen","0.4634"
"835","nachhaltig","ergebnis","0.4461"
"836","nachhaltig","last","0.4457"
"837","nachhaltig","opposition","0.442"
"838","nachhaltig","kommune","0.4381"
"839","nachhaltig","erst","0.4331"
"840","nachhaltig","bereits","0.4316"
"841","nachhaltig","tragen","0.4282"
"842","nachhaltig","aufnehmen","0.4262"
"843","nachhaltig","gewerkschaft","0.4241"
"844","nachhaltig","bildung","0.422"
"845","nachhaltig","vernünftig","0.4159"
"846","nachhaltig","versuch","0.4135"
"847","nachhaltig","mehr","0.4078"
"848","nachhaltig","erklären","0.399"
"849","nachhaltig","militärisch","0.3967"
"850","nachhaltig","weiß","0.3963"
"851","nachhaltig","ausgabe","0.3925"
"852","nachhaltig","fahren","0.388"
"853","nachhaltig","hinaus","0.388"
"854","nachhaltig","ganz","0.3837"
"855","nachhaltig","weise","0.3828"
"856","nachhaltig","daran","0.3805"
"857","nachhaltig","insofern","0.3781"
"858","nachhaltig","region","0.3751"
"859","nachhaltig","hoffen","0.3751"
"860","nachhaltig","gerade","0.3636"
"861","nachhaltig","ziehen","0.3609"
"862","nachhaltig","rahmen","0.3564"
"863","nachhaltig","arbeitslose","0.3559"
"864","nachhaltig","genau","0.3532"
"865","nachhaltig","ostdeutschland","0.3529"
"866","nachhaltig","schon","0.3521"
"867","nachhaltig","dafür","0.3504"
"868","nachhaltig","fehlen","0.3499"
"869","nachhaltig","halten","0.3483"
"870","nachhaltig","neu","0.3457"
"871","nachhaltig","beid","0.3455"
"872","nachhaltig","weder","0.345"
"873","nachhaltig","darauf","0.3436"
"874","nachhaltig","ergeben","0.34"
"875","nachhaltig","richtig","0.3391"
"876","nachhaltig","beziehen","0.3273"
"877","nachhaltig","bestätigen","0.3264"
"878","nachhaltig","konsequenz","0.3264"
"879","nachhaltig","betroffene","0.3215"
"880","nachhaltig","koalition","0.3199"
"881","nachhaltig","heutig","0.3177"
"882","nachhaltig","anfang","0.3177"
"883","nachhaltig","darum","0.3169"
"884","nachhaltig","allgemein","0.3167"
"885","nachhaltig","thema","0.3152"
"886","nachhaltig","erstens","0.3106"
"887","nachhaltig","art","0.3062"
"888","nachhaltig","europa","0.3058"
"889","nachhaltig","frau","0.3057"
"890","nachhaltig","bleiben","0.2974"
"891","nachhaltig","bundesrepublik","0.2892"
"892","nachhaltig","aussage","0.2892"
"893","nachhaltig","stark","0.2813"
"894","nachhaltig","beschäftigen","0.2707"
"895","nachhaltig","genauso","0.2698"
"896","nachhaltig","tun","0.2684"
"897","nachhaltig","leider","0.2652"
"898","nachhaltig","wissen","0.2631"
"899","nachhaltig","sollen","0.2599"
"900","nachhaltig","politisch","0.2598"
"901","nachhaltig","lieb","0.2573"
"902","nachhaltig","besonders","0.2548"
"903","nachhaltig","arbeit","0.2512"
"904","nachhaltig","fdp","0.2492"
"905","nachhaltig","einbringen","0.2489"
"906","nachhaltig","allein","0.2378"
"907","nachhaltig","parlament","0.2378"
"908","nachhaltig","entscheidend","0.2356"
"909","nachhaltig","entscheiden","0.2316"
"910","nachhaltig","seite","0.2301"
"911","nachhaltig","selbstverständlich","0.2285"
"912","nachhaltig","angesichts","0.2276"
"913","nachhaltig","wenig","0.2259"
"914","nachhaltig","überweisungsvorschlag","0.2163"
"915","nachhaltig","groß","0.2156"
"916","nachhaltig","helfen","0.2148"
"917","nachhaltig","wiederholen","0.2119"
"918","nachhaltig","arbeitnehmer","0.2113"
"919","nachhaltig","bundeskanzler","0.2113"
"920","nachhaltig","meinung","0.2102"
"921","nachhaltig","einheit","0.199"
"922","nachhaltig","markt","0.1982"
"923","nachhaltig","einkommen","0.1948"
"924","nachhaltig","jedenfalls","0.1914"
"925","nachhaltig","klaren","0.1897"
"926","nachhaltig","überhaupt","0.1765"
"927","nachhaltig","zumindest","0.1712"
"928","nachhaltig","kollegin","0.1673"
"929","nachhaltig","vorschlagen","0.1671"
"930","nachhaltig","erfahrung","0.1613"
"931","nachhaltig","problem","0.159"
"932","nachhaltig","stunde","0.1575"
"933","nachhaltig","zitieren","0.1559"
"934","nachhaltig","mal","0.1548"
"935","nachhaltig","ausdrücklich","0.1499"
"936","nachhaltig","million","0.148"
"937","nachhaltig","bringen","0.1472"
"938","nachhaltig","ddr","0.1378"
"939","nachhaltig","jahr","0.1371"
"940","nachhaltig","beginnen","0.137"
"941","nachhaltig","unterschiedlich","0.1116"
"942","nachhaltig","weit","0.1109"
"943","nachhaltig","staat","0.1004"
"944","nachhaltig","einsatz","0.0976"
"945","nachhaltig","davon","0.0956"
"946","nachhaltig","fest","0.0945"
"947","nachhaltig","kollege","0.0905"
"948","nachhaltig","union","0.0884"
"949","nachhaltig","warum","0.0853"
"950","nachhaltig","bestehen","0.0834"
"951","nachhaltig","solch","0.0787"
"952","nachhaltig","liegen","0.0687"
"953","nachhaltig","gesetzlich","0.068"
"954","nachhaltig","gehen","0.0659"
"955","nachhaltig","vorlegen","0.0627"
"956","nachhaltig","bedeuten","0.0568"
"957","nachhaltig","klein","0.0553"
"958","nachhaltig","rede","0.0509"
"959","nachhaltig","öffentlichkeit","0.0509"
"960","nachhaltig","zeit","0.0468"
"961","nachhaltig","schreiben","0.0457"
"962","nachhaltig","form","0.0406"
"963","nachhaltig","national","0.0305"
"964","nachhaltig","bundestag","0.03"
"965","nachhaltig","berlin","0.0281"
"966","nachhaltig","grünen","0.0271"
"967","nachhaltig","denken","0.0247"
"968","nachhaltig","gespräch","0.024"
"969","nachhaltig","gesamt","0.0226"
"970","nachhaltig","wer","0.0209"
"971","nachhaltig","rund","0.0161"
"972","nachhaltig","letzt","0.0157"
"973","nachhaltig","verstehen","0.0152"
"974","nachhaltig","zwei","0.0124"
"975","nachhaltig","hoch","0.0072"
"976","nachhaltig","stelle","0.0043"
