"","V1","V2","V3"
"1","nachhaltig","hochwasserschutz","4.0538"
"2","nachhaltig","armutsländer","4.0538"
"3","nachhaltig","potenzialen","4.0538"
"4","nachhaltig","schadstoffemissionen","4.0538"
"5","nachhaltig","mobilitätspolitik","4.0538"
"6","nachhaltig","lieblingsmodewort","4.0538"
"7","nachhaltig","ökoschwafler","4.0538"
"8","nachhaltig","parasitär","4.0538"
"9","nachhaltig","kapitalanlagen","4.0538"
"10","nachhaltig","un-dekade","4.0538"
"11","nachhaltig","fsc-siegel","4.0538"
"12","nachhaltig","williamsburg","4.0538"
"13","nachhaltig","aufgefallen","4.0538"
"14","nachhaltig","bestandsschonend","4.0538"
"15","nachhaltig","agrarökosysteme","4.0538"
"16","nachhaltig","ressourcenverwendung","4.0538"
"17","nachhaltig","lauterkeit","4.0538"
"18","nachhaltig","exminister","4.0538"
"19","nachhaltig","nachhaltigkeitsbanken","4.0538"
"20","nachhaltig","stört","4.0538"
"21","nachhaltig","reiseprodukte","4.0538"
"22","nachhaltig","wirtschaftsprogramm","4.0538"
"23","nachhaltig","papierverbrauch","4.0538"
"24","nachhaltig","unumkehrbare","4.0538"
"25","nachhaltig","stabilitätsunion","4.0538"
"26","nachhaltig","dreaming","4.0538"
"27","nachhaltig","investiert","4.0538"
"28","nachhaltig","verstimmen","4.0538"
"29","nachhaltig","munasinghe","3.7661"
"30","nachhaltig","stadtentwicklungspolitik","3.7661"
"31","nachhaltig","förderschule","3.7661"
"32","nachhaltig","abgeschult","3.7661"
"33","nachhaltig","greenshowroom","3.6483"
"34","nachhaltig","ökosiegel","3.6483"
"35","nachhaltig","versicherungs-","3.6483"
"36","nachhaltig","hüfte","3.6483"
"37","nachhaltig","wirtschaftsführer","3.6483"
"38","nachhaltig","brunnenstraße","3.6483"
"39","nachhaltig","grundgedanke","3.6483"
"40","nachhaltig","weltkommission","3.6483"
"41","nachhaltig","values","3.6483"
"42","nachhaltig","stoffwechsel","3.6483"
"43","nachhaltig","hilfestellungen","3.6483"
"44","nachhaltig","zertifiziertem","3.6483"
"45","nachhaltig","spekulationsgeschäfte","3.6483"
"46","nachhaltig","versauen","3.6483"
"47","nachhaltig","entwicklungsschub","3.6483"
"48","nachhaltig","banking","3.6483"
"49","nachhaltig","häßler","3.6483"
"50","nachhaltig","un-vollversammlung","3.6483"
"51","nachhaltig","ressourcenmanagement","3.6483"
"52","nachhaltig","fairena","3.6483"
"53","nachhaltig","dragon","3.6483"
"54","nachhaltig","wirtschaftend","3.5838"
"55","nachhaltig","scheulen","3.5429"
"56","nachhaltig","traumatisiert","3.5429"
"57","nachhaltig","entwicklungspfad","3.5429"
"58","nachhaltig","intensivierung","3.5429"
"59","nachhaltig","gabv","3.5429"
"60","nachhaltig","befischt","3.4941"
"61","nachhaltig","cohousing","3.466"
"62","nachhaltig","beschädigen","3.4178"
"63","nachhaltig","un-konferenz","3.4071"
"64","nachhaltig","durchdenken","3.3606"
"65","nachhaltig","bewirtschaftung","3.3606"
"66","nachhaltig","sogenannte","3.3606"
"67","nachhaltig","schädigung","3.3606"
"68","nachhaltig","kräfteverhältnis","3.3606"
"69","nachhaltig","ressourcenschonende","3.3606"
"70","nachhaltig","fleischkonsums","3.3606"
"71","nachhaltig","haushaltskonsolidierung","3.3606"
"72","nachhaltig","ostseefischer","3.3606"
"73","nachhaltig","industriepolitik","3.3606"
"74","nachhaltig","beworben","3.3606"
"75","nachhaltig","lux","3.3606"
"76","nachhaltig","feldspieler","3.3606"
"77","nachhaltig","rspo","3.3606"
"78","nachhaltig","building","3.3606"
"79","nachhaltig","postbahnhof","3.3606"
"80","nachhaltig","herangezogen","3.3606"
"81","nachhaltig","cultures","3.3606"
"82","nachhaltig","abnehmend","3.3606"
"83","nachhaltig","investment","3.2806"
"84","nachhaltig","geldanlagen","3.2653"
"85","nachhaltig","erschüttern","3.2234"
"86","nachhaltig","landnutzung","3.2065"
"87","nachhaltig","investments","3.1783"
"88","nachhaltig","biodiesel","3.1375"
"89","nachhaltig","eu-agrarpolitik","3.1375"
"90","nachhaltig","ernährungswirtschaft","3.1375"
"91","nachhaltig","gemeingut","3.1375"
"92","nachhaltig","autark","3.1375"
"93","nachhaltig","dutt","3.1375"
"94","nachhaltig","primitiv","3.1375"
"95","nachhaltig","hysterie","3.1375"
"96","nachhaltig","fragestellung","3.1375"
"97","nachhaltig","game","3.1375"
"98","nachhaltig","drosseln","3.1375"
"99","nachhaltig","erzeugergemeinschaft","3.1375"
"100","nachhaltig","dorsche","3.1375"
"101","nachhaltig","holcim","3.1375"
"102","nachhaltig","wladimir","3.1375"
"103","nachhaltig","umweltaktivisten","3.1375"
"104","nachhaltig","informationszentrum","3.1375"
"105","nachhaltig","rio-konferenz","3.1375"
"106","nachhaltig","fischerei","3.1117"
"107","nachhaltig","nachweis","3.0729"
"108","nachhaltig","anbaumethoden","3.0729"
"109","nachhaltig","großflächig","3.0729"
"110","nachhaltig","mobilität","3.0482"
"111","nachhaltig","sustainable","2.9551"
"112","nachhaltig","gegenmaßnahme","2.9551"
"113","nachhaltig","ehrgeizige","2.9551"
"114","nachhaltig","tragfähig","2.9551"
"115","nachhaltig","wirtschaften","2.9551"
"116","nachhaltig","föderation","2.9551"
"117","nachhaltig","globalisierten","2.9551"
"118","nachhaltig","mitgestalten","2.9551"
"119","nachhaltig","un-gipfel","2.9551"
"120","nachhaltig","familienunternehmen","2.9551"
"121","nachhaltig","zukunftsfähig","2.9551"
"122","nachhaltig","wichtigkeit","2.9551"
"123","nachhaltig","effiziente","2.9551"
"124","nachhaltig","haushaltspolitik","2.9551"
"125","nachhaltig","regimewechsel","2.9551"
"126","nachhaltig","wirkungsvoll","2.9551"
"127","nachhaltig","musikerin","2.9551"
"128","nachhaltig","chelsea","2.9551"
"129","nachhaltig","bammert","2.9551"
"130","nachhaltig","ausgeglichen","2.9551"
"131","nachhaltig","bild-zeitung","2.9551"
"132","nachhaltig","schlagkräftig","2.9551"
"133","nachhaltig","scheuer","2.9551"
"134","nachhaltig","heldenmarkt","2.9551"
"135","nachhaltig","beyer","2.9551"
"136","nachhaltig","außengrenzen","2.9551"
"137","nachhaltig","hinterlassen","2.9143"
"138","nachhaltig","verunsichern","2.8751"
"139","nachhaltig","zukunftsfähige","2.8498"
"140","nachhaltig","hochwertig","2.83"
"141","nachhaltig","bekennend","2.801"
"142","nachhaltig","bremisch","2.801"
"143","nachhaltig","nachkriegszeit","2.801"
"144","nachhaltig","ethisch","2.801"
"145","nachhaltig","informativ","2.801"
"146","nachhaltig","traube","2.801"
"147","nachhaltig","weinbau","2.801"
"148","nachhaltig","reproduzieren","2.801"
"149","nachhaltig","super-gau","2.801"
"150","nachhaltig","infrastrukturprojekte","2.801"
"151","nachhaltig","bejahen","2.801"
"152","nachhaltig","ärztlich","2.801"
"153","nachhaltig","steuersenkungen","2.801"
"154","nachhaltig","schlüssig","2.801"
"155","nachhaltig","denkend","2.801"
"156","nachhaltig","straftäter","2.801"
"157","nachhaltig","betreffend","2.801"
"158","nachhaltig","wissenschaftssystem","2.801"
"159","nachhaltig","griefahn","2.801"
"160","nachhaltig","beeindrucken","2.7728"
"161","nachhaltig","schädigen","2.7728"
"162","nachhaltig","jackson","2.7545"
"163","nachhaltig","gütesiegel","2.7545"
"164","nachhaltig","lebensweise","2.7545"
"165","nachhaltig","verfüttern","2.6675"
"166","nachhaltig","beseitigung","2.6675"
"167","nachhaltig","landes-","2.6675"
"168","nachhaltig","folgenlos","2.6675"
"169","nachhaltig","schattenseite","2.6675"
"170","nachhaltig","haften","2.6675"
"171","nachhaltig","verträglich","2.6675"
"172","nachhaltig","darlegen","2.6675"
"173","nachhaltig","produktionsbedingungen","2.6675"
"174","nachhaltig","eberswalde","2.6675"
"175","nachhaltig","sunniten","2.6675"
"176","nachhaltig","basisdemokratisch","2.6675"
"177","nachhaltig","lebensstile","2.6675"
"178","nachhaltig","experimentell","2.6675"
"179","nachhaltig","beschaffung","2.6675"
"180","nachhaltig","bildungsbereich","2.6675"
"181","nachhaltig","lebensweisen","2.6675"
"182","nachhaltig","steuergelder","2.6675"
"183","nachhaltig","handelnd","2.6675"
"184","nachhaltig","alliance","2.6675"
"185","nachhaltig","eurogruppe","2.6675"
"186","nachhaltig","stadt-","2.6675"
"187","nachhaltig","ruinieren","2.6675"
"188","nachhaltig","organisiert","2.6675"
"189","nachhaltig","runde","2.6675"
"190","nachhaltig","ausgangspunkt","2.6675"
"191","nachhaltig","entwicklung","2.6321"
"192","nachhaltig","palmöl","2.6266"
"193","nachhaltig","einklang","2.6187"
"194","nachhaltig","verkehrspolitik","2.5985"
"195","nachhaltig","energiegewinnung","2.5874"
"196","nachhaltig","fischereipolitik","2.5874"
"197","nachhaltig","liegenschaften","2.5874"
"198","nachhaltig","energieversorgung","2.5757"
"199","nachhaltig","hype","2.5497"
"200","nachhaltig","programmatisch","2.5497"
"201","nachhaltig","hohl","2.5497"
"202","nachhaltig","weltgrößten","2.5497"
"203","nachhaltig","überragen","2.5497"
"204","nachhaltig","unesco","2.5497"
"205","nachhaltig","anleger","2.5497"
"206","nachhaltig","kater","2.5497"
"207","nachhaltig","städtebau","2.5497"
"208","nachhaltig","punktuell","2.5497"
"209","nachhaltig","droste","2.5497"
"210","nachhaltig","beeinträchtigen","2.5339"
"211","nachhaltig","wirksam","2.5133"
"212","nachhaltig","umstieg","2.5133"
"213","nachhaltig","entwicklungszusammenarbeit","2.4956"
"214","nachhaltig","beeinflussen","2.4851"
"215","nachhaltig","aussteller","2.4782"
"216","nachhaltig","moor","2.4443"
"217","nachhaltig","fassung","2.4443"
"218","nachhaltig","bescheren","2.4443"
"219","nachhaltig","lebensbedingungen","2.4443"
"220","nachhaltig","hannelore","2.4443"
"221","nachhaltig","finanzsektor","2.4443"
"222","nachhaltig","westliche","2.4443"
"223","nachhaltig","land-","2.4443"
"224","nachhaltig","wechselnd","2.4443"
"225","nachhaltig","ausrichtung","2.4443"
"226","nachhaltig","gefangen","2.4443"
"227","nachhaltig","nahrungsmittelproduktion","2.4443"
"228","nachhaltig","council","2.4443"
"229","nachhaltig","solarstrom","2.4443"
"230","nachhaltig","drum","2.4443"
"231","nachhaltig","fischfang","2.4443"
"232","nachhaltig","fish","2.4443"
"233","nachhaltig","u-bahn","2.4443"
"234","nachhaltig","führungskräfte","2.4443"
"235","nachhaltig","geldanlage","2.4443"
"236","nachhaltig","mali","2.4443"
"237","nachhaltig","troika","2.4443"
"238","nachhaltig","handbuch","2.4443"
"239","nachhaltig","papierwende","2.4443"
"240","nachhaltig","edf","2.4443"
"241","nachhaltig","umweltfreundlich","2.4245"
"242","nachhaltig","verbesserung","2.4245"
"243","nachhaltig","beeinflusst","2.4051"
"244","nachhaltig","fischbestände","2.4051"
"245","nachhaltig","grade","2.3798"
"246","nachhaltig","verzweifeln","2.3798"
"247","nachhaltig","deutschsprachig","2.3798"
"248","nachhaltig","stattfindend","2.3798"
"249","nachhaltig","irritieren","2.3798"
"250","nachhaltig","angebaut","2.349"
"251","nachhaltig","schiit","2.349"
"252","nachhaltig","ernährungssicherheit","2.349"
"253","nachhaltig","irritation","2.349"
"254","nachhaltig","bräuchten","2.349"
"255","nachhaltig","unterhaltung","2.349"
"256","nachhaltig","prävention","2.349"
"257","nachhaltig","verderben","2.349"
"258","nachhaltig","etc.","2.349"
"259","nachhaltig","isep","2.349"
"260","nachhaltig","dotieren","2.349"
"261","nachhaltig","transition","2.349"
"262","nachhaltig","project","2.349"
"263","nachhaltig","fangmengen","2.349"
"264","nachhaltig","schwächen","2.349"
"265","nachhaltig","aquakultur","2.349"
"266","nachhaltig","energiepolitik","2.3265"
"267","nachhaltig","development","2.3192"
"268","nachhaltig","bekenntnis","2.3192"
"269","nachhaltig","einfallen","2.3192"
"270","nachhaltig","verantwortungsvoll","2.3192"
"271","nachhaltig","zertifiziert","2.3046"
"272","nachhaltig","fond","2.3012"
"273","nachhaltig","bezweifeln","2.2959"
"274","nachhaltig","lebensgrundlage","2.262"
"275","nachhaltig","moratorium","2.262"
"276","nachhaltig","ad","2.262"
"277","nachhaltig","umweltverband","2.262"
"278","nachhaltig","ökotourismus","2.262"
"279","nachhaltig","stress","2.262"
"280","nachhaltig","gehandelt","2.262"
"281","nachhaltig","legende","2.262"
"282","nachhaltig","johann","2.262"
"283","nachhaltig","vielzahl","2.262"
"284","nachhaltig","managen","2.262"
"285","nachhaltig","dogma","2.262"
"286","nachhaltig","überwindung","2.262"
"287","nachhaltig","längerfristig","2.262"
"288","nachhaltig","gastronomie","2.262"
"289","nachhaltig","entpuppen","2.262"
"290","nachhaltig","irgendwas","2.262"
"291","nachhaltig","stewardship","2.262"
"292","nachhaltig","filmfest","2.262"
"293","nachhaltig","konsum","2.2275"
"294","nachhaltig","behandlung","2.2212"
"295","nachhaltig","landwirtschaft","2.2162"
"296","nachhaltig","flexibel","2.2079"
"297","nachhaltig","agrarpolitik","2.2079"
"298","nachhaltig","dänische","2.2079"
"299","nachhaltig","konsumieren","2.1975"
"300","nachhaltig","kreislaufwirtschaft","2.182"
"301","nachhaltig","verringerung","2.182"
"302","nachhaltig","vorführen","2.182"
"303","nachhaltig","weiterentwicklung","2.182"
"304","nachhaltig","haltbar","2.182"
"305","nachhaltig","marke","2.182"
"306","nachhaltig","migrationshintergrund","2.182"
"307","nachhaltig","hinterlässt","2.182"
"308","nachhaltig","schuldenschnitt","2.182"
"309","nachhaltig","bewirken","2.171"
"310","nachhaltig","ländlich","2.171"
"311","nachhaltig","stadtentwicklung","2.171"
"312","nachhaltig","bewirtschaften","2.1667"
"313","nachhaltig","innovativ","2.1667"
"314","nachhaltig","propagieren","2.1667"
"315","nachhaltig","textilien","2.1566"
"316","nachhaltig","strukturieren","2.1566"
"317","nachhaltig","kraftstoff","2.1566"
"318","nachhaltig","energie-","2.1442"
"319","nachhaltig","intelligent","2.1442"
"320","nachhaltig","laune","2.1078"
"321","nachhaltig","niedrige","2.1078"
"322","nachhaltig","gesichert","2.1078"
"323","nachhaltig","beschwerde","2.1078"
"324","nachhaltig","außerordentlich","2.1078"
"325","nachhaltig","nichtregierungsorganisationen","2.1078"
"326","nachhaltig","versicherte","2.1078"
"327","nachhaltig","unterstützer","2.1078"
"328","nachhaltig","länge","2.1078"
"329","nachhaltig","dow","2.1078"
"330","nachhaltig","natur-","2.1078"
"331","nachhaltig","vegetarier","2.1078"
"332","nachhaltig","begünstigen","2.1078"
"333","nachhaltig","beats","2.1078"
"334","nachhaltig","benachteiligen","2.1078"
"335","nachhaltig","messe","2.1078"
"336","nachhaltig","gentechnik","2.1078"
"337","nachhaltig","sicherstellen","2.1078"
"338","nachhaltig","notwendigkeit","2.1078"
"339","nachhaltig","energy","2.1078"
"340","nachhaltig","lebenskunst","2.1078"
"341","nachhaltig","ganzheitlich","2.1078"
"342","nachhaltig","gemeinschaftlich","2.1078"
"343","nachhaltig","begegnung","2.0728"
"344","nachhaltig","bereitstellen","2.0613"
"345","nachhaltig","sicherung","2.0613"
"346","nachhaltig","beinhalten","2.0613"
"347","nachhaltig","verständlich","2.0613"
"348","nachhaltig","werkstatt","2.0613"
"349","nachhaltig","reparieren","2.0613"
"350","nachhaltig","monokultur","2.0613"
"351","nachhaltig","bonn","2.0613"
"352","nachhaltig","geführt","2.0613"
"353","nachhaltig","tourismus","2.0557"
"354","nachhaltig","umweltpolitik","2.0523"
"355","nachhaltig","anlegen","2.0463"
"356","nachhaltig","eindrucksvoll","2.0389"
"357","nachhaltig","alltäglich","2.0389"
"358","nachhaltig","mitarbeiterinnen","2.0389"
"359","nachhaltig","solidarisch","2.0389"
"360","nachhaltig","staatschefs","2.0389"
"361","nachhaltig","regierend","2.0389"
"362","nachhaltig","dezentrale","2.0389"
"363","nachhaltig","sozialdemokratisch","2.0389"
"364","nachhaltig","transparente","2.0389"
"365","nachhaltig","renommiert","2.0389"
"366","nachhaltig","ranking","2.0389"
"367","nachhaltig","spielzeit","2.0389"
"368","nachhaltig","kostengünstig","2.0389"
"369","nachhaltig","animieren","2.0389"
"370","nachhaltig","sonstig","2.0389"
"371","nachhaltig","msc-siegel","2.0389"
"372","nachhaltig","ansteigen","2.0389"
"373","nachhaltig","wirkung","2.0256"
"374","nachhaltig","kurzfristig","2.0169"
"375","nachhaltig","sustainability","2.0169"
"376","nachhaltig","fang","2.0169"
"377","nachhaltig","fischen","2.0061"
"378","nachhaltig","konventionell","2.0025"
"379","nachhaltig","wirkend","1.9743"
"380","nachhaltig","fundament","1.9743"
"381","nachhaltig","masterplan","1.9743"
"382","nachhaltig","einziehen","1.9743"
"383","nachhaltig","leitbild","1.9743"
"384","nachhaltig","erzeuger","1.9743"
"385","nachhaltig","nunmehr","1.9743"
"386","nachhaltig","podiumsdiskussion","1.9743"
"387","nachhaltig","staats-","1.9743"
"388","nachhaltig","vernachlässigen","1.9743"
"389","nachhaltig","respektieren","1.9743"
"390","nachhaltig","bisweilen","1.9743"
"391","nachhaltig","engagiert","1.9743"
"392","nachhaltig","weiterentwickel","1.9743"
"393","nachhaltig","referent","1.9743"
"394","nachhaltig","sänger","1.9743"
"395","nachhaltig","wohnprojekte","1.9743"
"396","nachhaltig","verdammen","1.9743"
"397","nachhaltig","investieren","1.9528"
"398","nachhaltig","verbessern","1.9511"
"399","nachhaltig","gestalten","1.9479"
"400","nachhaltig","prägen","1.9366"
"401","nachhaltig","eintreten","1.9335"
"402","nachhaltig","zusammenbringen","1.9335"
"403","nachhaltig","bildungspolitik","1.9335"
"404","nachhaltig","bürgerkrieg","1.9335"
"405","nachhaltig","gleichwohl","1.9335"
"406","nachhaltig","verhelfen","1.9335"
"407","nachhaltig","dar","1.9335"
"408","nachhaltig","anstehend","1.9335"
"409","nachhaltig","medial","1.9335"
"410","nachhaltig","entlasten","1.9137"
"411","nachhaltig","ferne","1.9137"
"412","nachhaltig","eindämmen","1.9137"
"413","nachhaltig","abwickeln","1.9137"
"414","nachhaltig","effektiv","1.9137"
"415","nachhaltig","pressesprecher","1.9137"
"416","nachhaltig","ideale","1.9137"
"417","nachhaltig","service","1.9137"
"418","nachhaltig","einfordern","1.9137"
"419","nachhaltig","anregung","1.9137"
"420","nachhaltig","hilfreich","1.9137"
"421","nachhaltig","wertschöpfung","1.9137"
"422","nachhaltig","foundation","1.9137"
"423","nachhaltig","vertreterinnen","1.9137"
"424","nachhaltig","vorreiter","1.902"
"425","nachhaltig","arbeitsmarkt","1.8943"
"426","nachhaltig","achten","1.8943"
"427","nachhaltig","spur","1.8943"
"428","nachhaltig","entwerfen","1.879"
"429","nachhaltig","siegel","1.8769"
"430","nachhaltig","nutzung","1.8667"
"431","nachhaltig","vertrauen","1.8565"
"432","nachhaltig","wirtschaftssystem","1.8565"
"433","nachhaltig","schlüssel","1.8565"
"434","nachhaltig","autorität","1.8565"
"435","nachhaltig","sparsam","1.8565"
"436","nachhaltig","spontan","1.8565"
"437","nachhaltig","verzögern","1.8565"
"438","nachhaltig","andauernd","1.8565"
"439","nachhaltig","nord-","1.8565"
"440","nachhaltig","lewis","1.8565"
"441","nachhaltig","allesamt","1.8565"
"442","nachhaltig","tee","1.8565"
"443","nachhaltig","auslöser","1.8565"
"444","nachhaltig","kultursenator","1.8565"
"445","nachhaltig","aufrufen","1.8565"
"446","nachhaltig","staatsverschuldung","1.8565"
"447","nachhaltig","hsv","1.8565"
"448","nachhaltig","bräuchte","1.8565"
"449","nachhaltig","machbar","1.8565"
"450","nachhaltig","arno","1.8565"
"451","nachhaltig","wood","1.8565"
"452","nachhaltig","reichtum","1.8565"
"453","nachhaltig","dimension","1.8565"
"454","nachhaltig","mühe","1.8565"
"455","nachhaltig","meyer","1.8565"
"456","nachhaltig","verändern","1.8455"
"457","nachhaltig","effizient","1.8408"
"458","nachhaltig","fair","1.8374"
"459","nachhaltig","rio","1.8356"
"460","nachhaltig","ruf","1.8291"
"461","nachhaltig","wecken","1.8291"
"462","nachhaltig","autorin","1.8291"
"463","nachhaltig","brasilianisch","1.8291"
"464","nachhaltig","langfristig","1.8253"
"465","nachhaltig","perspektive","1.8229"
"466","nachhaltig","bestand","1.8229"
"467","nachhaltig","konzept","1.8226"
"468","nachhaltig","nahrungsmittel","1.8202"
"469","nachhaltig","fachleute","1.8202"
"470","nachhaltig","effekt","1.8202"
"471","nachhaltig","ernähren","1.813"
"472","nachhaltig","erinnerung","1.813"
"473","nachhaltig","arbeitsplätzen","1.8025"
"474","nachhaltig","vernunft","1.8025"
"475","nachhaltig","future","1.8025"
"476","nachhaltig","wettbewerbsfähigkeit","1.8025"
"477","nachhaltig","know-how","1.8025"
"478","nachhaltig","acker","1.8025"
"479","nachhaltig","heinrich","1.8025"
"480","nachhaltig","nahrungsmitteln","1.8025"
"481","nachhaltig","nachteil","1.8025"
"482","nachhaltig","berechtigen","1.8025"
"483","nachhaltig","akzent","1.8025"
"484","nachhaltig","einfluß","1.8025"
"485","nachhaltig","umwandlung","1.8025"
"486","nachhaltig","fairtrade","1.8025"
"487","nachhaltig","zusammenarbeiten","1.8025"
"488","nachhaltig","janeiro","1.8025"
"489","nachhaltig","technologie","1.792"
"490","nachhaltig","beschleunigen","1.7851"
"491","nachhaltig","show","1.7851"
"492","nachhaltig","management","1.7851"
"493","nachhaltig","bekämpfung","1.7851"
"494","nachhaltig","radikale","1.7851"
"495","nachhaltig","investition","1.7829"
"496","nachhaltig","regional","1.7816"
"497","nachhaltig","vorgabe","1.7714"
"498","nachhaltig","niveau","1.7656"
"499","nachhaltig","biologisch","1.7512"
"500","nachhaltig","anbauen","1.7512"
"501","nachhaltig","vorgang","1.7512"
"502","nachhaltig","erstaunen","1.7512"
"503","nachhaltig","formulierung","1.7512"
"504","nachhaltig","stromversorgung","1.7512"
"505","nachhaltig","drama","1.7512"
"506","nachhaltig","finanzierung","1.7512"
"507","nachhaltig","ilse","1.7512"
"508","nachhaltig","vorschrift","1.7512"
"509","nachhaltig","se","1.7512"
"510","nachhaltig","sozial-","1.7512"
"511","nachhaltig","chemie","1.7512"
"512","nachhaltig","gewonnen","1.7512"
"513","nachhaltig","cameron","1.7512"
"514","nachhaltig","lebensstil","1.7512"
"515","nachhaltig","human","1.7512"
"516","nachhaltig","beleg","1.7512"
"517","nachhaltig","pionier","1.7512"
"518","nachhaltig","wind-","1.7512"
"519","nachhaltig","vergeben","1.7387"
"520","nachhaltig","umbau","1.7346"
"521","nachhaltig","lebensqualität","1.7314"
"522","nachhaltig","ermöglichen","1.7184"
"523","nachhaltig","reduzierung","1.7184"
"524","nachhaltig","schünemann","1.7184"
"525","nachhaltig","gerecht","1.7119"
"526","nachhaltig","ablösen","1.7024"
"527","nachhaltig","mission","1.7024"
"528","nachhaltig","orientieren","1.7024"
"529","nachhaltig","durban","1.7024"
"530","nachhaltig","bereitschaft","1.7024"
"531","nachhaltig","fett","1.7024"
"532","nachhaltig","finanzsenator","1.7024"
"533","nachhaltig","organisator","1.7024"
"534","nachhaltig","ausgewählt","1.7024"
"535","nachhaltig","amtszeit","1.7024"
"536","nachhaltig","möbel","1.7024"
"537","nachhaltig","erlebnis","1.7024"
"538","nachhaltig","m.","1.7024"
"539","nachhaltig","lüneburg","1.7024"
"540","nachhaltig","erdgipfel","1.7024"
"541","nachhaltig","sozial","1.6991"
"542","nachhaltig","methode","1.6956"
"543","nachhaltig","element","1.6866"
"544","nachhaltig","abbau","1.6866"
"545","nachhaltig","einheimisch","1.6866"
"546","nachhaltig","vorbereitung","1.6866"
"547","nachhaltig","fazit","1.6866"
"548","nachhaltig","green","1.6835"
"549","nachhaltig","landwirt","1.6788"
"550","nachhaltig","jörg","1.6788"
"551","nachhaltig","produktion","1.6607"
"552","nachhaltig","mittelpunkt","1.6559"
"553","nachhaltig","wachstum","1.6559"
"554","nachhaltig","raubbau","1.6559"
"555","nachhaltig","integrieren","1.6559"
"556","nachhaltig","ägyptisch","1.6559"
"557","nachhaltig","trade","1.6559"
"558","nachhaltig","ernährung","1.6559"
"559","nachhaltig","inszenierung","1.6559"
"560","nachhaltig","solide","1.6559"
"561","nachhaltig","behindern","1.6559"
"562","nachhaltig","regierungschefs","1.6559"
"563","nachhaltig","bestrafen","1.6559"
"564","nachhaltig","economy","1.6559"
"565","nachhaltig","impuls","1.6559"
"566","nachhaltig","ästhetik","1.6559"
"567","nachhaltig","islamist","1.6559"
"568","nachhaltig","anhaltend","1.6559"
"569","nachhaltig","fraglich","1.6559"
"570","nachhaltig","unilever","1.6559"
"571","nachhaltig","weltbevölkerung","1.6559"
"572","nachhaltig","landwirtschaftliche","1.6559"
"573","nachhaltig","gleichgewicht","1.6559"
"574","nachhaltig","debattieren","1.6559"
"575","nachhaltig","msc","1.6559"
"576","nachhaltig","wissenschaft","1.6494"
"577","nachhaltig","handeln","1.6489"
"578","nachhaltig","verleihen","1.6408"
"579","nachhaltig","bewerten","1.6408"
"580","nachhaltig","workshop","1.6378"
"581","nachhaltig","verringern","1.6334"
"582","nachhaltig","verständnis","1.6334"
"583","nachhaltig","teilnehmen","1.6334"
"584","nachhaltig","dienstleistungen","1.6334"
"585","nachhaltig","siemens","1.626"
"586","nachhaltig","ingo","1.626"
"587","nachhaltig","erforschen","1.626"
"588","nachhaltig","östlich","1.626"
"589","nachhaltig","infrastruktur","1.6223"
"590","nachhaltig","ökologisch","1.6194"
"591","nachhaltig","wirken","1.6114"
"592","nachhaltig","angenehm","1.6114"
"593","nachhaltig","schlagzeile","1.6114"
"594","nachhaltig","gewiss","1.6114"
"595","nachhaltig","guido","1.6114"
"596","nachhaltig","partie","1.6114"
"597","nachhaltig","bewertung","1.6114"
"598","nachhaltig","francisco","1.6114"
"599","nachhaltig","jahrgang","1.6114"
"600","nachhaltig","unfall","1.6114"
"601","nachhaltig","dorsch","1.6114"
"602","nachhaltig","rad","1.6114"
"603","nachhaltig","touristische","1.6114"
"604","nachhaltig","netzwerk","1.6052"
"605","nachhaltig","versichern","1.597"
"606","nachhaltig","pflege","1.597"
"607","nachhaltig","wohlstand","1.5929"
"608","nachhaltig","erzielen","1.5929"
"609","nachhaltig","quote","1.5857"
"610","nachhaltig","struktur","1.5841"
"611","nachhaltig","klimawandel","1.5818"
"612","nachhaltig","ökologie","1.5808"
"613","nachhaltig","sinn","1.5787"
"614","nachhaltig","weder","1.5753"
"615","nachhaltig","umwelt","1.5719"
"616","nachhaltig","informieren","1.5688"
"617","nachhaltig","tauschen","1.5688"
"618","nachhaltig","aufbau","1.5688"
"619","nachhaltig","erholen","1.5688"
"620","nachhaltig","niko","1.5688"
"621","nachhaltig","freundschaft","1.5688"
"622","nachhaltig","stadtplanung","1.5688"
"623","nachhaltig","denkbar","1.5688"
"624","nachhaltig","statement","1.5688"
"625","nachhaltig","käufer","1.5688"
"626","nachhaltig","schäuble","1.5688"
"627","nachhaltig","vorhaben","1.5688"
"628","nachhaltig","aktie","1.5688"
"629","nachhaltig","kilowattstunde","1.5688"
"630","nachhaltig","winzer","1.5688"
"631","nachhaltig","aufwand","1.5688"
"632","nachhaltig","marine","1.5688"
"633","nachhaltig","vergabe","1.5688"
"634","nachhaltig","auffällig","1.5688"
"635","nachhaltig","fördern","1.5647"
"636","nachhaltig","zerstören","1.5596"
"637","nachhaltig","verfolgen","1.5585"
"638","nachhaltig","armut","1.557"
"639","nachhaltig","belegen","1.5551"
"640","nachhaltig","industriell","1.5523"
"641","nachhaltig","kommunikation","1.5482"
"642","nachhaltig","änderung","1.5482"
"643","nachhaltig","maßstab","1.5414"
"644","nachhaltig","gestaltung","1.5414"
"645","nachhaltig","weltweite","1.5414"
"646","nachhaltig","eignen","1.5414"
"647","nachhaltig","umweltorganisation","1.5414"
"648","nachhaltig","präsentieren","1.5395"
"649","nachhaltig","förderung","1.5317"
"650","nachhaltig","desaster","1.528"
"651","nachhaltig","immobilie","1.528"
"652","nachhaltig","keinerlei","1.528"
"653","nachhaltig","verwalten","1.528"
"654","nachhaltig","einsparen","1.528"
"655","nachhaltig","abteilung","1.528"
"656","nachhaltig","kräftigen","1.528"
"657","nachhaltig","tätigkeit","1.528"
"658","nachhaltig","brandenburger","1.528"
"659","nachhaltig","weiblich","1.528"
"660","nachhaltig","soziales","1.528"
"661","nachhaltig","unep","1.528"
"662","nachhaltig","vermehren","1.528"
"663","nachhaltig","rumänien","1.528"
"664","nachhaltig","katja","1.528"
"665","nachhaltig","umsetzen","1.525"
"666","nachhaltig","tisch","1.5236"
"667","nachhaltig","produkt","1.5227"
"668","nachhaltig","anbau","1.5201"
"669","nachhaltig","kern","1.5201"
"670","nachhaltig","durchsetzen","1.5172"
"671","nachhaltig","gegenwart","1.5148"
"672","nachhaltig","kollektiv","1.5148"
"673","nachhaltig","gmbh","1.5148"
"674","nachhaltig","stabilität","1.5148"
"675","nachhaltig","entwickeln","1.51"
"676","nachhaltig","stärken","1.5082"
"677","nachhaltig","un","1.5082"
"678","nachhaltig","professor","1.506"
"679","nachhaltig","naturschutz","1.4888"
"680","nachhaltig","simon","1.4888"
"681","nachhaltig","bekämpfen","1.4888"
"682","nachhaltig","weise","1.4888"
"683","nachhaltig","alternativ","1.4888"
"684","nachhaltig","sportlich","1.4888"
"685","nachhaltig","verantworten","1.4888"
"686","nachhaltig","beobachter","1.4888"
"687","nachhaltig","umfassend","1.4888"
"688","nachhaltig","plantage","1.4888"
"689","nachhaltig","erweisen","1.4888"
"690","nachhaltig","zeitgemäß","1.4888"
"691","nachhaltig","stehend","1.4888"
"692","nachhaltig","maßgeblich","1.4888"
"693","nachhaltig","biomasse","1.4888"
"694","nachhaltig","robin","1.4888"
"695","nachhaltig","unterricht","1.4888"
"696","nachhaltig","installieren","1.4888"
"697","nachhaltig","erschöpfen","1.4888"
"698","nachhaltig","qualitativ","1.4888"
"699","nachhaltig","profitieren","1.4811"
"700","nachhaltig","ansatz","1.4803"
"701","nachhaltig","ökonomie","1.4803"
"702","nachhaltig","ereignis","1.4698"
"703","nachhaltig","konsequent","1.4698"
"704","nachhaltig","umweltschutz","1.4635"
"705","nachhaltig","konsument","1.4635"
"706","nachhaltig","braun","1.4635"
"707","nachhaltig","forscher","1.4635"
"708","nachhaltig","klimawandels","1.4635"
"709","nachhaltig","partnerschaft","1.4635"
"710","nachhaltig","regionale","1.4585"
"711","nachhaltig","strategie","1.4511"
"712","nachhaltig","dortmund","1.4511"
"713","nachhaltig","zukünftig","1.4511"
"714","nachhaltig","haft","1.4511"
"715","nachhaltig","nebenbei","1.4511"
"716","nachhaltig","teller","1.4511"
"717","nachhaltig","wochenend","1.4511"
"718","nachhaltig","präsentation","1.4511"
"719","nachhaltig","jagd","1.4511"
"720","nachhaltig","designer","1.4511"
"721","nachhaltig","partizipation","1.4511"
"722","nachhaltig","bündeln","1.4511"
"723","nachhaltig","christine","1.4511"
"724","nachhaltig","ergreifen","1.4511"
"725","nachhaltig","verpackung","1.4511"
"726","nachhaltig","wandern","1.4511"
"727","nachhaltig","verbindlich","1.4511"
"728","nachhaltig","breminale","1.4511"
"729","nachhaltig","rat","1.4437"
"730","nachhaltig","fortschritt","1.4388"
"731","nachhaltig","wirtschaft","1.4388"
"732","nachhaltig","tiefe","1.4388"
"733","nachhaltig","wohnraum","1.4388"
"734","nachhaltig","verkehr","1.4327"
"735","nachhaltig","statt","1.4327"
"736","nachhaltig","maßnahme","1.4291"
"737","nachhaltig","kommission","1.425"
"738","nachhaltig","engagement","1.4227"
"739","nachhaltig","konferenz","1.4227"
"740","nachhaltig","bildung","1.4202"
"741","nachhaltig","außenpolitik","1.4147"
"742","nachhaltig","übergeben","1.4147"
"743","nachhaltig","angelegt","1.4147"
"744","nachhaltig","feste","1.4147"
"745","nachhaltig","übernahme","1.4147"
"746","nachhaltig","zwangsläufig","1.4147"
"747","nachhaltig","objekt","1.4147"
"748","nachhaltig","echt","1.4147"
"749","nachhaltig","produzent","1.4147"
"750","nachhaltig","konservative","1.4147"
"751","nachhaltig","wohnungsbau","1.4147"
"752","nachhaltig","steigern","1.4147"
"753","nachhaltig","bank","1.4076"
"754","nachhaltig","vertreten","1.4058"
"755","nachhaltig","prozess","1.4029"
"756","nachhaltig","aufgabe","1.4018"
"757","nachhaltig","loben","1.4005"
"758","nachhaltig","ziel","1.3964"
"759","nachhaltig","verweisen","1.3945"
"760","nachhaltig","lernen","1.3939"
"761","nachhaltig","spende","1.3912"
"762","nachhaltig","beenden","1.3865"
"763","nachhaltig","besonders","1.3813"
"764","nachhaltig","stören","1.3796"
"765","nachhaltig","eingreifen","1.3796"
"766","nachhaltig","for","1.3796"
"767","nachhaltig","umstellung","1.3796"
"768","nachhaltig","sozialismus","1.3796"
"769","nachhaltig","republik","1.3796"
"770","nachhaltig","nordrhein-westfalen","1.3796"
"771","nachhaltig","bremerhaven","1.3796"
"772","nachhaltig","hinweg","1.3796"
"773","nachhaltig","leidenschaft","1.3796"
"774","nachhaltig","üben","1.3796"
"775","nachhaltig","friede","1.3796"
"776","nachhaltig","beschäftigung","1.3796"
"777","nachhaltig","recycling","1.3796"
"778","nachhaltig","strengen","1.3796"
"779","nachhaltig","anhand","1.3796"
"780","nachhaltig","plädieren","1.3682"
"781","nachhaltig","profit","1.3682"
"782","nachhaltig","generell","1.3682"
"783","nachhaltig","streben","1.3682"
"784","nachhaltig","deal","1.3682"
"785","nachhaltig","messen","1.3682"
"786","nachhaltig","wurzel","1.3682"
"787","nachhaltig","belasten","1.3625"
"788","nachhaltig","ressource","1.3625"
"789","nachhaltig","gemeinschaft","1.3569"
"790","nachhaltig","herausforderung","1.3553"
"791","nachhaltig","energie","1.3538"
"792","nachhaltig","ehe","1.3457"
"793","nachhaltig","dokumentation","1.3457"
"794","nachhaltig","einblick","1.3457"
"795","nachhaltig","schmid","1.3457"
"796","nachhaltig","gesellschaftliche","1.3457"
"797","nachhaltig","gesund","1.3457"
"798","nachhaltig","horn","1.3457"
"799","nachhaltig","entwicklungshilfe","1.3457"
"800","nachhaltig","knüpfen","1.3457"
"801","nachhaltig","austauschen","1.3457"
"802","nachhaltig","beitragen","1.3457"
"803","nachhaltig","aigner","1.3457"
"804","nachhaltig","online","1.3457"
"805","nachhaltig","brot","1.3457"
"806","nachhaltig","überflüssig","1.3457"
"807","nachhaltig","tatsache","1.3457"
"808","nachhaltig","erneuerbarer","1.3457"
"809","nachhaltig","funktionierend","1.3457"
"810","nachhaltig","sorgen","1.3268"
"811","nachhaltig","agenda","1.3237"
"812","nachhaltig","ästhetisch","1.3237"
"813","nachhaltig","matthias","1.3237"
"814","nachhaltig","erzeugen","1.3237"
"815","nachhaltig","initiative","1.3224"
"816","nachhaltig","juni","1.3204"
"817","nachhaltig","soziale","1.3165"
"818","nachhaltig","olympische","1.3129"
"819","nachhaltig","rückgang","1.3129"
"820","nachhaltig","no","1.3129"
"821","nachhaltig","erschließen","1.3129"
"822","nachhaltig","negativ","1.3129"
"823","nachhaltig","brennstoff","1.3129"
"824","nachhaltig","leiterin","1.3129"
"825","nachhaltig","oettinger","1.3129"
"826","nachhaltig","kreuzberger","1.3129"
"827","nachhaltig","thematisieren","1.3129"
"828","nachhaltig","industrielle","1.3129"
"829","nachhaltig","sex","1.3129"
"830","nachhaltig","individuelle","1.3129"
"831","nachhaltig","bürgerinnen","1.3129"
"832","nachhaltig","san","1.3129"
"833","nachhaltig","rostock","1.3129"
"834","nachhaltig","eindruck","1.3129"
"835","nachhaltig","verabschieden","1.3065"
"836","nachhaltig","schweizer","1.3022"
"837","nachhaltig","umgehen","1.3022"
"838","nachhaltig","beobachten","1.2969"
"839","nachhaltig","plattform","1.2969"
"840","nachhaltig","bio","1.2969"
"841","nachhaltig","irgendwie","1.2937"
"842","nachhaltig","respekt","1.2812"
"843","nachhaltig","fügen","1.2812"
"844","nachhaltig","aufgeben","1.2812"
"845","nachhaltig","korrekt","1.2812"
"846","nachhaltig","holz","1.2812"
"847","nachhaltig","bewohner","1.2812"
"848","nachhaltig","heutzutage","1.2812"
"849","nachhaltig","paech","1.2812"
"850","nachhaltig","stichwort","1.2812"
"851","nachhaltig","kurator","1.2812"
"852","nachhaltig","einleiten","1.2812"
"853","nachhaltig","entwurf","1.2812"
"854","nachhaltig","beck","1.2812"
"855","nachhaltig","profil","1.2812"
"856","nachhaltig","schweigen","1.2812"
"857","nachhaltig","bewahren","1.2812"
"858","nachhaltig","giz","1.2812"
"859","nachhaltig","priorität","1.2812"
"860","nachhaltig","john","1.2812"
"861","nachhaltig","beantworten","1.2812"
"862","nachhaltig","on","1.2812"
"863","nachhaltig","forschung","1.2734"
"864","nachhaltig","grundlage","1.2708"
"865","nachhaltig","etablieren","1.2708"
"866","nachhaltig","mode","1.2687"
"867","nachhaltig","institut","1.2626"
"868","nachhaltig","musiker","1.2605"
"869","nachhaltig","sanierung","1.2605"
"870","nachhaltig","hoffnung","1.2547"
"871","nachhaltig","begrenzen","1.2504"
"872","nachhaltig","modernisierung","1.2504"
"873","nachhaltig","tendenz","1.2504"
"874","nachhaltig","autobahn","1.2504"
"875","nachhaltig","finanzmärkte","1.2504"
"876","nachhaltig","dortig","1.2504"
"877","nachhaltig","marktwirtschaft","1.2504"
"878","nachhaltig","globalisierung","1.2504"
"879","nachhaltig","glaubwürdigkeit","1.2504"
"880","nachhaltig","em","1.2504"
"881","nachhaltig","aufbauen","1.2461"
"882","nachhaltig","fossil","1.2403"
"883","nachhaltig","keineswegs","1.2403"
"884","nachhaltig","vernünftig","1.2403"
"885","nachhaltig","haushalt","1.2375"
"886","nachhaltig","world","1.2354"
"887","nachhaltig","pflanze","1.2354"
"888","nachhaltig","ausreichen","1.2324"
"889","nachhaltig","vielmehr","1.2324"
"890","nachhaltig","lösung","1.229"
"891","nachhaltig","lokal","1.2279"
"892","nachhaltig","sanieren","1.2205"
"893","nachhaltig","einstig","1.2205"
"894","nachhaltig","reise","1.2205"
"895","nachhaltig","coach","1.2205"
"896","nachhaltig","broschüre","1.2205"
"897","nachhaltig","betonen","1.2205"
"898","nachhaltig","beschluss","1.2205"
"899","nachhaltig","ertrag","1.2205"
"900","nachhaltig","locken","1.2205"
"901","nachhaltig","bevorzugen","1.2205"
"902","nachhaltig","ökonomisch","1.2147"
"903","nachhaltig","rohstoff","1.2132"
"904","nachhaltig","montag","1.2108"
"905","nachhaltig","anbieten","1.2088"
"906","nachhaltig","banken","1.2076"
"907","nachhaltig","ursprünglich","1.2059"
"908","nachhaltig","lehre","1.2059"
"909","nachhaltig","album","1.2059"
"910","nachhaltig","erfolg","1.2034"
"911","nachhaltig","greenpeace","1.2011"
"912","nachhaltig","allzu","1.2011"
"913","nachhaltig","künstlerisch","1.2011"
"914","nachhaltig","projekt","1.1976"
"915","nachhaltig","transparenz","1.1973"
"916","nachhaltig","schnell","1.1947"
"917","nachhaltig","teilnehmer","1.1916"
"918","nachhaltig","uno","1.1916"
"919","nachhaltig","ministerpräsidenten","1.1916"
"920","nachhaltig","klassische","1.1916"
"921","nachhaltig","innenminister","1.1916"
"922","nachhaltig","meistens","1.1916"
"923","nachhaltig","entfalten","1.1916"
"924","nachhaltig","hotel","1.1859"
"925","nachhaltig","beraten","1.1859"
"926","nachhaltig","lösen","1.1844"
"927","nachhaltig","produzieren","1.1834"
"928","nachhaltig","arbeitsplätze","1.1821"
"929","nachhaltig","volker","1.1821"
"930","nachhaltig","versuch","1.1821"
"931","nachhaltig","kommend","1.1821"
"932","nachhaltig","urlaub","1.1821"
"933","nachhaltig","wahrscheinlich","1.1821"
"934","nachhaltig","wirtschaftswachstum","1.1821"
"935","nachhaltig","asien","1.1821"
"936","nachhaltig","auflage","1.1821"
"937","nachhaltig","lokale","1.1821"
"938","nachhaltig","ansehen","1.1821"
"939","nachhaltig","behandeln","1.1821"
"940","nachhaltig","mord","1.1774"
"941","nachhaltig","angebot","1.1758"
"942","nachhaltig","wowereit","1.1746"
"943","nachhaltig","neun","1.1746"
"944","nachhaltig","landesregierung","1.1746"
"945","nachhaltig","verdoppeln","1.1634"
"946","nachhaltig","fähigkeit","1.1634"
"947","nachhaltig","gesundheit","1.1634"
"948","nachhaltig","ideologie","1.1634"
"949","nachhaltig","auswahl","1.1634"
"950","nachhaltig","effizienz","1.1634"
"951","nachhaltig","einmalig","1.1634"
"952","nachhaltig","rente","1.1634"
"953","nachhaltig","rassismus","1.1634"
"954","nachhaltig","beziehungsweise","1.1634"
"955","nachhaltig","zusammenbruch","1.1634"
"956","nachhaltig","vorne","1.1634"
"957","nachhaltig","fashion","1.1634"
"958","nachhaltig","gewährleisten","1.1634"
"959","nachhaltig","einbeziehen","1.1634"
"960","nachhaltig","hinweisen","1.1634"
"961","nachhaltig","zugunsten","1.1634"
"962","nachhaltig","orientierung","1.1634"
"963","nachhaltig","umsetzung","1.1634"
"964","nachhaltig","einstellung","1.1634"
"965","nachhaltig","sitz","1.1634"
"966","nachhaltig","richtlinie","1.1634"
"967","nachhaltig","verankern","1.1634"
"968","nachhaltig","ostsee","1.1634"
"969","nachhaltig","publikum","1.1634"
"970","nachhaltig","senken","1.1634"
"971","nachhaltig","dadurch","1.1572"
"972","nachhaltig","weltweit","1.1542"
"973","nachhaltig","verpflichten","1.1542"
"974","nachhaltig","leiter","1.1496"
"975","nachhaltig","kürzlich","1.1496"
"976","nachhaltig","faire","1.1496"
"977","nachhaltig","organisation","1.1464"
"978","nachhaltig","gesamt","1.145"
"979","nachhaltig","blau","1.145"
"980","nachhaltig","hierzulande","1.145"
"981","nachhaltig","kultur","1.145"
"982","nachhaltig","diskutieren","1.145"
"983","nachhaltig","verfassung","1.145"
"984","nachhaltig","pflegen","1.145"
"985","nachhaltig","teilen","1.1428"
"986","nachhaltig","innerhalb","1.1428"
"987","nachhaltig","interesse","1.1378"
"988","nachhaltig","ernten","1.136"
"989","nachhaltig","erwachsene","1.136"
"990","nachhaltig","erster","1.136"
"991","nachhaltig","besitz","1.136"
"992","nachhaltig","signal","1.136"
"993","nachhaltig","diesjährig","1.136"
"994","nachhaltig","grundlegend","1.136"
"995","nachhaltig","norbert","1.136"
"996","nachhaltig","aspekt","1.136"
"997","nachhaltig","pleite","1.136"
"998","nachhaltig","rolf","1.136"
"999","nachhaltig","verfassungsschutz","1.136"
"1000","nachhaltig","kommune","1.1306"
"1001","nachhaltig","technisch","1.1306"
"1002","nachhaltig","gefallen","1.127"
"1003","nachhaltig","ankündigen","1.127"
"1004","nachhaltig","einbringen","1.127"
"1005","nachhaltig","politische","1.1226"
"1006","nachhaltig","untersuchen","1.1226"
"1007","nachhaltig","wiederum","1.1226"
"1008","nachhaltig","fordern","1.1203"
"1009","nachhaltig","akteur","1.1199"
"1010","nachhaltig","zugang","1.1199"
"1011","nachhaltig","schutz","1.1181"
"1012","nachhaltig","form","1.1174"
"1013","nachhaltig","wirklich","1.1169"
"1014","nachhaltig","energiewende","1.1159"
"1015","nachhaltig","gerechtigkeit","1.1093"
"1016","nachhaltig","david","1.1093"
"1017","nachhaltig","schwerpunkt","1.1093"
"1018","nachhaltig","angehen","1.1093"
"1019","nachhaltig","erleichtern","1.1093"
"1020","nachhaltig","vorschlagen","1.1093"
"1021","nachhaltig","zielen","1.1093"
"1022","nachhaltig","nation","1.1093"
"1023","nachhaltig","anreiz","1.1093"
"1024","nachhaltig","kurzem","1.1093"
"1025","nachhaltig","erläutern","1.1093"
"1026","nachhaltig","betreuen","1.1093"
"1027","nachhaltig","mythos","1.1093"
"1028","nachhaltig","energieeffizienz","1.1093"
"1029","nachhaltig","beitrag","1.1093"
"1030","nachhaltig","starten","1.1093"
"1031","nachhaltig","sichern","1.1066"
"1032","nachhaltig","unternehmen","1.1053"
"1033","nachhaltig","gelingen","1.0998"
"1034","nachhaltig","bericht","1.0988"
"1035","nachhaltig","gefährden","1.0988"
"1036","nachhaltig","müsste","1.0977"
"1037","nachhaltig","qualität","1.0944"
"1038","nachhaltig","leisten","1.0937"
"1039","nachhaltig","großbritannien","1.0919"
"1040","nachhaltig","bürgerlich","1.0919"
"1041","nachhaltig","zweck","1.0919"
"1042","nachhaltig","selber","1.0919"
"1043","nachhaltig","erfahrung","1.0898"
"1044","nachhaltig","positiv","1.0898"
"1045","nachhaltig","umgang","1.0885"
"1046","nachhaltig","zusammenarbeit","1.0885"
"1047","nachhaltig","bau","1.0833"
"1048","nachhaltig","trend","1.0833"
"1049","nachhaltig","option","1.0833"
"1050","nachhaltig","erfolgen","1.0833"
"1051","nachhaltig","tunesien","1.0833"
"1052","nachhaltig","vielfältig","1.0833"
"1053","nachhaltig","feminismus","1.0833"
"1054","nachhaltig","us-dollar","1.0833"
"1055","nachhaltig","blockieren","1.0833"
"1056","nachhaltig","wwf","1.0805"
"1057","nachhaltig","zusätzliche","1.0748"
"1058","nachhaltig","öffentlichkeit","1.0706"
"1059","nachhaltig","eu","1.0706"
"1060","nachhaltig","voraussetzung","1.0706"
"1061","nachhaltig","freitag","1.0652"
"1062","nachhaltig","prüfen","1.058"
"1063","nachhaltig","intensiv","1.058"
"1064","nachhaltig","abschaffen","1.058"
"1065","nachhaltig","regen","1.058"
"1066","nachhaltig","verbrechen","1.058"
"1067","nachhaltig","widerspruch","1.058"
"1068","nachhaltig","gebrauchen","1.058"
"1069","nachhaltig","einschätzung","1.058"
"1070","nachhaltig","komplizieren","1.058"
"1071","nachhaltig","bundeskanzlerin","1.058"
"1072","nachhaltig","hannover","1.058"
"1073","nachhaltig","kleinbauern","1.058"
"1074","nachhaltig","verwirklichen","1.058"
"1075","nachhaltig","setzen","1.0522"
"1076","nachhaltig","stattdessen","1.0497"
"1077","nachhaltig","wirtschaftlich","1.0474"
"1078","nachhaltig","begeistern","1.0415"
"1079","nachhaltig","überlegen","1.0415"
"1080","nachhaltig","ernsthaft","1.0415"
"1081","nachhaltig","mittel","1.036"
"1082","nachhaltig","dritt","1.0333"
"1083","nachhaltig","symbol","1.0333"
"1084","nachhaltig","unmöglich","1.0333"
"1085","nachhaltig","festhalten","1.0333"
"1086","nachhaltig","händler","1.0333"
"1087","nachhaltig","sprecher","1.0333"
"1088","nachhaltig","stützen","1.0333"
"1089","nachhaltig","behalten","1.0333"
"1090","nachhaltig","führend","1.0333"
"1091","nachhaltig","erdöl","1.0333"
"1092","nachhaltig","dauer","1.0333"
"1093","nachhaltig","restaurant","1.0333"
"1094","nachhaltig","umwelt-","1.0333"
"1095","nachhaltig","argumentieren","1.0333"
"1096","nachhaltig","kabul","1.0333"
"1097","nachhaltig","zitieren","1.0333"
"1098","nachhaltig","ebenso","1.0311"
"1099","nachhaltig","gesellschaftlich","1.0273"
"1100","nachhaltig","planet","1.0252"
"1101","nachhaltig","zusammen","1.0242"
"1102","nachhaltig","bedeutung","1.0212"
"1103","nachhaltig","konsequenz","1.0212"
"1104","nachhaltig","überleben","1.0188"
"1105","nachhaltig","kriterium","1.0188"
"1106","nachhaltig","neben","1.0177"
"1107","nachhaltig","zweit","1.0152"
"1108","nachhaltig","raum","1.0132"
"1109","nachhaltig","klima","1.0092"
"1110","nachhaltig","besuch","1.0092"
"1111","nachhaltig","anerkennen","1.0092"
"1112","nachhaltig","integration","1.0092"
"1113","nachhaltig","charakter","1.0092"
"1114","nachhaltig","sinnvoll","1.0092"
"1115","nachhaltig","kleidung","1.0092"
"1116","nachhaltig","gremium","1.0092"
"1117","nachhaltig","bad","1.0092"
"1118","nachhaltig","experiment","1.0092"
"1119","nachhaltig","intern","1.0092"
"1120","nachhaltig","gebäude","1.0013"
"1121","nachhaltig","studie","0.9987"
"1122","nachhaltig","einzelne","0.9974"
"1123","nachhaltig","jen","0.9935"
"1124","nachhaltig","attraktiv","0.9935"
"1125","nachhaltig","rand","0.9935"
"1126","nachhaltig","ziemlich","0.9904"
"1127","nachhaltig","verbraucher","0.989"
"1128","nachhaltig","unterstützen","0.9883"
"1129","nachhaltig","erhöhung","0.9857"
"1130","nachhaltig","bedienen","0.9857"
"1131","nachhaltig","weitergehen","0.9857"
"1132","nachhaltig","rechtfertigen","0.9857"
"1133","nachhaltig","solidarität","0.9857"
"1134","nachhaltig","zweitens","0.9857"
"1135","nachhaltig","magazin","0.9857"
"1136","nachhaltig","erstens","0.9857"
"1137","nachhaltig","angeboten","0.9857"
"1138","nachhaltig","erarbeiten","0.9857"
"1139","nachhaltig","posten","0.9857"
"1140","nachhaltig","regisseur","0.9857"
"1141","nachhaltig","papier","0.9811"
"1142","nachhaltig","bedingung","0.978"
"1143","nachhaltig","verhandeln","0.978"
"1144","nachhaltig","jugendliche","0.9758"
"1145","nachhaltig","vision","0.9741"
"1146","nachhaltig","greifen","0.9741"
"1147","nachhaltig","darin","0.9729"
"1148","nachhaltig","einzig","0.9703"
"1149","nachhaltig","geschäft","0.9692"
"1150","nachhaltig","träger","0.9627"
"1151","nachhaltig","mund","0.9627"
"1152","nachhaltig","irak","0.9627"
"1153","nachhaltig","kulturell","0.9627"
"1154","nachhaltig","abkomme","0.9627"
"1155","nachhaltig","dauerhaft","0.9627"
"1156","nachhaltig","artenvielfalt","0.9627"
"1157","nachhaltig","bürgerschaft","0.9627"
"1158","nachhaltig","zug","0.9627"
"1159","nachhaltig","szene","0.9627"
"1160","nachhaltig","ort","0.9599"
"1161","nachhaltig","global","0.9562"
"1162","nachhaltig","vorteil","0.9537"
"1163","nachhaltig","sowohl","0.9537"
"1164","nachhaltig","politik","0.9511"
"1165","nachhaltig","veränderung","0.9498"
"1166","nachhaltig","öffentlich","0.9498"
"1167","nachhaltig","definieren","0.9477"
"1168","nachhaltig","atomenergie","0.9477"
"1169","nachhaltig","helfen","0.944"
"1170","nachhaltig","anliegen","0.9402"
"1171","nachhaltig","transparent","0.9402"
"1172","nachhaltig","beklagen","0.9402"
"1173","nachhaltig","nähern","0.9402"
"1174","nachhaltig","freiburg","0.9402"
"1175","nachhaltig","u.","0.9402"
"1176","nachhaltig","systematisch","0.9402"
"1177","nachhaltig","schwach","0.9402"
"1178","nachhaltig","libyen","0.9402"
"1179","nachhaltig","verantwortlich","0.9402"
"1180","nachhaltig","führen","0.9391"
"1181","nachhaltig","bundesregierung","0.9378"
"1182","nachhaltig","handel","0.9371"
"1183","nachhaltig","betreiben","0.9358"
"1184","nachhaltig","stadt","0.9347"
"1185","nachhaltig","markt","0.9339"
"1186","nachhaltig","wenigstens","0.9329"
"1187","nachhaltig","kündigen","0.9329"
"1188","nachhaltig","hingegen","0.9329"
"1189","nachhaltig","passt","0.9329"
"1190","nachhaltig","suchen","0.9314"
"1191","nachhaltig","wesentlich","0.9292"
"1192","nachhaltig","praxis","0.9292"
"1193","nachhaltig","kampagne","0.9292"
"1194","nachhaltig","grün","0.9255"
"1195","nachhaltig","verhältnis","0.9245"
"1196","nachhaltig","kampf","0.9245"
"1197","nachhaltig","thema","0.9211"
"1198","nachhaltig","frühjahr","0.9183"
"1199","nachhaltig","überzeugen","0.9183"
"1200","nachhaltig","bauer","0.9183"
"1201","nachhaltig","ermitteln","0.9183"
"1202","nachhaltig","individuell","0.9183"
"1203","nachhaltig","start","0.9183"
"1204","nachhaltig","überwiegen","0.9183"
"1205","nachhaltig","beschäftigen","0.9183"
"1206","nachhaltig","widersprechen","0.9183"
"1207","nachhaltig","a.","0.9183"
"1208","nachhaltig","verarbeiten","0.9183"
"1209","nachhaltig","rücken","0.9183"
"1210","nachhaltig","mannschaft","0.9183"
"1211","nachhaltig","tor","0.9183"
"1212","nachhaltig","erhalten","0.9149"
"1213","nachhaltig","rede","0.911"
"1214","nachhaltig","national","0.911"
"1215","nachhaltig","bringen","0.9083"
"1216","nachhaltig","minister","0.9075"
"1217","nachhaltig","forum","0.9075"
"1218","nachhaltig","alternative","0.9053"
"1219","nachhaltig","einsetzen","0.9039"
"1220","nachhaltig","legen","0.901"
"1221","nachhaltig","prinzip","0.901"
"1222","nachhaltig","diskurs","0.8968"
"1223","nachhaltig","demokratisierung","0.8968"
"1224","nachhaltig","hauptstadt","0.8968"
"1225","nachhaltig","falle","0.8968"
"1226","nachhaltig","begriff","0.8968"
"1227","nachhaltig","rahmen","0.8968"
"1228","nachhaltig","verfahren","0.8968"
"1229","nachhaltig","interessieren","0.8968"
"1230","nachhaltig","afrikanisch","0.8968"
"1231","nachhaltig","beteiligte","0.8968"
"1232","nachhaltig","worten","0.8968"
"1233","nachhaltig","bürgerbeteiligung","0.8968"
"1234","nachhaltig","v.","0.8968"
"1235","nachhaltig","bestellen","0.8968"
"1236","nachhaltig","japanisch","0.8968"
"1237","nachhaltig","massiv","0.8925"
"1238","nachhaltig","zahlreich","0.8897"
"1239","nachhaltig","dorf","0.8897"
"1240","nachhaltig","gedanke","0.8862"
"1241","nachhaltig","heutig","0.8862"
"1242","nachhaltig","kritisieren","0.8841"
"1243","nachhaltig","erneuerbaren","0.8841"
"1244","nachhaltig","industrie","0.8817"
"1245","nachhaltig","bislang","0.8795"
"1246","nachhaltig","verein","0.8792"
"1247","nachhaltig","versuchen","0.8787"
"1248","nachhaltig","offen","0.8757"
"1249","nachhaltig","verbrauch","0.8757"
"1250","nachhaltig","nahe","0.8757"
"1251","nachhaltig","heimisch","0.8757"
"1252","nachhaltig","bewusstsein","0.8757"
"1253","nachhaltig","bieten","0.8757"
"1254","nachhaltig","starke","0.8757"
"1255","nachhaltig","regierende","0.8757"
"1256","nachhaltig","freiwillig","0.8757"
"1257","nachhaltig","traum","0.8757"
"1258","nachhaltig","indisch","0.8757"
"1259","nachhaltig","ralf","0.8757"
"1260","nachhaltig","direktor","0.8757"
"1261","nachhaltig","spiel","0.8722"
"1262","nachhaltig","sicht","0.8688"
"1263","nachhaltig","generation","0.8688"
"1264","nachhaltig","möglich","0.8679"
"1265","nachhaltig","lebensmittel","0.8674"
"1266","nachhaltig","gesellschaft","0.8658"
"1267","nachhaltig","frage","0.865"
"1268","nachhaltig","sollen","0.8613"
"1269","nachhaltig","aussehen","0.8592"
"1270","nachhaltig","lage","0.858"
"1271","nachhaltig","vorbild","0.8551"
"1272","nachhaltig","christoph","0.8551"
"1273","nachhaltig","anbieter","0.8551"
"1274","nachhaltig","komplett","0.8551"
"1275","nachhaltig","kulturelle","0.8551"
"1276","nachhaltig","zehn","0.8525"
"1277","nachhaltig","chance","0.851"
"1278","nachhaltig","gegenteil","0.851"
"1279","nachhaltig","schaden","0.8483"
"1280","nachhaltig","spüren","0.8483"
"1281","nachhaltig","erklärung","0.8483"
"1282","nachhaltig","vertreter","0.8449"
"1283","nachhaltig","beziehen","0.8449"
"1284","nachhaltig","sicherheit","0.8429"
"1285","nachhaltig","geschäftsführer","0.8429"
"1286","nachhaltig","cdu","0.8396"
"1287","nachhaltig","künftig","0.8393"
"1288","nachhaltig","heißen","0.8381"
"1289","nachhaltig","österreich","0.8349"
"1290","nachhaltig","erforderlich","0.8349"
"1291","nachhaltig","derzeitig","0.8349"
"1292","nachhaltig","professionell","0.8349"
"1293","nachhaltig","wild","0.8349"
"1294","nachhaltig","indes","0.8349"
"1295","nachhaltig","ausdruck","0.8349"
"1296","nachhaltig","summe","0.8349"
"1297","nachhaltig","gewaltig","0.8349"
"1298","nachhaltig","öko","0.8349"
"1299","nachhaltig","erfinden","0.8349"
"1300","nachhaltig","wenden","0.8349"
"1301","nachhaltig","lieb","0.8349"
"1302","nachhaltig","herbst","0.8349"
"1303","nachhaltig","sowie","0.832"
"1304","nachhaltig","darum","0.8312"
"1305","nachhaltig","bereich","0.8304"
"1306","nachhaltig","wichtig","0.8301"
"1307","nachhaltig","bewegung","0.826"
"1308","nachhaltig","behaupten","0.8249"
"1309","nachhaltig","hektar","0.8249"
"1310","nachhaltig","suche","0.8216"
"1311","nachhaltig","hängen","0.8216"
"1312","nachhaltig","ausbau","0.8151"
"1313","nachhaltig","ernst","0.8151"
"1314","nachhaltig","harald","0.8151"
"1315","nachhaltig","liste","0.8151"
"1316","nachhaltig","glaube","0.8151"
"1317","nachhaltig","einrichten","0.8151"
"1318","nachhaltig","food","0.8151"
"1319","nachhaltig","ohnehin","0.8151"
"1320","nachhaltig","festival","0.8151"
"1321","nachhaltig","ignorieren","0.8151"
"1322","nachhaltig","eindeutig","0.8151"
"1323","nachhaltig","kaffee","0.8151"
"1324","nachhaltig","e.","0.8151"
"1325","nachhaltig","empfehlung","0.8151"
"1326","nachhaltig","system","0.8112"
"1327","nachhaltig","offensichtlich","0.8086"
"1328","nachhaltig","zwanzig","0.8086"
"1329","nachhaltig","verstehen","0.8073"
"1330","nachhaltig","gemeinsam","0.8034"
"1331","nachhaltig","martin","0.8034"
"1332","nachhaltig","schreiben","0.8029"
"1333","nachhaltig","zeigen","0.7969"
"1334","nachhaltig","entscheidend","0.7957"
"1335","nachhaltig","hinaus","0.7957"
"1336","nachhaltig","ausschließen","0.7957"
"1337","nachhaltig","kraft","0.7957"
"1338","nachhaltig","möglicherweise","0.7957"
"1339","nachhaltig","region","0.7957"
"1340","nachhaltig","menschheit","0.7957"
"1341","nachhaltig","reihe","0.7957"
"1342","nachhaltig","studierende","0.7957"
"1343","nachhaltig","garantieren","0.7957"
"1344","nachhaltig","vereinte","0.7957"
"1345","nachhaltig","lust","0.7957"
"1346","nachhaltig","demnach","0.7957"
"1347","nachhaltig","zukunft","0.7935"
"1348","nachhaltig","information","0.788"
"1349","nachhaltig","wissenschaftler","0.788"
"1350","nachhaltig","gemeinde","0.7861"
"1351","nachhaltig","feld","0.7861"
"1352","nachhaltig","drehen","0.7861"
"1353","nachhaltig","inhalt","0.7829"
"1354","nachhaltig","freie","0.7829"
"1355","nachhaltig","einführung","0.7829"
"1356","nachhaltig","zufolge","0.7829"
"1357","nachhaltig","abgeordnete","0.7829"
"1358","nachhaltig","vorstellung","0.7804"
"1359","nachhaltig","brauchen","0.7796"
"1360","nachhaltig","verband","0.7766"
"1361","nachhaltig","anweisen","0.7766"
"1362","nachhaltig","dutzend","0.7766"
"1363","nachhaltig","erwarten","0.7766"
"1364","nachhaltig","schick","0.7766"
"1365","nachhaltig","kanzlerin","0.7766"
"1366","nachhaltig","empfinden","0.7766"
"1367","nachhaltig","nordsee","0.7766"
"1368","nachhaltig","entfernen","0.7766"
"1369","nachhaltig","label","0.7766"
"1370","nachhaltig","durchaus","0.7766"
"1371","nachhaltig","erklären","0.7757"
"1372","nachhaltig","herstellen","0.7728"
"1373","nachhaltig","liefern","0.7728"
"1374","nachhaltig","bundestag","0.7728"
"1375","nachhaltig","erkennen","0.7703"
"1376","nachhaltig","führung","0.7703"
"1377","nachhaltig","letztlich","0.7703"
"1378","nachhaltig","verbreiten","0.7703"
"1379","nachhaltig","vermeiden","0.7703"
"1380","nachhaltig","verkauf","0.7703"
"1381","nachhaltig","präsident","0.7691"
"1382","nachhaltig","gedenken","0.7672"
"1383","nachhaltig","tragen","0.7641"
"1384","nachhaltig","bleiben","0.7634"
"1385","nachhaltig","tatsächlich","0.7613"
"1386","nachhaltig","abhängigkeit","0.7579"
"1387","nachhaltig","ordnung","0.7579"
"1388","nachhaltig","fahrrad","0.7579"
"1389","nachhaltig","betrieben","0.7579"
"1390","nachhaltig","konservativ","0.7579"
"1391","nachhaltig","hunger","0.7579"
"1392","nachhaltig","variante","0.7579"
"1393","nachhaltig","bundesrepublik","0.7579"
"1394","nachhaltig","fernsehen","0.7579"
"1395","nachhaltig","vollständig","0.7579"
"1396","nachhaltig","entwicklungsländern","0.7579"
"1397","nachhaltig","geplant","0.7579"
"1398","nachhaltig","hilfe","0.7579"
"1399","nachhaltig","kontrolle","0.7579"
"1400","nachhaltig","staatliche","0.7579"
"1401","nachhaltig","deutsche","0.7505"
"1402","nachhaltig","technik","0.7487"
"1403","nachhaltig","beschreiben","0.7487"
"1404","nachhaltig","modern","0.7474"
"1405","nachhaltig","titel","0.7456"
"1406","nachhaltig","mark","0.7456"
"1407","nachhaltig","osten","0.7456"
"1408","nachhaltig","saison","0.7456"
"1409","nachhaltig","ergeben","0.7456"
"1410","nachhaltig","regenwald","0.7396"
"1411","nachhaltig","per","0.7396"
"1412","nachhaltig","irgendwo","0.7396"
"1413","nachhaltig","streng","0.7396"
"1414","nachhaltig","dienstag","0.7396"
"1415","nachhaltig","fisch","0.7396"
"1416","nachhaltig","nachhaltige","0.7396"
"1417","nachhaltig","möglichkeit","0.7376"
"1418","nachhaltig","anspruch","0.7359"
"1419","nachhaltig","jedenfalls","0.7359"
"1420","nachhaltig","brief","0.7335"
"1421","nachhaltig","art","0.7335"
"1422","nachhaltig","zeichen","0.7335"
"1423","nachhaltig","beteiligung","0.7335"
"1424","nachhaltig","derjenige","0.7335"
"1425","nachhaltig","jeweils","0.7335"
"1426","nachhaltig","vorstand","0.7335"
"1427","nachhaltig","dringen","0.7305"
"1428","nachhaltig","netz","0.7267"
"1429","nachhaltig","entscheidung","0.726"
"1430","nachhaltig","bild","0.7251"
"1431","nachhaltig","sponsor","0.7216"
"1432","nachhaltig","allgemein","0.7216"
"1433","nachhaltig","jugend","0.7216"
"1434","nachhaltig","selbstverständlich","0.7216"
"1435","nachhaltig","dominieren","0.7216"
"1436","nachhaltig","anlass","0.7216"
"1437","nachhaltig","empfehlen","0.7216"
"1438","nachhaltig","gewässer","0.7216"
"1439","nachhaltig","nötig","0.7216"
"1440","nachhaltig","standort","0.7216"
"1441","nachhaltig","sage","0.7216"
"1442","nachhaltig","kochen","0.7216"
"1443","nachhaltig","schleswig-holstein","0.7216"
"1444","nachhaltig","jedoch","0.7165"
"1445","nachhaltig","stattfinden","0.7127"
"1446","nachhaltig","reduzieren","0.7127"
"1447","nachhaltig","auswirkung","0.7097"
"1448","nachhaltig","verbrauchen","0.7097"
"1449","nachhaltig","senat","0.7064"
"1450","nachhaltig","idee","0.7064"
"1451","nachhaltig","bezug","0.7039"
"1452","nachhaltig","desto","0.7039"
"1453","nachhaltig","institution","0.7039"
"1454","nachhaltig","verlangen","0.7039"
"1455","nachhaltig","grundsätzlich","0.7039"
"1456","nachhaltig","uwe","0.7039"
"1457","nachhaltig","kiel","0.7039"
"1458","nachhaltig","vattenfall","0.7039"
"1459","nachhaltig","schwierig","0.7003"
"1460","nachhaltig","ebene","0.698"
"1461","nachhaltig","stimme","0.698"
"1462","nachhaltig","firma","0.6942"
"1463","nachhaltig","welt","0.6903"
"1464","nachhaltig","revolution","0.6865"
"1465","nachhaltig","aktivität","0.6865"
"1466","nachhaltig","erneuerbare","0.6865"
"1467","nachhaltig","traditionell","0.6865"
"1468","nachhaltig","loske","0.6865"
"1469","nachhaltig","süden","0.6865"
"1470","nachhaltig","umso","0.6865"
"1471","nachhaltig","ansicht","0.6865"
"1472","nachhaltig","einkaufen","0.6865"
"1473","nachhaltig","zuletzt","0.6865"
"1474","nachhaltig","planen","0.6807"
"1475","nachhaltig","schritt","0.6807"
"1476","nachhaltig","warnen","0.6779"
"1477","nachhaltig","bewusst","0.6779"
"1478","nachhaltig","mittwoch","0.6779"
"1479","nachhaltig","grüne","0.6754"
"1480","nachhaltig","gleich","0.675"
"1481","nachhaltig","jahrzehnt","0.675"
"1482","nachhaltig","klasse","0.675"
"1483","nachhaltig","stammen","0.6728"
"1484","nachhaltig","international","0.6722"
"1485","nachhaltig","vorstellen","0.6718"
"1486","nachhaltig","eu-kommission","0.6694"
"1487","nachhaltig","stets","0.6694"
"1488","nachhaltig","enorm","0.6694"
"1489","nachhaltig","kauf","0.6694"
"1490","nachhaltig","innovation","0.6694"
"1491","nachhaltig","diskussion","0.6669"
"1492","nachhaltig","darauf","0.6665"
"1493","nachhaltig","veranstaltung","0.6609"
"1494","nachhaltig","neues","0.6609"
"1495","nachhaltig","obwohl","0.6581"
"1496","nachhaltig","natur","0.6573"
"1497","nachhaltig","de","0.6567"
"1498","nachhaltig","preis","0.6559"
"1499","nachhaltig","dach","0.6526"
"1500","nachhaltig","vorgehen","0.6526"
"1501","nachhaltig","davor","0.6526"
"1502","nachhaltig","außen","0.6526"
"1503","nachhaltig","rechte","0.6526"
"1504","nachhaltig","herrschen","0.6526"
"1505","nachhaltig","dass","0.6498"
"1506","nachhaltig","danach","0.647"
"1507","nachhaltig","wolle","0.6459"
"1508","nachhaltig","new","0.6459"
"1509","nachhaltig","schaffen","0.6422"
"1510","nachhaltig","wettbewerb","0.6415"
"1511","nachhaltig","kreis","0.6415"
"1512","nachhaltig","reich","0.6393"
"1513","nachhaltig","weitere","0.636"
"1514","nachhaltig","veröffentlichen","0.636"
"1515","nachhaltig","beschränken","0.636"
"1516","nachhaltig","feststellen","0.636"
"1517","nachhaltig","verbot","0.636"
"1518","nachhaltig","drängen","0.636"
"1519","nachhaltig","gipfel","0.636"
"1520","nachhaltig","erweitern","0.636"
"1521","nachhaltig","glauben","0.636"
"1522","nachhaltig","vietnam","0.636"
"1523","nachhaltig","arbeitsbedingungen","0.636"
"1524","nachhaltig","staatlich","0.6328"
"1525","nachhaltig","lassen","0.6325"
"1526","nachhaltig","sache","0.6238"
"1527","nachhaltig","dennoch","0.6198"
"1528","nachhaltig","aufmerksamkeit","0.6198"
"1529","nachhaltig","komplex","0.6198"
"1530","nachhaltig","ebenfalls","0.6198"
"1531","nachhaltig","gefahr","0.6198"
"1532","nachhaltig","offiziell","0.6198"
"1533","nachhaltig","stiftung","0.6198"
"1534","nachhaltig","geld","0.6173"
"1535","nachhaltig","selten","0.6133"
"1536","nachhaltig","buch","0.6126"
"1537","nachhaltig","europäisch","0.6126"
"1538","nachhaltig","neue","0.6125"
"1539","nachhaltig","bekannt","0.6091"
"1540","nachhaltig","gleichzeitig","0.6091"
"1541","nachhaltig","besonder","0.6091"
"1542","nachhaltig","ursache","0.6038"
"1543","nachhaltig","lauten","0.6038"
"1544","nachhaltig","vorsitzender","0.6038"
"1545","nachhaltig","beispiel","0.6038"
"1546","nachhaltig","stimmung","0.6038"
"1547","nachhaltig","fuß","0.6038"
"1548","nachhaltig","miete","0.6038"
"1549","nachhaltig","morgen","0.6038"
"1550","nachhaltig","berücksichtigen","0.6038"
"1551","nachhaltig","widmen","0.6038"
"1552","nachhaltig","bürger","0.6006"
"1553","nachhaltig","plan","0.5985"
"1554","nachhaltig","demokratisch","0.5985"
"1555","nachhaltig","ähnlich","0.597"
"1556","nachhaltig","schützen","0.5959"
"1557","nachhaltig","natürlich","0.5954"
"1558","nachhaltig","hoffen","0.5943"
"1559","nachhaltig","organisieren","0.5925"
"1560","nachhaltig","mögen","0.5919"
"1561","nachhaltig","schwer","0.5911"
"1562","nachhaltig","existieren","0.588"
"1563","nachhaltig","modell","0.588"
"1564","nachhaltig","bisherig","0.588"
"1565","nachhaltig","theorie","0.588"
"1566","nachhaltig","wohnen","0.588"
"1567","nachhaltig","quelle","0.588"
"1568","nachhaltig","vorschlag","0.588"
"1569","nachhaltig","gott","0.588"
"1570","nachhaltig","bedarf","0.588"
"1571","nachhaltig","kümmern","0.588"
"1572","nachhaltig","allein","0.5824"
"1573","nachhaltig","allerdings","0.5789"
"1574","nachhaltig","deswegen","0.5777"
"1575","nachhaltig","erfüllen","0.5777"
"1576","nachhaltig","kapitalismus","0.5777"
"1577","nachhaltig","wissenschaftlich","0.5777"
"1578","nachhaltig","leben","0.5761"
"1579","nachhaltig","herz","0.5725"
"1580","nachhaltig","wasser","0.5725"
"1581","nachhaltig","stuttgarter","0.5725"
"1582","nachhaltig","weitgehend","0.5725"
"1583","nachhaltig","ägypten","0.5725"
"1584","nachhaltig","zustand","0.5725"
"1585","nachhaltig","hochschule","0.5725"
"1586","nachhaltig","singen","0.5725"
"1587","nachhaltig","sprechen","0.5715"
"1588","nachhaltig","verhindern","0.5694"
"1589","nachhaltig","text","0.5674"
"1590","nachhaltig","hinzu","0.5674"
"1591","nachhaltig","beim","0.5666"
"1592","nachhaltig","leider","0.5649"
"1593","nachhaltig","regel","0.5633"
"1594","nachhaltig","bundesweit","0.5572"
"1595","nachhaltig","vorlegen","0.5572"
"1596","nachhaltig","jeweilig","0.5572"
"1597","nachhaltig","durchschnittlich","0.5572"
"1598","nachhaltig","wahrnehmen","0.5572"
"1599","nachhaltig","lieben","0.5572"
"1600","nachhaltig","bahnhof","0.5572"
"1601","nachhaltig","frank","0.5572"
"1602","nachhaltig","berichten","0.5522"
"1603","nachhaltig","europa","0.5503"
"1604","nachhaltig","erstmals","0.5497"
"1605","nachhaltig","finden","0.5492"
"1606","nachhaltig","mensch","0.5482"
"1607","nachhaltig","politisch","0.5478"
"1608","nachhaltig","wünschen","0.5472"
"1609","nachhaltig","london","0.5472"
"1610","nachhaltig","gewiß","0.5472"
"1611","nachhaltig","nachfrage","0.5472"
"1612","nachhaltig","indien","0.5452"
"1613","nachhaltig","meinung","0.5422"
"1614","nachhaltig","gewinn","0.5422"
"1615","nachhaltig","bestehend","0.5422"
"1616","nachhaltig","schwarze","0.5422"
"1617","nachhaltig","grundstück","0.5422"
"1618","nachhaltig","atomausstieg","0.5422"
"1619","nachhaltig","michael","0.5392"
"1620","nachhaltig","tier","0.5392"
"1621","nachhaltig","problem","0.5389"
"1622","nachhaltig","neu","0.5381"
"1623","nachhaltig","ändern","0.5372"
"1624","nachhaltig","gegenüber","0.5348"
"1625","nachhaltig","experte","0.5348"
"1626","nachhaltig","danken","0.5274"
"1627","nachhaltig","möglichst","0.5274"
"1628","nachhaltig","angabe","0.5274"
"1629","nachhaltig","unterstützung","0.5274"
"1630","nachhaltig","ums","0.5274"
"1631","nachhaltig","atomkraft","0.5274"
"1632","nachhaltig","zudem","0.5176"
"1633","nachhaltig","verstärken","0.5176"
"1634","nachhaltig","werben","0.5176"
"1635","nachhaltig","eigene","0.5149"
"1636","nachhaltig","beschließen","0.5128"
"1637","nachhaltig","brandenburg","0.5128"
"1638","nachhaltig","potenzial","0.5128"
"1639","nachhaltig","erde","0.5128"
"1640","nachhaltig","andererseits","0.5128"
"1641","nachhaltig","demonstration","0.5128"
"1642","nachhaltig","ausstieg","0.5128"
"1643","nachhaltig","oft","0.5104"
"1644","nachhaltig","stecken","0.5099"
"1645","nachhaltig","jürgen","0.508"
"1646","nachhaltig","nötigen","0.508"
"1647","nachhaltig","hamburger","0.508"
"1648","nachhaltig","dabei","0.5072"
"1649","nachhaltig","müssen","0.5072"
"1650","nachhaltig","eben","0.507"
"1651","nachhaltig","privat","0.5066"
"1652","nachhaltig","vergangen","0.5041"
"1653","nachhaltig","vielleicht","0.5036"
"1654","nachhaltig","langen","0.5025"
"1655","nachhaltig","wert","0.5025"
"1656","nachhaltig","arbeiten","0.4984"
"1657","nachhaltig","engagieren","0.4984"
"1658","nachhaltig","musik","0.4984"
"1659","nachhaltig","stolz","0.4984"
"1660","nachhaltig","konzern","0.4984"
"1661","nachhaltig","reform","0.4984"
"1662","nachhaltig","enden","0.4984"
"1663","nachhaltig","wagen","0.4984"
"1664","nachhaltig","flughafen","0.4984"
"1665","nachhaltig","gast","0.4984"
"1666","nachhaltig","ausrichten","0.4984"
"1667","nachhaltig","wann","0.4984"
"1668","nachhaltig","nachdenken","0.4984"
"1669","nachhaltig","verantwortung","0.4984"
"1670","nachhaltig","erste","0.4927"
"1671","nachhaltig","stellen","0.4927"
"1672","nachhaltig","moment","0.4913"
"1673","nachhaltig","schlecht","0.4889"
"1674","nachhaltig","anlage","0.4889"
"1675","nachhaltig","ständig","0.4889"
"1676","nachhaltig","position","0.4889"
"1677","nachhaltig","motto","0.4889"
"1678","nachhaltig","basis","0.4889"
"1679","nachhaltig","eigen","0.4883"
"1680","nachhaltig","ab","0.4876"
"1681","nachhaltig","breit","0.487"
"1682","nachhaltig","riesig","0.4842"
"1683","nachhaltig","akzeptieren","0.4842"
"1684","nachhaltig","diesmal","0.4842"
"1685","nachhaltig","zeichnen","0.4842"
"1686","nachhaltig","standard","0.4842"
"1687","nachhaltig","gut","0.4823"
"1688","nachhaltig","luft","0.4795"
"1689","nachhaltig","richten","0.4795"
"1690","nachhaltig","wald","0.4795"
"1691","nachhaltig","klingen","0.4772"
"1692","nachhaltig","klaren","0.4764"
"1693","nachhaltig","schnellen","0.4702"
"1694","nachhaltig","staat","0.4702"
"1695","nachhaltig","wille","0.4702"
"1696","nachhaltig","erstaunlich","0.4702"
"1697","nachhaltig","begleiten","0.4702"
"1698","nachhaltig","verlust","0.4702"
"1699","nachhaltig","uni","0.4702"
"1700","nachhaltig","chef","0.4702"
"1701","nachhaltig","fußball","0.4702"
"1702","nachhaltig","menge","0.4633"
"1703","nachhaltig","forderung","0.4633"
"1704","nachhaltig","verkaufen","0.4623"
"1705","nachhaltig","heraus","0.461"
"1706","nachhaltig","auftrag","0.461"
"1707","nachhaltig","entscheiden","0.4564"
"1708","nachhaltig","erheblich","0.4564"
"1709","nachhaltig","ausgehen","0.4564"
"1710","nachhaltig","endgültig","0.4564"
"1711","nachhaltig","miteinander","0.4564"
"1712","nachhaltig","japan","0.4537"
"1713","nachhaltig","leicht","0.4519"
"1714","nachhaltig","klar","0.4519"
"1715","nachhaltig","beziehung","0.4519"
"1716","nachhaltig","sagen","0.4485"
"1717","nachhaltig","bestehen","0.4474"
"1718","nachhaltig","all","0.4459"
"1719","nachhaltig","davon","0.4448"
"1720","nachhaltig","zeit","0.444"
"1721","nachhaltig","gelände","0.4428"
"1722","nachhaltig","technische","0.4428"
"1723","nachhaltig","tradition","0.4428"
"1724","nachhaltig","kapital","0.4428"
"1725","nachhaltig","höhe","0.4428"
"1726","nachhaltig","risiko","0.4428"
"1727","nachhaltig","jed","0.44"
"1728","nachhaltig","fehlen","0.439"
"1729","nachhaltig","notwendig","0.4361"
"1730","nachhaltig","lesen","0.4361"
"1731","nachhaltig","unabhängig","0.4361"
"1732","nachhaltig","dafür","0.4186"
"1733","nachhaltig","bekommen","0.4181"
"1734","nachhaltig","wer","0.4175"
"1735","nachhaltig","extrem","0.4162"
"1736","nachhaltig","klassisch","0.4162"
"1737","nachhaltig","relativ","0.4162"
"1738","nachhaltig","lohnen","0.4162"
"1739","nachhaltig","mittlerweile","0.4162"
"1740","nachhaltig","fischer","0.4162"
"1741","nachhaltig","blick","0.4162"
"1742","nachhaltig","gestern","0.4162"
"1743","nachhaltig","feiern","0.4074"
"1744","nachhaltig","erfolgreich","0.4057"
"1745","nachhaltig","verschieden","0.4031"
"1746","nachhaltig","festlegen","0.4031"
"1747","nachhaltig","angela","0.4031"
"1748","nachhaltig","berliner","0.4021"
"1749","nachhaltig","ganz","0.4012"
"1750","nachhaltig","angesichts","0.4005"
"1751","nachhaltig","usa","0.3988"
"1752","nachhaltig","tief","0.3988"
"1753","nachhaltig","gerne","0.3988"
"1754","nachhaltig","sinken","0.3988"
"1755","nachhaltig","beginn","0.3988"
"1756","nachhaltig","fragen","0.3966"
"1757","nachhaltig","teil","0.392"
"1758","nachhaltig","verkünden","0.3902"
"1759","nachhaltig","trotzen","0.3902"
"1760","nachhaltig","ausrechnen","0.3902"
"1761","nachhaltig","solange","0.3902"
"1762","nachhaltig","hamburg","0.3881"
"1763","nachhaltig","fahren","0.3876"
"1764","nachhaltig","denken","0.3873"
"1765","nachhaltig","gerade","0.3872"
"1766","nachhaltig","programm","0.3851"
"1767","nachhaltig","gründen","0.3851"
"1768","nachhaltig","situation","0.3838"
"1769","nachhaltig","schließlich","0.3806"
"1770","nachhaltig","land","0.3789"
"1771","nachhaltig","fürchten","0.3775"
"1772","nachhaltig","person","0.3775"
"1773","nachhaltig","interessant","0.3775"
"1774","nachhaltig","gegensatz","0.3775"
"1775","nachhaltig","scheinen","0.3743"
"1776","nachhaltig","verhalten","0.3732"
"1777","nachhaltig","folge","0.3732"
"1778","nachhaltig","künstler","0.372"
"1779","nachhaltig","erinnern","0.3699"
"1780","nachhaltig","heute","0.3683"
"1781","nachhaltig","seite","0.3672"
"1782","nachhaltig","schüler","0.3649"
"1783","nachhaltig","woche","0.3649"
"1784","nachhaltig","christian","0.3649"
"1785","nachhaltig","genug","0.3649"
"1786","nachhaltig","früh","0.3649"
"1787","nachhaltig","stoff","0.3649"
"1788","nachhaltig","schön","0.3599"
"1789","nachhaltig","kunde","0.3599"
"1790","nachhaltig","behörde","0.3566"
"1791","nachhaltig","kaum","0.3553"
"1792","nachhaltig","bauen","0.3525"
"1793","nachhaltig","nämlich","0.3525"
"1794","nachhaltig","längst","0.3525"
"1795","nachhaltig","mitglied","0.3507"
"1796","nachhaltig","branche","0.3483"
"1797","nachhaltig","offenbaren","0.3483"
"1798","nachhaltig","rolle","0.3472"
"1799","nachhaltig","kritisch","0.3463"
"1800","nachhaltig","müssten","0.3463"
"1801","nachhaltig","datum","0.3402"
"1802","nachhaltig","antwort","0.3402"
"1803","nachhaltig","übrig","0.3402"
"1804","nachhaltig","irgendwann","0.3402"
"1805","nachhaltig","bitte","0.3402"
"1806","nachhaltig","paar","0.3361"
"1807","nachhaltig","april","0.3353"
"1808","nachhaltig","funktionieren","0.3353"
"1809","nachhaltig","widerstand","0.3321"
"1810","nachhaltig","dollar","0.3321"
"1811","nachhaltig","kooperation","0.3281"
"1812","nachhaltig","theater","0.3281"
"1813","nachhaltig","gebären","0.3281"
"1814","nachhaltig","bezahlen","0.3281"
"1815","nachhaltig","bekennen","0.3209"
"1816","nachhaltig","vorsitzende","0.3161"
"1817","nachhaltig","investor","0.3161"
"1818","nachhaltig","nähe","0.3161"
"1819","nachhaltig","haltung","0.3161"
"1820","nachhaltig","besucher","0.3161"
"1821","nachhaltig","sechs","0.3113"
"1822","nachhaltig","zuvor","0.3102"
"1823","nachhaltig","bevölkerung","0.3093"
"1824","nachhaltig","zählen","0.3082"
"1825","nachhaltig","darüber","0.3072"
"1826","nachhaltig","erreichen","0.3056"
"1827","nachhaltig","erst","0.3046"
"1828","nachhaltig","weisen","0.3043"
"1829","nachhaltig","hintergrund","0.3043"
"1830","nachhaltig","eng","0.3043"
"1831","nachhaltig","gering","0.3043"
"1832","nachhaltig","arm","0.3043"
"1833","nachhaltig","daher","0.3019"
"1834","nachhaltig","gewinnen","0.3003"
"1835","nachhaltig","stark","0.3003"
"1836","nachhaltig","solch","0.2951"
"1837","nachhaltig","hersteller","0.2926"
"1838","nachhaltig","darunter","0.2926"
"1839","nachhaltig","zumindest","0.2879"
"1840","nachhaltig","versprechen","0.2879"
"1841","nachhaltig","wohl","0.2848"
"1842","nachhaltig","bürgermeister","0.2848"
"1843","nachhaltig","gehen","0.2836"
"1844","nachhaltig","tun","0.2824"
"1845","nachhaltig","ankommen","0.281"
"1846","nachhaltig","nennen","0.281"
"1847","nachhaltig","these","0.281"
"1848","nachhaltig","lehrer","0.281"
"1849","nachhaltig","sorge","0.281"
"1850","nachhaltig","halten","0.2777"
"1851","nachhaltig","jahr","0.2776"
"1852","nachhaltig","letzt","0.2772"
"1853","nachhaltig","drei","0.2756"
"1854","nachhaltig","finanzieren","0.2696"
"1855","nachhaltig","reden","0.2696"
"1856","nachhaltig","umstritten","0.2696"
"1857","nachhaltig","vortrag","0.2696"
"1858","nachhaltig","ware","0.2696"
"1859","nachhaltig","historisch","0.2696"
"1860","nachhaltig","botschaft","0.2696"
"1861","nachhaltig","bezirk","0.2696"
"1862","nachhaltig","direkt","0.265"
"1863","nachhaltig","deshalb","0.262"
"1864","nachhaltig","konflikt","0.262"
"1865","nachhaltig","ergebnis","0.2605"
"1866","nachhaltig","bedrohen","0.2583"
"1867","nachhaltig","gefährlich","0.2583"
"1868","nachhaltig","verhandlung","0.2583"
"1869","nachhaltig","universität","0.2583"
"1870","nachhaltig","amp","0.2545"
"1871","nachhaltig","geben","0.252"
"1872","nachhaltig","groß","0.2486"
"1873","nachhaltig","rest","0.2471"
"1874","nachhaltig","schlimm","0.2471"
"1875","nachhaltig","fan","0.2471"
"1876","nachhaltig","rund","0.2403"
"1877","nachhaltig","vergleich","0.2397"
"1878","nachhaltig","klaus","0.2397"
"1879","nachhaltig","genossenschaft","0.2397"
"1880","nachhaltig","essen","0.2382"
"1881","nachhaltig","inzwischen","0.2376"
"1882","nachhaltig","bloß","0.236"
"1883","nachhaltig","vermitteln","0.236"
"1884","nachhaltig","katastrophe","0.236"
"1885","nachhaltig","derzeit","0.2345"
"1886","nachhaltig","seit","0.2336"
"1887","nachhaltig","regierung","0.2324"
"1888","nachhaltig","stehen","0.2314"
"1889","nachhaltig","beid","0.2295"
"1890","nachhaltig","teuer","0.2295"
"1891","nachhaltig","the","0.2295"
"1892","nachhaltig","wählen","0.2295"
"1893","nachhaltig","werk","0.2251"
"1894","nachhaltig","seitdem","0.2251"
"1895","nachhaltig","aufgrund","0.2251"
"1896","nachhaltig","and","0.2251"
"1897","nachhaltig","vorhanden","0.2251"
"1898","nachhaltig","debatte","0.2197"
"1899","nachhaltig","kleine","0.2165"
"1900","nachhaltig","betrieb","0.2143"
"1901","nachhaltig","öffnen","0.2143"
"1902","nachhaltig","ausstellung","0.2107"
"1903","nachhaltig","je","0.2036"
"1904","nachhaltig","bremen","0.2036"
"1905","nachhaltig","drittel","0.193"
"1906","nachhaltig","enthalten","0.193"
"1907","nachhaltig","deutschland","0.1859"
"1908","nachhaltig","gutes","0.1826"
"1909","nachhaltig","dienen","0.1826"
"1910","nachhaltig","liga","0.1826"
"1911","nachhaltig","unbedingt","0.1826"
"1912","nachhaltig","norden","0.1722"
"1913","nachhaltig","daran","0.1688"
"1914","nachhaltig","weit","0.1671"
"1915","nachhaltig","trotzdem","0.1653"
"1916","nachhaltig","steigend","0.1619"
"1917","nachhaltig","wachsend","0.1619"
"1918","nachhaltig","nachdem","0.1552"
"1919","nachhaltig","insbesondere","0.1518"
"1920","nachhaltig","verlieren","0.1518"
"1921","nachhaltig","betrachten","0.1518"
"1922","nachhaltig","ausland","0.1518"
"1923","nachhaltig","landen","0.1518"
"1924","nachhaltig","union","0.1484"
"1925","nachhaltig","etwa","0.1475"
"1926","nachhaltig","arbeit","0.1437"
"1927","nachhaltig","politiker","0.1417"
"1928","nachhaltig","minute","0.1417"
"1929","nachhaltig","mehr","0.1364"
"1930","nachhaltig","ganze","0.1318"
"1931","nachhaltig","formulieren","0.1318"
"1932","nachhaltig","entsprechen","0.1285"
"1933","nachhaltig","sehen","0.1227"
"1934","nachhaltig","fünf","0.1219"
"1935","nachhaltig","vergessen","0.1219"
"1936","nachhaltig","verschwinden","0.1219"
"1937","nachhaltig","demokratie","0.1219"
"1938","nachhaltig","boden","0.117"
"1939","nachhaltig","nächst","0.1163"
"1940","nachhaltig","berlin","0.1138"
"1941","nachhaltig","jahrhundert","0.1122"
"1942","nachhaltig","zusätzlich","0.1122"
"1943","nachhaltig","schwarz","0.1122"
"1944","nachhaltig","freiheit","0.1089"
"1945","nachhaltig","deutsch","0.1082"
"1946","nachhaltig","herr","0.1064"
"1947","nachhaltig","billig","0.1025"
"1948","nachhaltig","student","0.1025"
"1949","nachhaltig","sogenannt","0.1025"
"1950","nachhaltig","taz","0.098"
"1951","nachhaltig","auge","0.0961"
"1952","nachhaltig","dauern","0.0929"
"1953","nachhaltig","auto","0.0929"
"1954","nachhaltig","fangen","0.0929"
"1955","nachhaltig","gespräch","0.0898"
"1956","nachhaltig","fdp","0.0882"
"1957","nachhaltig","insgesamt","0.0882"
"1958","nachhaltig","richtig","0.0835"
"1959","nachhaltig","oktober","0.0835"
"1960","nachhaltig","kind","0.0788"
"1961","nachhaltig","zugleich","0.0772"
"1962","nachhaltig","wenig","0.0764"
"1963","nachhaltig","laut","0.0754"
"1964","nachhaltig","garten","0.0741"
"1965","nachhaltig","sicher","0.0741"
"1966","nachhaltig","fleisch","0.0741"
"1967","nachhaltig","wort","0.0694"
"1968","nachhaltig","milliarde","0.0674"
"1969","nachhaltig","damals","0.0648"
"1970","nachhaltig","mitarbeiter","0.0648"
"1971","nachhaltig","vier","0.0648"
"1972","nachhaltig","befinden","0.0648"
"1973","nachhaltig","afrika","0.0648"
"1974","nachhaltig","müller","0.0648"
"1975","nachhaltig","bund","0.0602"
"1976","nachhaltig","gruppe","0.0602"
"1977","nachhaltig","haus","0.0586"
"1978","nachhaltig","häufig","0.0586"
"1979","nachhaltig","niedrig","0.0556"
"1980","nachhaltig","gewalt","0.0556"
"1981","nachhaltig","hafen","0.0556"
"1982","nachhaltig","sonntag","0.0556"
"1983","nachhaltig","anteil","0.0525"
"1984","nachhaltig","beginnen","0.0495"
"1985","nachhaltig","million","0.0492"
"1986","nachhaltig","wissen","0.0464"
"1987","nachhaltig","material","0.0464"
"1988","nachhaltig","gleichen","0.0356"
"1989","nachhaltig","lässt","0.0284"
"1990","nachhaltig","autor","0.0284"
"1991","nachhaltig","unterschiedlich","0.0284"
"1992","nachhaltig","fall","0.0262"
"1993","nachhaltig","satz","0.0195"
"1994","nachhaltig","vorbei","0.0107"
"1995","nachhaltig","wachsen","0.0072"
"1996","nachhaltig","endlich","0.0049"
"1997","nachhaltig","bremer","0.0049"
"1998","nachhaltig","sofort","0.002"
"1999","nachhaltig","oben","0.002"
