"","V1","V2","V3"
"1","nachhaltig","entwicklung","0.0649"
"2","nachhaltig","wachstum","0.0589"
"3","nachhaltig","beirat","0.0358"
"4","nachhaltig","finanzierung","0.0349"
"5","nachhaltig","ökologisch","0.0344"
"6","nachhaltig","dauerhaft","0.0321"
"7","nachhaltig","landwirtschaft","0.0314"
"8","nachhaltig","wirtschaftlich","0.0278"
"9","nachhaltig","wirtschaft","0.0237"
"10","nachhaltig","nutzung","0.0221"
"11","nachhaltig","solide","0.0219"
"12","nachhaltig","finanzpolitik","0.0213"
"13","nachhaltig","fördern","0.0207"
"14","nachhaltig","politik","0.0204"
"15","nachhaltig","verbessern","0.0203"
"16","nachhaltig","haushaltspolitik","0.0203"
"17","nachhaltig","sicher","0.0198"
"18","nachhaltig","langfristig","0.0196"
"19","nachhaltig","unterstützen","0.0195"
"20","nachhaltig","gerecht","0.0191"
"21","nachhaltig","beitrag","0.0191"
"22","nachhaltig","parlamentarische","0.0189"
"23","nachhaltig","mobilität","0.018"
"24","nachhaltig","bewirtschaftung","0.0179"
"25","nachhaltig","wald","0.0178"
"26","nachhaltig","stärken","0.0178"
"27","nachhaltig","verantwortungsvoll","0.0177"
"28","nachhaltig","sozial","0.0176"
"29","nachhaltig","sichern","0.0176"
"30","nachhaltig","produktion","0.0175"
"31","nachhaltig","aufbau","0.0172"
"32","nachhaltig","ressource","0.0171"
"33","nachhaltig","gestalten","0.0168"
"34","nachhaltig","investition","0.0167"
"35","nachhaltig","einsetzen","0.0166"
"36","nachhaltig","ziel","0.0165"
"37","nachhaltig","förderung","0.0163"
"38","nachhaltig","stabilität","0.016"
"39","nachhaltig","sowie","0.016"
"40","nachhaltig","sicherung","0.016"
"41","nachhaltig","region","0.016"
"42","nachhaltig","stabilisieren","0.0158"
"43","nachhaltig","lösung","0.0156"
"44","nachhaltig","verbesserung","0.0152"
"45","nachhaltig","energieversorgung","0.0151"
"46","nachhaltig","wirtschaften","0.0151"
"47","nachhaltig","umwelt","0.0149"
"48","nachhaltig","stabil","0.0146"
"49","nachhaltig","europa","0.0145"
"50","nachhaltig","finanzieren","0.0143"
"51","nachhaltig","interesse","0.0143"
"52","nachhaltig","friede","0.0141"
"53","nachhaltig","struktur","0.0139"
"54","nachhaltig","brauchen","0.0138"
"55","nachhaltig","bildung","0.0137"
"56","nachhaltig","generation","0.0137"
"57","nachhaltig","soziale","0.0136"
"58","nachhaltig","ausrichten","0.0134"
"59","nachhaltig","ausbau","0.0133"
"60","nachhaltig","wirksam","0.0132"
"61","nachhaltig","modern","0.0131"
"62","nachhaltig","nachhaltigkeitsstrategie","0.0131"
"63","nachhaltig","fischerei","0.0131"
"64","nachhaltig","setzen","0.0131"
"65","nachhaltig","entwickeln","0.0128"
"66","nachhaltig","zukunft","0.0127"
"67","nachhaltig","titel","0.0124"
"68","nachhaltig","klimaschutz","0.0123"
"69","nachhaltig","voraussetzung","0.0122"
"70","nachhaltig","kommune","0.0121"
"71","nachhaltig","forschung","0.012"
"72","nachhaltig","perspektive","0.0117"
"73","nachhaltig","schaffen","0.0116"
"74","nachhaltig","effizient","0.0113"
"75","nachhaltig","entwicklungsländern","0.0113"
"76","nachhaltig","nachhaltigkeit","0.0113"
"77","nachhaltig","sinn","0.0113"
"78","nachhaltig","ernährung","0.0113"
"79","nachhaltig","gewährleisten","0.0113"
"80","nachhaltig","tourismus","0.0112"
"81","nachhaltig","union","0.0111"
"82","nachhaltig","international","0.0111"
"83","nachhaltig","gesellschaft","0.011"
"84","nachhaltig","ansatz","0.011"
"85","nachhaltig","sicherstellen","0.0109"
"86","nachhaltig","stark","0.0109"
"87","nachhaltig","europäisch","0.0108"
"88","nachhaltig","konsolidierung","0.0108"
"89","nachhaltig","wichtig","0.0108"
"90","nachhaltig","finanz","0.0107"
"91","nachhaltig","fortschritt","0.0107"
"92","nachhaltig","strategie","0.0106"
"93","nachhaltig","verkehrspolitik","0.0106"
"94","nachhaltig","gelingen","0.0106"
"95","nachhaltig","meer","0.0105"
"96","nachhaltig","reduzieren","0.0105"
"97","nachhaltig","innovation","0.0104"
"98","nachhaltig","bekämpfen","0.0103"
"99","nachhaltig","drucksachen","0.0102"
"100","nachhaltig","drucksache","0.0102"
"101","nachhaltig","konzept","0.0102"
"102","nachhaltig","programm","0.0102"
"103","nachhaltig","institution","0.0101"
"104","nachhaltig","wirklich","0.0101"
"105","nachhaltig","grundlage","0.0101"
"106","nachhaltig","entlasten","0.01"
"107","nachhaltig","bäuerlich","0.01"
"108","nachhaltig","maßnahme","0.01"
"109","nachhaltig","regierung","0.01"
"110","nachhaltig","erreichen","0.0099"
"111","nachhaltig","leisten","0.0099"
"112","nachhaltig","nutzen","0.0099"
"113","nachhaltig","bezahlbare","0.0099"
"114","nachhaltig","forstwirtschaft","0.0099"
"115","nachhaltig","stadtentwicklung","0.0099"
"116","nachhaltig","ermöglichen","0.0098"
"117","nachhaltig","europäische","0.0098"
"118","nachhaltig","wohlstand","0.0098"
"119","nachhaltig","abgeordneter","0.0098"
"120","nachhaltig","armutsbekämpfung","0.0097"
"121","nachhaltig","berichterstattung","0.0097"
"122","nachhaltig","strukturell","0.0096"
"123","nachhaltig","eu","0.0096"
"124","nachhaltig","investieren","0.0095"
"125","nachhaltig","reform","0.0095"
"126","nachhaltig","ländlich","0.0095"
"127","nachhaltig","basis","0.0095"
"128","nachhaltig","bevölkerung","0.0095"
"129","nachhaltig","chance","0.0094"
"130","nachhaltig","agrarpolitik","0.0093"
"131","nachhaltig","bürgerin","0.0093"
"132","nachhaltig","bundesregierung","0.0092"
"133","nachhaltig","gleichzeitig","0.0092"
"134","nachhaltig","konsolidieren","0.0092"
"135","nachhaltig","bericht","0.0092"
"136","nachhaltig","unternehmen","0.0092"
"137","nachhaltig","bau","0.0092"
"138","nachhaltig","arbeitsplätze","0.0092"
"139","nachhaltig","gemeinsam","0.0092"
"140","nachhaltig","bezahlbar","0.0091"
"141","nachhaltig","weltweit","0.0091"
"142","nachhaltig","waldbewirtschaftung","0.0091"
"143","nachhaltig","endlich","0.009"
"144","nachhaltig","unterrichtung","0.009"
"145","nachhaltig","handeln","0.009"
"146","nachhaltig","wirtschaftsentwicklung","0.009"
"147","nachhaltig","instrument","0.009"
"148","nachhaltig","politisch","0.0089"
"149","nachhaltig","naturschutz","0.0089"
"150","nachhaltig","heißen","0.0089"
"151","nachhaltig","staatsfinanzen","0.0089"
"152","nachhaltig","überweisungsvorschlag","0.0088"
"153","nachhaltig","stärkung","0.0088"
"154","nachhaltig","effektiv","0.0087"
"155","nachhaltig","vertrauen","0.0087"
"156","nachhaltig","anstrengung","0.0087"
"157","nachhaltig","haushalt","0.0087"
"158","nachhaltig","initiative","0.0087"
"159","nachhaltig","müssen","0.0087"
"160","nachhaltig","darum","0.0086"
"161","nachhaltig","sorgen","0.0086"
"162","nachhaltig","beitragen","0.0086"
"163","nachhaltig","wettbewerbsfähigkeit","0.0086"
"164","nachhaltig","reaktorsicherheit","0.0086"
"165","nachhaltig","entwicklungspolitik","0.0086"
"166","nachhaltig","konsequent","0.0086"
"167","nachhaltig","beschäftigung","0.0085"
"168","nachhaltig","gut","0.0085"
"169","nachhaltig","gemeinsame","0.0085"
"170","nachhaltig","bestand","0.0084"
"171","nachhaltig","wesentlich","0.0084"
"172","nachhaltig","überwinden","0.0084"
"173","nachhaltig","bemühung","0.0084"
"174","nachhaltig","gerade","0.0083"
"175","nachhaltig","sinnvoll","0.0082"
"176","nachhaltig","demokratie","0.0082"
"177","nachhaltig","krankenversicherung","0.0082"
"178","nachhaltig","gesellschaftlich","0.0082"
"179","nachhaltig","prägen","0.0082"
"180","nachhaltig","deshalb","0.0081"
"181","nachhaltig","schutz","0.0081"
"182","nachhaltig","notwendig","0.0081"
"183","nachhaltig","weder","0.0081"
"184","nachhaltig","dadurch","0.0081"
"185","nachhaltig","staatlich","0.0081"
"186","nachhaltig","raum","0.0081"
"187","nachhaltig","schritt","0.008"
"188","nachhaltig","welt","0.008"
"189","nachhaltig","einhaltung","0.008"
"190","nachhaltig","sicht","0.008"
"191","nachhaltig","lösen","0.008"
"192","nachhaltig","verkehr","0.008"
"193","nachhaltig","weiterhin","0.008"
"194","nachhaltig","umfassend","0.008"
"195","nachhaltig","erfolgreich","0.008"
"196","nachhaltig","zukünftig","0.0079"
"197","nachhaltig","politische","0.0079"
"198","nachhaltig","gesamt","0.0079"
"199","nachhaltig","zusammenarbeit","0.0079"
"200","nachhaltig","abgeordnete","0.0079"
"201","nachhaltig","insbesondere","0.0079"
"202","nachhaltig","hochschule","0.0079"
"203","nachhaltig","erhalten","0.0079"
"204","nachhaltig","umgang","0.0079"
"205","nachhaltig","deutschland","0.0078"
"206","nachhaltig","positiv","0.0078"
"207","nachhaltig","rahmen","0.0078"
"208","nachhaltig","fischbestände","0.0078"
"209","nachhaltig","verantwortung","0.0078"
"210","nachhaltig","impuls","0.0078"
"211","nachhaltig","ausschuß","0.0078"
"212","nachhaltig","buchstabe","0.0077"
"213","nachhaltig","hochwertig","0.0077"
"214","nachhaltig","unterstützung","0.0077"
"215","nachhaltig","zukunftsfähige","0.0077"
"216","nachhaltig","erzielen","0.0077"
"217","nachhaltig","möglich","0.0077"
"218","nachhaltig","zivilgesellschaftliche","0.0076"
"219","nachhaltig","national","0.0076"
"220","nachhaltig","ökonomisch","0.0076"
"221","nachhaltig","dafür","0.0076"
"222","nachhaltig","bürger","0.0076"
"223","nachhaltig","elektromobilität","0.0076"
"224","nachhaltig","cdu/csu","0.0076"
"225","nachhaltig","entscheidend","0.0076"
"226","nachhaltig","empfehlen","0.0076"
"227","nachhaltig","antrag","0.0076"
"228","nachhaltig","schädigen","0.0075"
"229","nachhaltig","israel","0.0075"
"230","nachhaltig","grünen","0.0075"
"231","nachhaltig","bedarf","0.0075"
"232","nachhaltig","bereits","0.0075"
"233","nachhaltig","infrastruktur","0.0075"
"234","nachhaltig","vorliegend","0.0075"
"235","nachhaltig","christlich-liberale","0.0074"
"236","nachhaltig","zeigen","0.0074"
"237","nachhaltig","kurzfristig","0.0074"
"238","nachhaltig","myanmar","0.0074"
"239","nachhaltig","tragen","0.0073"
"240","nachhaltig","erfolg","0.0073"
"241","nachhaltig","vater","0.0072"
"242","nachhaltig","dass","0.0072"
"243","nachhaltig","hilfe","0.0072"
"244","nachhaltig","wirtschaftswachstum","0.0072"
"245","nachhaltig","anforderung","0.0072"
"246","nachhaltig","bereich","0.0071"
"247","nachhaltig","deutlich","0.0071"
"248","nachhaltig","herausforderung","0.0071"
"249","nachhaltig","wasser","0.0071"
"250","nachhaltig","beschlussempfehlung","0.0071"
"251","nachhaltig","land","0.007"
"252","nachhaltig","lage","0.007"
"253","nachhaltig","aufgabe","0.007"
"254","nachhaltig","fdp","0.0069"
"255","nachhaltig","hinaus","0.0069"
"256","nachhaltig","arbeit","0.0069"
"257","nachhaltig","insgesamt","0.0069"
"258","nachhaltig","rohstoff","0.0069"
"259","nachhaltig","betreiben","0.0069"
"260","nachhaltig","umbau","0.0069"
"261","nachhaltig","menschenrechte","0.0068"
"262","nachhaltig","angebot","0.0068"
"263","nachhaltig","indikatorenbericht","0.0068"
"264","nachhaltig","engagieren","0.0068"
"265","nachhaltig","energie","0.0068"
"266","nachhaltig","eben","0.0068"
"267","nachhaltig","naturnahe","0.0068"
"268","nachhaltig","mittel","0.0067"
"269","nachhaltig","prozess","0.0067"
"270","nachhaltig","all","0.0067"
"271","nachhaltig","internationale","0.0067"
"272","nachhaltig","koalition","0.0067"
"273","nachhaltig","bewirtschaften","0.0067"
"274","nachhaltig","finanziell","0.0067"
"275","nachhaltig","deutsch","0.0067"
"276","nachhaltig","stellen","0.0067"
"277","nachhaltig","öffentlich","0.0067"
"278","nachhaltig","umsetzen","0.0067"
"279","nachhaltig","rio","0.0067"
"280","nachhaltig","begleiten","0.0066"
"281","nachhaltig","künftig","0.0066"
"282","nachhaltig","neue","0.0065"
"283","nachhaltig","neu","0.0065"
"284","nachhaltig","hoch","0.0065"
"285","nachhaltig","überzeugung","0.0065"
"286","nachhaltig","ding","0.0065"
"287","nachhaltig","bedeutung","0.0065"
"288","nachhaltig","bündnis","0.0065"
"289","nachhaltig","wirkung","0.0065"
"290","nachhaltig","energiepolitik","0.0065"
"291","nachhaltig","engagement","0.0065"
"292","nachhaltig","entstehen","0.0064"
"293","nachhaltig","ausgabe","0.0064"
"294","nachhaltig","schützen","0.0064"
"295","nachhaltig","beratung","0.0064"
"296","nachhaltig","betroffen","0.0064"
"297","nachhaltig","beispiel","0.0064"
"298","nachhaltig","beschädigen","0.0064"
"299","nachhaltig","neben","0.0064"
"300","nachhaltig","innovative","0.0064"
"301","nachhaltig","zentral","0.0064"
"302","nachhaltig","leistungsfähig","0.0064"
"303","nachhaltig","signal","0.0064"
"304","nachhaltig","benötigen","0.0064"
"305","nachhaltig","integrieren","0.0063"
"306","nachhaltig","konferenz","0.0063"
"307","nachhaltig","schlüssel","0.0063"
"308","nachhaltig","vorantreiben","0.0063"
"309","nachhaltig","eindämmen","0.0063"
"310","nachhaltig","vernünftig","0.0063"
"311","nachhaltig","schaffung","0.0063"
"312","nachhaltig","zentrale","0.0063"
"313","nachhaltig","stabile","0.0063"
"314","nachhaltig","arbeiten","0.0062"
"315","nachhaltig","fraktion","0.0062"
"316","nachhaltig","integration","0.0062"
"317","nachhaltig","beim","0.0062"
"318","nachhaltig","wettbewerb","0.0062"
"319","nachhaltig","strategisch","0.0062"
"320","nachhaltig","tatsächlich","0.0062"
"321","nachhaltig","weit","0.0062"
"322","nachhaltig","sozialpolitik","0.0062"
"323","nachhaltig","verfolgen","0.0062"
"324","nachhaltig","weiche","0.0062"
"325","nachhaltig","gezielt","0.0062"
"326","nachhaltig","einerseits","0.0062"
"327","nachhaltig","daher","0.0061"
"328","nachhaltig","organisieren","0.0061"
"329","nachhaltig","baustein","0.0061"
"330","nachhaltig","natürlich","0.006"
"331","nachhaltig","ablehnung","0.006"
"332","nachhaltig","richtung","0.006"
"333","nachhaltig","befördern","0.006"
"334","nachhaltig","auffassung","0.006"
"335","nachhaltig","erheblich","0.006"
"336","nachhaltig","solidarisch","0.006"
"337","nachhaltig","bundesministerium","0.006"
"338","nachhaltig","befreien","0.006"
"339","nachhaltig","wachsend","0.006"
"340","nachhaltig","regionale","0.0059"
"341","nachhaltig","stabilisierung","0.0059"
"342","nachhaltig","voraus","0.0059"
"343","nachhaltig","fahren","0.0059"
"344","nachhaltig","bemühen","0.0059"
"345","nachhaltig","ebenso","0.0059"
"346","nachhaltig","parlamentarisch","0.0059"
"347","nachhaltig","aktuell","0.0059"
"348","nachhaltig","rahmenbedingungen","0.0059"
"349","nachhaltig","versorgung","0.0059"
"350","nachhaltig","ganz","0.0059"
"351","nachhaltig","armut","0.0059"
"352","nachhaltig","folge","0.0059"
"353","nachhaltig","erfüllen","0.0058"
"354","nachhaltig","zeit","0.0058"
"355","nachhaltig","gesundheit","0.0058"
"356","nachhaltig","produkt","0.0058"
"357","nachhaltig","überzeugen","0.0058"
"358","nachhaltig","kinderarbeit","0.0058"
"359","nachhaltig","fischer","0.0058"
"360","nachhaltig","richtig","0.0058"
"361","nachhaltig","agenda","0.0057"
"362","nachhaltig","rentenversicherung","0.0057"
"363","nachhaltig","erhalt","0.0057"
"364","nachhaltig","kommend","0.0057"
"365","nachhaltig","situation","0.0057"
"366","nachhaltig","stadt","0.0057"
"367","nachhaltig","zugang","0.0057"
"368","nachhaltig","grundlegend","0.0057"
"369","nachhaltig","standard","0.0057"
"370","nachhaltig","verantwortungsbewussten","0.0057"
"371","nachhaltig","sollen","0.0057"
"372","nachhaltig","blick","0.0057"
"373","nachhaltig","bringen","0.0057"
"374","nachhaltig","partnerschaft","0.0057"
"375","nachhaltig","gegeben","0.0057"
"376","nachhaltig","anspruch","0.0057"
"377","nachhaltig","helfen","0.0056"
"378","nachhaltig","nachhaltigkeitsprüfung","0.0056"
"379","nachhaltig","landbau","0.0056"
"380","nachhaltig","mensch","0.0056"
"381","nachhaltig","ökolandbau","0.0056"
"382","nachhaltig","beitragssätze","0.0056"
"383","nachhaltig","umsetzung","0.0056"
"384","nachhaltig","fläche","0.0056"
"385","nachhaltig","erst","0.0056"
"386","nachhaltig","legen","0.0056"
"387","nachhaltig","gemeindefinanzkommission","0.0056"
"388","nachhaltig","gehen","0.0056"
"389","nachhaltig","ernst","0.0056"
"390","nachhaltig","haushalts-","0.0056"
"391","nachhaltig","ausschuss","0.0056"
"392","nachhaltig","kommunal","0.0055"
"393","nachhaltig","wirtschafts-","0.0055"
"394","nachhaltig","verantwortlich","0.0055"
"395","nachhaltig","wandel","0.0055"
"396","nachhaltig","vorhanden","0.0055"
"397","nachhaltig","betrachten","0.0055"
"398","nachhaltig","zukunftsfähig","0.0055"
"399","nachhaltig","energiewende","0.0055"
"400","nachhaltig","konsument","0.0055"
"401","nachhaltig","stabilitätsunion","0.0054"
"402","nachhaltig","begrüßen","0.0054"
"403","nachhaltig","rechtlich","0.0054"
"404","nachhaltig","erforderlich","0.0054"
"405","nachhaltig","lokale","0.0054"
"406","nachhaltig","afghanistan","0.0054"
"407","nachhaltig","aufbauen","0.0054"
"408","nachhaltig","effiziente","0.0054"
"409","nachhaltig","waldstrategie","0.0054"
"410","nachhaltig","begriff","0.0054"
"411","nachhaltig","kommen","0.0054"
"412","nachhaltig","anteil","0.0054"
"413","nachhaltig","leitbild","0.0054"
"414","nachhaltig","gerechtigkeit","0.0054"
"415","nachhaltig","anstatt","0.0054"
"416","nachhaltig","ziehen","0.0054"
"417","nachhaltig","fortschrittsbericht","0.0054"
"418","nachhaltig","bauen","0.0054"
"419","nachhaltig","pflicht","0.0053"
"420","nachhaltig","tragfähig","0.0053"
"421","nachhaltig","verbraucherpolitik","0.0053"
"422","nachhaltig","regierungsführung","0.0053"
"423","nachhaltig","bieten","0.0053"
"424","nachhaltig","je","0.0053"
"425","nachhaltig","zugleich","0.0053"
"426","nachhaltig","führen","0.0053"
"427","nachhaltig","gemeinschaft","0.0053"
"428","nachhaltig","generieren","0.0053"
"429","nachhaltig","demografischen","0.0053"
"430","nachhaltig","umweltschutz","0.0053"
"431","nachhaltig","aufstellen","0.0053"
"432","nachhaltig","andererseits","0.0052"
"433","nachhaltig","sicherheit","0.0052"
"434","nachhaltig","entwicklungszusammenarbeit","0.0052"
"435","nachhaltig","grundsicherung","0.0052"
"436","nachhaltig","kauch","0.0052"
"437","nachhaltig","mehr","0.0052"
"438","nachhaltig","bleiben","0.0052"
"439","nachhaltig","finden","0.0052"
"440","nachhaltig","konflikt","0.0052"
"441","nachhaltig","krise","0.0052"
"442","nachhaltig","griechenland","0.0052"
"443","nachhaltig","deswegen","0.0052"
"444","nachhaltig","ausrichtung","0.0051"
"445","nachhaltig","toleranz","0.0051"
"446","nachhaltig","palästinensisch","0.0051"
"447","nachhaltig","veränderung","0.0051"
"448","nachhaltig","nordafrika","0.0051"
"449","nachhaltig","wissen","0.0051"
"450","nachhaltig","lassen","0.0051"
"451","nachhaltig","dienen","0.0051"
"452","nachhaltig","ausgewogen","0.0051"
"453","nachhaltig","werben","0.0051"
"454","nachhaltig","mitgliedstaaten","0.0051"
"455","nachhaltig","fair","0.0051"
"456","nachhaltig","protokoll","0.0051"
"457","nachhaltig","einnahme","0.0051"
"458","nachhaltig","gesetzlich","0.0051"
"459","nachhaltig","beteiligen","0.0051"
"460","nachhaltig","erkenntnis","0.0051"
"461","nachhaltig","anmessen","0.0051"
"462","nachhaltig","sauber","0.005"
"463","nachhaltig","beckmeyer","0.005"
"464","nachhaltig","entscheiden","0.005"
"465","nachhaltig","verbraucher","0.005"
"466","nachhaltig","daniela","0.005"
"467","nachhaltig","bewusst","0.005"
"468","nachhaltig","zivil","0.005"
"469","nachhaltig","qualitativ","0.005"
"470","nachhaltig","groß","0.005"
"471","nachhaltig","technologie","0.005"
"472","nachhaltig","maritim","0.005"
"473","nachhaltig","währungsunion","0.005"
"474","nachhaltig","thema","0.005"
"475","nachhaltig","kind","0.005"
"476","nachhaltig","entlastung","0.005"
"477","nachhaltig","wichtigste","0.005"
"478","nachhaltig","klar","0.0049"
"479","nachhaltig","solidarität","0.0049"
"480","nachhaltig","afghanisch","0.0049"
"481","nachhaltig","faire","0.0049"
"482","nachhaltig","funktionierend","0.0049"
"483","nachhaltig","verständnis","0.0049"
"484","nachhaltig","fehlen","0.0049"
"485","nachhaltig","verankern","0.0049"
"486","nachhaltig","global","0.0049"
"487","nachhaltig","wirtschaftspolitik","0.0049"
"488","nachhaltig","schuldenbremse","0.0049"
"489","nachhaltig","stehen","0.0049"
"490","nachhaltig","verbindlich","0.0048"
"491","nachhaltig","davon","0.0048"
"492","nachhaltig","bundeswehr","0.0048"
"493","nachhaltig","dirk","0.0048"
"494","nachhaltig","innerhalb","0.0048"
"495","nachhaltig","lang","0.0048"
"496","nachhaltig","seit","0.0048"
"497","nachhaltig","form","0.0048"
"498","nachhaltig","pflege","0.0048"
"499","nachhaltig","breit","0.0048"
"500","nachhaltig","problem","0.0048"
"501","nachhaltig","straße","0.0048"
"502","nachhaltig","kurs","0.0047"
"503","nachhaltig","welch","0.0047"
"504","nachhaltig","bmz","0.0047"
"505","nachhaltig","nämlich","0.0047"
"506","nachhaltig","soldat","0.0047"
"507","nachhaltig","ausgestalten","0.0047"
"508","nachhaltig","zugunsten","0.0047"
"509","nachhaltig","ausschließen","0.0047"
"510","nachhaltig","bekämpfung","0.0047"
"511","nachhaltig","staat","0.0047"
"512","nachhaltig","klaren","0.0047"
"513","nachhaltig","euro-zone","0.0047"
"514","nachhaltig","verändern","0.0047"
"515","nachhaltig","erneuerbare","0.0047"
"516","nachhaltig","sowohl","0.0047"
"517","nachhaltig","weiterentwicklung","0.0047"
"518","nachhaltig","ort","0.0047"
"519","nachhaltig","bundesrepublik","0.0047"
"520","nachhaltig","individuell","0.0047"
"521","nachhaltig","kriterium","0.0046"
"522","nachhaltig","weiterentwickel","0.0046"
"523","nachhaltig","rede","0.0046"
"524","nachhaltig","spd","0.0046"
"525","nachhaltig","darüber","0.0046"
"526","nachhaltig","kurz","0.0046"
"527","nachhaltig","vielfalt","0.0046"
"528","nachhaltig","darin","0.0046"
"529","nachhaltig","produktivitätssteigerung","0.0046"
"530","nachhaltig","schuldenspirale","0.0046"
"531","nachhaltig","finanzschwache","0.0046"
"532","nachhaltig","ökologischer","0.0046"
"533","nachhaltig","demokratisch","0.0046"
"534","nachhaltig","aquakultur","0.0046"
"535","nachhaltig","steigend","0.0045"
"536","nachhaltig","bestehen","0.0045"
"537","nachhaltig","wirtschaftsweise","0.0045"
"538","nachhaltig","wirtschaftend","0.0045"
"539","nachhaltig","sparen","0.0045"
"540","nachhaltig","integrativ","0.0045"
"541","nachhaltig","grüne","0.0045"
"542","nachhaltig","verbraucherschutz","0.0045"
"543","nachhaltig","menschenfeindlichkeit","0.0045"
"544","nachhaltig","mehrjährige","0.0045"
"545","nachhaltig","ausdrücklich","0.0045"
"546","nachhaltig","fischen","0.0045"
"547","nachhaltig","prinzip","0.0045"
"548","nachhaltig","geld","0.0045"
"549","nachhaltig","wirkend","0.0045"
"550","nachhaltig","planet","0.0045"
"551","nachhaltig","projekt","0.0045"
"552","nachhaltig","standort","0.0045"
"553","nachhaltig","letzt","0.0045"
"554","nachhaltig","rücken","0.0045"
"555","nachhaltig","nachwachsend","0.0045"
"556","nachhaltig","sozialabbau","0.0045"
"557","nachhaltig","rohstoffversorgung","0.0045"
"558","nachhaltig","baustoffe","0.0045"
"559","nachhaltig","obwohl","0.0045"
"560","nachhaltig","lebensmittel","0.0045"
"561","nachhaltig","erwerbsminderungsrente","0.0045"
"562","nachhaltig","intensivierung","0.0045"
"563","nachhaltig","gaza","0.0044"
"564","nachhaltig","circa","0.0044"
"565","nachhaltig","wiederherstellung","0.0044"
"566","nachhaltig","einfluss","0.0044"
"567","nachhaltig","regional","0.0044"
"568","nachhaltig","vertreten","0.0044"
"569","nachhaltig","grundvoraussetzung","0.0044"
"570","nachhaltig","access","0.0044"
"571","nachhaltig","jung","0.0044"
"572","nachhaltig","beeinflusst","0.0044"
"573","nachhaltig","rechtsextremismus","0.0044"
"574","nachhaltig","erfolgen","0.0044"
"575","nachhaltig","finanzrahmen","0.0044"
"576","nachhaltig","holz","0.0044"
"577","nachhaltig","außeruniversitären","0.0044"
"578","nachhaltig","leistungsfähige","0.0044"
"579","nachhaltig","hoffen","0.0044"
"580","nachhaltig","biodiversität","0.0044"
"581","nachhaltig","schonen","0.0044"
"582","nachhaltig","produzent","0.0044"
"583","nachhaltig","demokratisierung","0.0044"
"584","nachhaltig","umweltfreundlich","0.0044"
"585","nachhaltig","partnerländern","0.0044"
"586","nachhaltig","sport","0.0044"
"587","nachhaltig","fordern","0.0044"
"588","nachhaltig","zurückgewinnen","0.0043"
"589","nachhaltig","gegensatz","0.0043"
"590","nachhaltig","erhöhen","0.0043"
"591","nachhaltig","beispielsweise","0.0043"
"592","nachhaltig","jahr","0.0043"
"593","nachhaltig","polarforschung","0.0043"
"594","nachhaltig","voranbringen","0.0043"
"595","nachhaltig","entwicklungspolitischen","0.0043"
"596","nachhaltig","gelten","0.0043"
"597","nachhaltig","gewässer","0.0043"
"598","nachhaltig","wenig","0.0043"
"599","nachhaltig","mehrwert","0.0043"
"600","nachhaltig","gesunden","0.0043"
"601","nachhaltig","solch","0.0043"
"602","nachhaltig","unerlässlich","0.0043"
"603","nachhaltig","arktis","0.0043"
"604","nachhaltig","ebenfalls","0.0043"
"605","nachhaltig","statt","0.0043"
"606","nachhaltig","liegend","0.0043"
"607","nachhaltig","teilhaben","0.0043"
"608","nachhaltig","gegenüber","0.0043"
"609","nachhaltig","zeitalter","0.0042"
"610","nachhaltig","lebensbedingungen","0.0042"
"611","nachhaltig","praxis","0.0042"
"612","nachhaltig","heimisch","0.0042"
"613","nachhaltig","alterssicherung","0.0042"
"614","nachhaltig","angehen","0.0042"
"615","nachhaltig","spielräume","0.0042"
"616","nachhaltig","schuldenkrise","0.0042"
"617","nachhaltig","tagesordnungspunkt","0.0042"
"618","nachhaltig","darauf","0.0042"
"619","nachhaltig","sage","0.0042"
"620","nachhaltig","einkommen","0.0042"
"621","nachhaltig","halten","0.0042"
"622","nachhaltig","lieb","0.0042"
"623","nachhaltig","verbot","0.0042"
"624","nachhaltig","staatsverschuldung","0.0042"
"625","nachhaltig","wertvoll","0.0042"
"626","nachhaltig","akzent","0.0042"
"627","nachhaltig","wert","0.0042"
"628","nachhaltig","konsequente","0.0042"
"629","nachhaltig","überall","0.0042"
"630","nachhaltig","gesundheitspolitik","0.0042"
"631","nachhaltig","sicherheitslage","0.0042"
"632","nachhaltig","un","0.0042"
"633","nachhaltig","zeichen","0.0042"
"634","nachhaltig","balance","0.0042"
"635","nachhaltig","nanotechnologie","0.0042"
"636","nachhaltig","innovativ","0.0042"
"637","nachhaltig","verwenden","0.0042"
"638","nachhaltig","feststellen","0.0042"
"639","nachhaltig","intelligent","0.0042"
"640","nachhaltig","partner","0.0042"
"641","nachhaltig","krisenprävention","0.0042"
"642","nachhaltig","wertschöpfung","0.0042"
"643","nachhaltig","stattdessen","0.0042"
"644","nachhaltig","parlament","0.0042"
"645","nachhaltig","immer","0.0042"
"646","nachhaltig","kluge","0.0042"
"647","nachhaltig","rufe","0.0041"
"648","nachhaltig","gemeinde","0.0041"
"649","nachhaltig","umwelt-","0.0041"
"650","nachhaltig","petra","0.0041"
"651","nachhaltig","antisemitismus","0.0041"
"652","nachhaltig","verpflichten","0.0041"
"653","nachhaltig","auswirken","0.0041"
"654","nachhaltig","erneuerbaren","0.0041"
"655","nachhaltig","einschlagen","0.0041"
"656","nachhaltig","begreifen","0.0041"
"657","nachhaltig","volkswirtschaft","0.0041"
"658","nachhaltig","bedeuten","0.0041"
"659","nachhaltig","einstellung","0.0041"
"660","nachhaltig","wirken","0.0041"
"661","nachhaltig","frage","0.0041"
"662","nachhaltig","danken","0.0041"
"663","nachhaltig","gesetz","0.0041"
"664","nachhaltig","familienpolitik","0.0041"
"665","nachhaltig","begrenzung","0.0041"
"666","nachhaltig","eintreten","0.0041"
"667","nachhaltig","notwendige","0.0041"
"668","nachhaltig","dürfen","0.004"
"669","nachhaltig","weise","0.004"
"670","nachhaltig","fest","0.004"
"671","nachhaltig","plus","0.004"
"672","nachhaltig","milliarde","0.004"
"673","nachhaltig","art","0.004"
"674","nachhaltig","rolle","0.004"
"675","nachhaltig","glaubwürdig","0.004"
"676","nachhaltig","zuletzt","0.004"
"677","nachhaltig","besonders","0.004"
"678","nachhaltig","ansehen","0.004"
"679","nachhaltig","leistungsfähigkeit","0.004"
"680","nachhaltig","liegen","0.004"
"681","nachhaltig","anreiz","0.004"
"682","nachhaltig","erzeugen","0.0039"
"683","nachhaltig","gebiet","0.0039"
"684","nachhaltig","faktor","0.0039"
"685","nachhaltig","möglichkeit","0.0039"
"686","nachhaltig","nennen","0.0039"
"687","nachhaltig","linke","0.0039"
"688","nachhaltig","stattfinden","0.0039"
"689","nachhaltig","vorschlag","0.0039"
"690","nachhaltig","uwe","0.0039"
"691","nachhaltig","effekt","0.0039"
"692","nachhaltig","nehmen","0.0039"
"693","nachhaltig","dritt","0.0039"
"694","nachhaltig","bund","0.0039"
"695","nachhaltig","zwingen","0.0039"
"696","nachhaltig","dabei","0.0039"
"697","nachhaltig","druck","0.0039"
"698","nachhaltig","heute","0.0039"
"699","nachhaltig","umfeld","0.0039"
"700","nachhaltig","einzeln","0.0039"
"701","nachhaltig","landwirt","0.0039"
"702","nachhaltig","modernisierung","0.0039"
"703","nachhaltig","profitieren","0.0039"
"704","nachhaltig","fokus","0.0039"
"705","nachhaltig","fuß","0.0039"
"706","nachhaltig","zugrunde","0.0038"
"707","nachhaltig","festlegen","0.0038"
"708","nachhaltig","berücksichtigen","0.0038"
"709","nachhaltig","potenzial","0.0038"
"710","nachhaltig","euro","0.0038"
"711","nachhaltig","binden","0.0038"
"712","nachhaltig","streitkräfte","0.0038"
"713","nachhaltig","frühzeitig","0.0038"
"714","nachhaltig","außerdem","0.0038"
"715","nachhaltig","reduzierung","0.0038"
"716","nachhaltig","unterstreichen","0.0038"
"717","nachhaltig","versprechen","0.0038"
"718","nachhaltig","fiskalpakt","0.0038"
"719","nachhaltig","jugendliche","0.0038"
"720","nachhaltig","million","0.0038"
"721","nachhaltig","erwarten","0.0038"
"722","nachhaltig","ende","0.0038"
"723","nachhaltig","konkrete","0.0038"
"724","nachhaltig","nähern","0.0038"
"725","nachhaltig","handel","0.0038"
"726","nachhaltig","mittelpunkt","0.0037"
"727","nachhaltig","gesetzentwurf","0.0037"
"728","nachhaltig","halte","0.0037"
"729","nachhaltig","forderung","0.0037"
"730","nachhaltig","übernehmen","0.0037"
"731","nachhaltig","täter","0.0037"
"732","nachhaltig","zügig","0.0037"
"733","nachhaltig","einführung","0.0037"
"734","nachhaltig","arabisch","0.0037"
"735","nachhaltig","tun","0.0037"
"736","nachhaltig","betroffene","0.0037"
"737","nachhaltig","markt","0.0037"
"738","nachhaltig","eu-kommission","0.0037"
"739","nachhaltig","gesetzliche","0.0037"
"740","nachhaltig","teil","0.0036"
"741","nachhaltig","bestandteil","0.0036"
"742","nachhaltig","dringen","0.0036"
"743","nachhaltig","nation","0.0036"
"744","nachhaltig","produzieren","0.0036"
"745","nachhaltig","kraft","0.0036"
"746","nachhaltig","nachfrage","0.0036"
"747","nachhaltig","sanierung","0.0036"
"748","nachhaltig","aktiv","0.0036"
"749","nachhaltig","gesellschaftliche","0.0036"
"750","nachhaltig","erstmals","0.0036"
"751","nachhaltig","cdu","0.0036"
"752","nachhaltig","aktionsplan","0.0036"
"753","nachhaltig","heil","0.0036"
"754","nachhaltig","michael","0.0036"
"755","nachhaltig","geraten","0.0036"
"756","nachhaltig","energieeffizienz","0.0036"
"757","nachhaltig","freund","0.0036"
"758","nachhaltig","zielen","0.0036"
"759","nachhaltig","versuchen","0.0036"
"760","nachhaltig","bitten","0.0036"
"761","nachhaltig","definieren","0.0036"
"762","nachhaltig","kommission","0.0036"
"763","nachhaltig","einzig","0.0036"
"764","nachhaltig","beteiligung","0.0035"
"765","nachhaltig","system","0.0035"
"766","nachhaltig","aussehen","0.0035"
"767","nachhaltig","erweitern","0.0035"
"768","nachhaltig","niveau","0.0035"
"769","nachhaltig","zudem","0.0035"
"770","nachhaltig","verbinden","0.0035"
"771","nachhaltig","betonen","0.0035"
"772","nachhaltig","idee","0.0035"
"773","nachhaltig","derjenige","0.0035"
"774","nachhaltig","vorstellen","0.0035"
"775","nachhaltig","beseitigen","0.0035"
"776","nachhaltig","staatliche","0.0035"
"777","nachhaltig","abbauen","0.0035"
"778","nachhaltig","schnellen","0.0034"
"779","nachhaltig","elberaum","0.0034"
"780","nachhaltig","rohstoffeinnahmen","0.0034"
"781","nachhaltig","demokratieoffensive","0.0034"
"782","nachhaltig","ressourcenschonenden","0.0034"
"783","nachhaltig","hinblick","0.0034"
"784","nachhaltig","wohl","0.0034"
"785","nachhaltig","dämmstoffe","0.0034"
"786","nachhaltig","enthüllung","0.0034"
"787","nachhaltig","rohstoffwirtschaft","0.0034"
"788","nachhaltig","verbraucherschutzpolitik","0.0034"
"789","nachhaltig","werfen","0.0034"
"790","nachhaltig","ressourcenpolitik","0.0034"
"791","nachhaltig","janeiro","0.0034"
"792","nachhaltig","deutsches","0.0034"
"793","nachhaltig","kettenduldungen","0.0034"
"794","nachhaltig","gfp","0.0034"
"795","nachhaltig","schonend","0.0034"
"796","nachhaltig","schienengüterverkehr","0.0034"
"797","nachhaltig","enthalten","0.0034"
"798","nachhaltig","csr","0.0034"
"799","nachhaltig","leibliche","0.0034"
"800","nachhaltig","entwurf","0.0034"
"801","nachhaltig","ressourcenschonung","0.0034"
"802","nachhaltig","energiesystem","0.0034"
"803","nachhaltig","arktisch","0.0034"
"804","nachhaltig","zukunftsorientierte","0.0034"
"805","nachhaltig","schuldentragfähigkeit","0.0034"
"806","nachhaltig","ressourceneffizienzprogramm","0.0034"
"807","nachhaltig","sagen","0.0034"
"808","nachhaltig","letztendlich","0.0034"
"809","nachhaltig","erkennen","0.0034"
"810","nachhaltig","agrar-","0.0034"
"811","nachhaltig","kompetenz","0.0034"
"812","nachhaltig","baugesetzbuches","0.0034"
"813","nachhaltig","alphabetisierung","0.0034"
"814","nachhaltig","dame","0.0034"
"815","nachhaltig","rechtsextremistische","0.0034"
"816","nachhaltig","waffenstillstand","0.0034"
"817","nachhaltig","längerfristig","0.0034"
"818","nachhaltig","kosten","0.0034"
"819","nachhaltig","schienenlärm","0.0034"
"820","nachhaltig","kritisieren","0.0033"
"821","nachhaltig","eindämmung","0.0033"
"822","nachhaltig","rohstoffpartnerschaften","0.0033"
"823","nachhaltig","patient","0.0033"
"824","nachhaltig","sicherheitsinteressen","0.0033"
"825","nachhaltig","erarbeiten","0.0033"
"826","nachhaltig","entscheidung","0.0033"
"827","nachhaltig","strukturfonds","0.0033"
"828","nachhaltig","zukunftsfest","0.0033"
"829","nachhaltig","biologische","0.0033"
"830","nachhaltig","bildungssystems","0.0033"
"831","nachhaltig","rohstoffpolitik","0.0033"
"832","nachhaltig","personalpolitik","0.0033"
"833","nachhaltig","haltung","0.0033"
"834","nachhaltig","schienenverkehr","0.0033"
"835","nachhaltig","regelung","0.0033"
"836","nachhaltig","angemessen","0.0033"
"837","nachhaltig","bundesprogramm","0.0033"
"838","nachhaltig","ordnen","0.0033"
"839","nachhaltig","sorgsam","0.0033"
"840","nachhaltig","genutzt","0.0033"
"841","nachhaltig","bevölkerungsgruppen","0.0033"
"842","nachhaltig","ausbeuterische","0.0033"
"843","nachhaltig","grundbildung","0.0033"
"844","nachhaltig","defizit","0.0033"
"845","nachhaltig","lehrerbildung","0.0033"
"846","nachhaltig","steuer-","0.0033"
"847","nachhaltig","ökonomie","0.0033"
"848","nachhaltig","durchaus","0.0033"
"849","nachhaltig","volkswirtschaften","0.0033"
"850","nachhaltig","umstieg","0.0033"
"851","nachhaltig","nachbarstaaten","0.0033"
"852","nachhaltig","ersatz","0.0033"
"853","nachhaltig","open","0.0033"
"854","nachhaltig","ganzes","0.0033"
"855","nachhaltig","biologisch","0.0033"
"856","nachhaltig","gebhart","0.0033"
"857","nachhaltig","fisch","0.0033"
"858","nachhaltig","ostsee","0.0033"
"859","nachhaltig","schuldenabbau","0.0033"
"860","nachhaltig","selbsthilfe","0.0033"
"861","nachhaltig","kampf","0.0033"
"862","nachhaltig","rentenpolitik","0.0033"
"863","nachhaltig","zielgerichtet","0.0033"
"864","nachhaltig","vortragen","0.0033"
"865","nachhaltig","grüner","0.0033"
"866","nachhaltig","rahmenprogramm","0.0033"
"867","nachhaltig","exzellenzinitiative","0.0033"
"868","nachhaltig","stiftung","0.0033"
"869","nachhaltig","pump","0.0033"
"870","nachhaltig","selbstständige","0.0033"
"871","nachhaltig","verringerung","0.0033"
"872","nachhaltig","entwicklungshilfe","0.0033"
"873","nachhaltig","pfad","0.0033"
"874","nachhaltig","bewerten","0.0033"
"875","nachhaltig","minister","0.0033"
"876","nachhaltig","erhaltung","0.0033"
"877","nachhaltig","statistische","0.0032"
"878","nachhaltig","umweltpolitik","0.0032"
"879","nachhaltig","gesetzentwürfen","0.0032"
"880","nachhaltig","ganzheitlich","0.0032"
"881","nachhaltig","belastung","0.0032"
"882","nachhaltig","ilo","0.0032"
"883","nachhaltig","durchsetzen","0.0032"
"884","nachhaltig","verlässlich","0.0032"
"885","nachhaltig","lediglich","0.0032"
"886","nachhaltig","afghane","0.0032"
"887","nachhaltig","letztlich","0.0032"
"888","nachhaltig","ständig","0.0032"
"889","nachhaltig","gefährden","0.0032"
"890","nachhaltig","bundesamtes","0.0032"
"891","nachhaltig","ludwig","0.0032"
"892","nachhaltig","arbeitsmarkt","0.0032"
"893","nachhaltig","einsatz","0.0032"
"894","nachhaltig","glauben","0.0032"
"895","nachhaltig","schwerpunkt","0.0032"
"896","nachhaltig","achten","0.0032"
"897","nachhaltig","aus-","0.0032"
"898","nachhaltig","wodurch","0.0032"
"899","nachhaltig","jed","0.0032"
"900","nachhaltig","weiterentwickeln","0.0032"
"901","nachhaltig","spürbar","0.0032"
"902","nachhaltig","unabdingbar","0.0032"
"903","nachhaltig","hubertus","0.0032"
"904","nachhaltig","praktikabel","0.0032"
"905","nachhaltig","institutionell","0.0032"
"906","nachhaltig","ertrag","0.0032"
"907","nachhaltig","scheitern","0.0032"
"908","nachhaltig","lebenssituation","0.0032"
"909","nachhaltig","entwicklungsländer","0.0032"
"910","nachhaltig","gewährleistung","0.0032"
"911","nachhaltig","becker","0.0032"
"912","nachhaltig","einhalten","0.0032"
"913","nachhaltig","soldatinnen","0.0032"
"914","nachhaltig","strukturreformen","0.0032"
"915","nachhaltig","diskussion","0.0032"
"916","nachhaltig","informieren","0.0032"
"917","nachhaltig","hempelmann","0.0032"
"918","nachhaltig","traditionell","0.0032"
"919","nachhaltig","erfordernis","0.0032"
"920","nachhaltig","wahrung","0.0032"
"921","nachhaltig","konventionell","0.0032"
"922","nachhaltig","wirkungsvoll","0.0032"
"923","nachhaltig","ursache","0.0032"
"924","nachhaltig","motor","0.0032"
"925","nachhaltig","beachtung","0.0032"
"926","nachhaltig","allein","0.0032"
"927","nachhaltig","verstärken","0.0031"
"928","nachhaltig","information","0.0031"
"929","nachhaltig","friedliche","0.0031"
"930","nachhaltig","bundestag","0.0031"
"931","nachhaltig","leistung","0.0031"
"932","nachhaltig","stören","0.0031"
"933","nachhaltig","nachdrücklich","0.0031"
"934","nachhaltig","daseinsvorsorge","0.0031"
"935","nachhaltig","rat","0.0031"
"936","nachhaltig","betreffend","0.0031"
"937","nachhaltig","ab","0.0031"
"938","nachhaltig","material","0.0031"
"939","nachhaltig","lebensqualität","0.0031"
"940","nachhaltig","palästinenser","0.0031"
"941","nachhaltig","jedoch","0.0031"
"942","nachhaltig","schon","0.0031"
"943","nachhaltig","digitale","0.0031"
"944","nachhaltig","geben","0.0031"
"945","nachhaltig","bürgerversicherung","0.0031"
"946","nachhaltig","beid","0.0031"
"947","nachhaltig","abhängen","0.0031"
"948","nachhaltig","sehen","0.0031"
"949","nachhaltig","mitglied","0.0031"
"950","nachhaltig","anstoßen","0.0031"
"951","nachhaltig","offensichtlich","0.0031"
"952","nachhaltig","verschieden","0.0031"
"953","nachhaltig","desto","0.0031"
"954","nachhaltig","gesine","0.0031"
"955","nachhaltig","arbeitsplätzen","0.0031"
"956","nachhaltig","energiekonzept","0.0031"
"957","nachhaltig","bloß","0.0031"
"958","nachhaltig","vereinte","0.0031"
"959","nachhaltig","gewinnen","0.0031"
"960","nachhaltig","fundament","0.0031"
"961","nachhaltig","landwirtschaftlich","0.0031"
"962","nachhaltig","nachdem","0.0031"
"963","nachhaltig","zurückkehren","0.0031"
"964","nachhaltig","schließen","0.0031"
"965","nachhaltig","leben","0.0031"
"966","nachhaltig","legislaturperiode","0.0031"
"967","nachhaltig","leitlinien","0.0031"
"968","nachhaltig","sichtbar","0.0031"
"969","nachhaltig","kleine","0.0031"
"970","nachhaltig","verpflichtung","0.0031"
"971","nachhaltig","damals","0.0031"
"972","nachhaltig","anfang","0.0031"
"973","nachhaltig","ansprechen","0.0031"
"974","nachhaltig","klimawandel","0.0031"
"975","nachhaltig","konjunktur","0.0031"
"976","nachhaltig","nie","0.0031"
"977","nachhaltig","verdeutlichen","0.0031"
"978","nachhaltig","vergleich","0.003"
"979","nachhaltig","hintergrund","0.003"
"980","nachhaltig","laut","0.003"
"981","nachhaltig","beenden","0.003"
"982","nachhaltig","vermittlungsausschuss","0.003"
"983","nachhaltig","beruhen","0.003"
"984","nachhaltig","seite","0.003"
"985","nachhaltig","bewusstsein","0.003"
"986","nachhaltig","entfalten","0.003"
"987","nachhaltig","industrie","0.003"
"988","nachhaltig","gleichermaßen","0.003"
"989","nachhaltig","ernsthaft","0.003"
"990","nachhaltig","einklang","0.003"
"991","nachhaltig","absichern","0.003"
"992","nachhaltig","lötzsch","0.003"
"993","nachhaltig","verlässliche","0.003"
"994","nachhaltig","danach","0.003"
"995","nachhaltig","absicherung","0.003"
"996","nachhaltig","anerkennen","0.003"
"997","nachhaltig","annahme","0.003"
"998","nachhaltig","elbe","0.003"
"999","nachhaltig","gericht","0.003"
"1000","nachhaltig","somit","0.003"
"1001","nachhaltig","bild","0.003"
"1002","nachhaltig","bislang","0.003"
"1003","nachhaltig","versorgen","0.003"
"1004","nachhaltig","drängen","0.003"
"1005","nachhaltig","einbringen","0.003"
"1006","nachhaltig","beginn","0.003"
"1007","nachhaltig","jährlich","0.003"
"1008","nachhaltig","rente","0.003"
"1009","nachhaltig","daneben","0.003"
"1010","nachhaltig","zumindest","0.003"
"1011","nachhaltig","energie-","0.003"
"1012","nachhaltig","ergeben","0.003"
"1013","nachhaltig","sodass","0.003"
"1014","nachhaltig","entsprechen","0.003"
"1015","nachhaltig","pflegeversicherung","0.003"
"1016","nachhaltig","altersvorsorge","0.003"
"1017","nachhaltig","jugendarbeitslosigkeit","0.003"
"1018","nachhaltig","ausgehen","0.003"
"1019","nachhaltig","grundsatz","0.003"
"1020","nachhaltig","cornelia","0.003"
"1021","nachhaltig","einigung","0.003"
"1022","nachhaltig","verfügung","0.003"
"1023","nachhaltig","mann","0.003"
"1024","nachhaltig","gesetzgebung","0.003"
"1025","nachhaltig","gipfel","0.003"
"1026","nachhaltig","sicherlich","0.003"
"1027","nachhaltig","familie","0.003"
"1028","nachhaltig","etwa","0.003"
"1029","nachhaltig","einbeziehung","0.003"
"1030","nachhaltig","haushaltskonsolidierung","0.003"
"1031","nachhaltig","einbinden","0.003"
"1032","nachhaltig","qualität","0.003"
"1033","nachhaltig","widmen","0.003"
"1034","nachhaltig","bewirken","0.003"
"1035","nachhaltig","einsparung","0.003"
"1036","nachhaltig","hinsichtlich","0.003"
"1037","nachhaltig","natur","0.003"
"1038","nachhaltig","gang","0.0029"
"1039","nachhaltig","hierzu","0.0029"
"1040","nachhaltig","beschäftigte","0.0029"
"1041","nachhaltig","sorgfältig","0.0029"
"1042","nachhaltig","potenziale","0.0029"
"1043","nachhaltig","genauso","0.0029"
"1044","nachhaltig","echt","0.0029"
"1045","nachhaltig","erstens","0.0029"
"1046","nachhaltig","besuch","0.0029"
"1047","nachhaltig","vorfeld","0.0029"
"1048","nachhaltig","mithilfe","0.0029"
"1049","nachhaltig","gesund","0.0029"
"1050","nachhaltig","betrieblich","0.0029"
"1051","nachhaltig","last","0.0029"
"1052","nachhaltig","kritisch","0.0029"
"1053","nachhaltig","aufarbeitung","0.0029"
"1054","nachhaltig","zunehmend","0.0029"
"1055","nachhaltig","ausstatten","0.0029"
"1056","nachhaltig","sicherheitsbehörden","0.0029"
"1057","nachhaltig","friedlich","0.0029"
"1058","nachhaltig","privat","0.0029"
"1059","nachhaltig","stets","0.0029"
"1060","nachhaltig","aufschwung","0.0029"
"1061","nachhaltig","mittelfristig","0.0029"
"1062","nachhaltig","niemals","0.0029"
"1063","nachhaltig","miteinander","0.0029"
"1064","nachhaltig","steuer","0.0029"
"1065","nachhaltig","arbeitsmarktpolitik","0.0029"
"1066","nachhaltig","langen","0.0029"
"1067","nachhaltig","vorbild","0.0029"
"1068","nachhaltig","ferner","0.0029"
"1069","nachhaltig","vertrag","0.0029"
"1070","nachhaltig","begegnen","0.0029"
"1071","nachhaltig","resolution","0.0029"
"1072","nachhaltig","vergangen","0.0029"
"1073","nachhaltig","währung","0.0029"
"1074","nachhaltig","schöne","0.0029"
"1075","nachhaltig","universität","0.0029"
"1076","nachhaltig","stammen","0.0029"
"1077","nachhaltig","eigen","0.0029"
"1078","nachhaltig","kollege","0.0029"
"1079","nachhaltig","angesichts","0.0029"
"1080","nachhaltig","zuwanderung","0.0029"
"1081","nachhaltig","rechtsstaat","0.0029"
"1082","nachhaltig","militärisch","0.0029"
"1083","nachhaltig","mögen","0.0029"
"1084","nachhaltig","verschuldung","0.0029"
"1085","nachhaltig","energetische","0.0029"
"1086","nachhaltig","erleben","0.0029"
"1087","nachhaltig","säule","0.0029"
"1088","nachhaltig","aspekt","0.0029"
"1089","nachhaltig","bald","0.0029"
"1090","nachhaltig","möglichst","0.0029"
"1091","nachhaltig","dimension","0.0029"
"1092","nachhaltig","sachverständige","0.0029"
"1093","nachhaltig","gefordert","0.0029"
"1094","nachhaltig","bundesrat","0.0029"
"1095","nachhaltig","jeglich","0.0029"
"1096","nachhaltig","recht","0.0028"
"1097","nachhaltig","bundesweit","0.0028"
"1098","nachhaltig","nahe","0.0028"
"1099","nachhaltig","grenze","0.0028"
"1100","nachhaltig","bisher","0.0028"
"1101","nachhaltig","verbunden","0.0028"
"1102","nachhaltig","massiv","0.0028"
"1103","nachhaltig","feld","0.0028"
"1104","nachhaltig","gleichen","0.0028"
"1105","nachhaltig","stellung","0.0028"
"1106","nachhaltig","eignen","0.0028"
"1107","nachhaltig","verabschieden","0.0028"
"1108","nachhaltig","antwort","0.0028"
"1109","nachhaltig","rolf","0.0028"
"1110","nachhaltig","verstehen","0.0028"
"1111","nachhaltig","erwartung","0.0028"
"1112","nachhaltig","intensiv","0.0028"
"1113","nachhaltig","haus","0.0028"
"1114","nachhaltig","agieren","0.0028"
"1115","nachhaltig","schließlich","0.0028"
"1116","nachhaltig","kulturell","0.0028"
"1117","nachhaltig","steigern","0.0028"
"1118","nachhaltig","ebene","0.0028"
"1119","nachhaltig","schaden","0.0028"
"1120","nachhaltig","fehler","0.0028"
"1121","nachhaltig","kaum","0.0028"
"1122","nachhaltig","zahlreiche","0.0028"
"1123","nachhaltig","eigene","0.0028"
"1124","nachhaltig","zwei","0.0028"
"1125","nachhaltig","falle","0.0028"
"1126","nachhaltig","bekennen","0.0028"
"1127","nachhaltig","hervorragend","0.0028"
"1128","nachhaltig","aufgeben","0.0028"
"1129","nachhaltig","bestimmen","0.0028"
"1130","nachhaltig","seitens","0.0028"
"1131","nachhaltig","bereitstellen","0.0028"
"1132","nachhaltig","medizinisch","0.0028"
"1133","nachhaltig","behindern","0.0028"
"1134","nachhaltig","bedürfnis","0.0028"
"1135","nachhaltig","fähigkeit","0.0028"
"1136","nachhaltig","umgehen","0.0028"
"1137","nachhaltig","lehre","0.0028"
"1138","nachhaltig","konsequenz","0.0028"
"1139","nachhaltig","gehören","0.0028"
"1140","nachhaltig","genug","0.0028"
"1141","nachhaltig","passieren","0.0028"
"1142","nachhaltig","geschäftsordnung","0.0028"
"1143","nachhaltig","finanztransaktionsteuer","0.0027"
"1144","nachhaltig","sabine","0.0027"
"1145","nachhaltig","einseitig","0.0027"
"1146","nachhaltig","thoma","0.0027"
"1147","nachhaltig","bezahlen","0.0027"
"1148","nachhaltig","satz","0.0027"
"1149","nachhaltig","hängen","0.0027"
"1150","nachhaltig","daraus","0.0027"
"1151","nachhaltig","bestehend","0.0027"
"1152","nachhaltig","justiz","0.0027"
"1153","nachhaltig","prüfen","0.0027"
"1154","nachhaltig","eher","0.0027"
"1155","nachhaltig","praktisch","0.0027"
"1156","nachhaltig","daran","0.0027"
"1157","nachhaltig","hinweisen","0.0027"
"1158","nachhaltig","finanzmärkte","0.0027"
"1159","nachhaltig","prävention","0.0027"
"1160","nachhaltig","blockieren","0.0027"
"1161","nachhaltig","monat","0.0027"
"1162","nachhaltig","erbringen","0.0027"
"1163","nachhaltig","kollegin","0.0027"
"1164","nachhaltig","außenpolitik","0.0027"
"1165","nachhaltig","dr.","0.0027"
"1166","nachhaltig","beziehung","0.0027"
"1167","nachhaltig","handlungsbedarf","0.0027"
"1168","nachhaltig","drei","0.0027"
"1169","nachhaltig","dahin","0.0027"
"1170","nachhaltig","gebrauchen","0.0027"
"1171","nachhaltig","öffentlichkeit","0.0027"
"1172","nachhaltig","marktwirtschaft","0.0027"
"1173","nachhaltig","zivilgesellschaft","0.0027"
"1174","nachhaltig","zitieren","0.0027"
"1175","nachhaltig","transparent","0.0027"
"1176","nachhaltig","erleichtern","0.0027"
"1177","nachhaltig","stuttgart","0.0027"
"1178","nachhaltig","zusammenhang","0.0027"
"1179","nachhaltig","verlieren","0.0027"
"1180","nachhaltig","de","0.0027"
"1181","nachhaltig","beruflich","0.0027"
"1182","nachhaltig","nationale","0.0027"
"1183","nachhaltig","transparenz","0.0027"
"1184","nachhaltig","zuerst","0.0027"
"1185","nachhaltig","diskutieren","0.0026"
"1186","nachhaltig","plan","0.0026"
"1187","nachhaltig","ausführen","0.0026"
"1188","nachhaltig","akteur","0.0026"
"1189","nachhaltig","akzeptanz","0.0026"
"1190","nachhaltig","wachsen","0.0026"
"1191","nachhaltig","kasse","0.0026"
"1192","nachhaltig","auge","0.0026"
"1193","nachhaltig","beteiligte","0.0026"
"1194","nachhaltig","ii","0.0026"
"1195","nachhaltig","teilen","0.0026"
"1196","nachhaltig","vergangenheit","0.0026"
"1197","nachhaltig","wort","0.0026"
"1198","nachhaltig","vorteil","0.0026"
"1199","nachhaltig","hoffnung","0.0026"
"1200","nachhaltig","völlig","0.0026"
"1201","nachhaltig","anschließen","0.0026"
"1202","nachhaltig","rein","0.0026"
"1203","nachhaltig","gefahr","0.0026"
"1204","nachhaltig","notwendigkeit","0.0026"
"1205","nachhaltig","grundsätzlich","0.0026"
"1206","nachhaltig","arbeitslosigkeit","0.0025"
"1207","nachhaltig","aufnehmen","0.0025"
"1208","nachhaltig","zustand","0.0025"
"1209","nachhaltig","freiwillig","0.0025"
"1210","nachhaltig","begrenzen","0.0025"
"1211","nachhaltig","konkret","0.0025"
"1212","nachhaltig","anwendung","0.0025"
"1213","nachhaltig","ankommen","0.0025"
"1214","nachhaltig","fortsetzen","0.0025"
"1215","nachhaltig","reich","0.0025"
"1216","nachhaltig","stellungnahme","0.0025"
"1217","nachhaltig","experte","0.0025"
"1218","nachhaltig","übrigen","0.0025"
"1219","nachhaltig","herstellen","0.0025"
"1220","nachhaltig","fragen","0.0025"
"1221","nachhaltig","fällen","0.0025"
"1222","nachhaltig","belasten","0.0025"
"1223","nachhaltig","gemäß","0.0025"
"1224","nachhaltig","treten","0.0025"
"1225","nachhaltig","sinken","0.0025"
"1226","nachhaltig","heraus","0.0025"
"1227","nachhaltig","geschehen","0.0025"
"1228","nachhaltig","aufgrund","0.0025"
"1229","nachhaltig","dar","0.0025"
"1230","nachhaltig","stichwort","0.0025"
"1231","nachhaltig","umfang","0.0025"
"1232","nachhaltig","ausschließlich","0.0025"
"1233","nachhaltig","schwierig","0.0025"
"1234","nachhaltig","vorschrift","0.0025"
"1235","nachhaltig","spielen","0.0025"
"1236","nachhaltig","beginnen","0.0025"
"1237","nachhaltig","finanzielle","0.0025"
"1238","nachhaltig","wunsch","0.0025"
"1239","nachhaltig","ordnung","0.0025"
"1240","nachhaltig","erlauben","0.0025"
"1241","nachhaltig","vorstellung","0.0024"
"1242","nachhaltig","gewiß","0.0024"
"1243","nachhaltig","alternative","0.0024"
"1244","nachhaltig","osten","0.0024"
"1245","nachhaltig","verordnung","0.0024"
"1246","nachhaltig","rund","0.0024"
"1247","nachhaltig","verlassen","0.0024"
"1248","nachhaltig","planen","0.0024"
"1249","nachhaltig","steuerzahler","0.0024"
"1250","nachhaltig","alt","0.0024"
"1251","nachhaltig","einstellen","0.0024"
"1252","nachhaltig","wahrnehmen","0.0024"
"1253","nachhaltig","hand","0.0024"
"1254","nachhaltig","einbeziehen","0.0024"
"1255","nachhaltig","bundesländern","0.0024"
"1256","nachhaltig","überlegen","0.0024"
"1257","nachhaltig","denken","0.0024"
"1258","nachhaltig","grund","0.0024"
"1259","nachhaltig","erneut","0.0024"
"1260","nachhaltig","herr","0.0024"
"1261","nachhaltig","dennoch","0.0024"
"1262","nachhaltig","vermeiden","0.0024"
"1263","nachhaltig","zweitens","0.0024"
"1264","nachhaltig","organisation","0.0024"
"1265","nachhaltig","schnell","0.0024"
"1266","nachhaltig","zusammen","0.0024"
"1267","nachhaltig","csu","0.0023"
"1268","nachhaltig","lauten","0.0023"
"1269","nachhaltig","egal","0.0023"
"1270","nachhaltig","erfahren","0.0023"
"1271","nachhaltig","vielmehr","0.0023"
"1272","nachhaltig","internet","0.0023"
"1273","nachhaltig","allgemein","0.0023"
"1274","nachhaltig","preis","0.0023"
"1275","nachhaltig","niedrig","0.0023"
"1276","nachhaltig","oft","0.0023"
"1277","nachhaltig","bewegen","0.0023"
"1278","nachhaltig","liefern","0.0023"
"1279","nachhaltig","schreiben","0.0023"
"1280","nachhaltig","linie","0.0023"
"1281","nachhaltig","energieeffizientes","0.0023"
"1282","nachhaltig","marktvorteil","0.0023"
"1283","nachhaltig","ordnungspolitisches","0.0023"
"1284","nachhaltig","fischereisektors","0.0023"
"1285","nachhaltig","mineralölbestandteilen","0.0023"
"1286","nachhaltig","ressourcenschonende","0.0023"
"1287","nachhaltig","petrochemischer","0.0023"
"1288","nachhaltig","fördersystematik","0.0023"
"1289","nachhaltig","waldwirtschaft","0.0023"
"1290","nachhaltig","produktionsländern","0.0023"
"1291","nachhaltig","meeresressourcen","0.0023"
"1292","nachhaltig","versorgungsbedarf","0.0023"
"1293","nachhaltig","landbewirtschaftung","0.0023"
"1294","nachhaltig","unumkehrbare","0.0023"
"1295","nachhaltig","überlegt","0.0023"
"1296","nachhaltig","importeur","0.0023"
"1297","nachhaltig","vorschlagen","0.0023"
"1298","nachhaltig","arbeitnehmerrechten","0.0023"
"1299","nachhaltig","nordostatlantik","0.0023"
"1300","nachhaltig","saatgutverkehrsgesetz","0.0023"
"1301","nachhaltig","eu-energiefahrplan","0.0023"
"1302","nachhaltig","förderinstrumenten","0.0023"
"1303","nachhaltig","bestandsregulierung","0.0023"
"1304","nachhaltig","multifunktional","0.0023"
"1305","nachhaltig","verkehrswende","0.0023"
"1306","nachhaltig","profilbildung","0.0023"
"1307","nachhaltig","gruppe","0.0023"
"1308","nachhaltig","investitionspolitik","0.0023"
"1309","nachhaltig","gesundheitsprävention","0.0023"
"1310","nachhaltig","un-konferenz","0.0023"
"1311","nachhaltig","umweltverträglichen","0.0023"
"1312","nachhaltig","privatsektor","0.0023"
"1313","nachhaltig","jugendwerkstätten","0.0023"
"1314","nachhaltig","bundeswaldgesetz","0.0023"
"1315","nachhaltig","zukunftstechnologie","0.0023"
"1316","nachhaltig","renaturieren","0.0023"
"1317","nachhaltig","garanten","0.0023"
"1318","nachhaltig","produktive","0.0023"
"1319","nachhaltig","wachstumsorientierten","0.0023"
"1320","nachhaltig","bewässerung","0.0023"
"1321","nachhaltig","zielländern","0.0023"
"1322","nachhaltig","klimaschädliche","0.0023"
"1323","nachhaltig","suchen","0.0023"
"1324","nachhaltig","staatsführung","0.0023"
"1325","nachhaltig","zukunftsvorsorge","0.0023"
"1326","nachhaltig","präventionsleistungen","0.0023"
"1327","nachhaltig","fischerin","0.0023"
"1328","nachhaltig","emas","0.0023"
"1329","nachhaltig","erfolgreiche","0.0023"
"1330","nachhaltig","wachstumspfad","0.0023"
"1331","nachhaltig","strohfeuer","0.0023"
"1332","nachhaltig","finanzpolitischer","0.0023"
"1333","nachhaltig","fangmengen","0.0023"
"1334","nachhaltig","besonder","0.0023"
"1335","nachhaltig","beschäftigungsfähigkeit","0.0023"
"1336","nachhaltig","landwirtinnen","0.0023"
"1337","nachhaltig","spitzenforschung","0.0023"
"1338","nachhaltig","nutzpflanzen","0.0023"
"1339","nachhaltig","produktionsbedingungen","0.0023"
"1340","nachhaltig","bevölkerungsentwicklung","0.0023"
"1341","nachhaltig","agrarsektor","0.0023"
"1342","nachhaltig","bedingen","0.0023"
"1343","nachhaltig","cabos","0.0023"
"1344","nachhaltig","nische","0.0023"
"1345","nachhaltig","zukunftsorientierten","0.0023"
"1346","nachhaltig","eigentumsrechte","0.0023"
"1347","nachhaltig","konsolidierungskurs","0.0023"
"1348","nachhaltig","stoffliche","0.0023"
"1349","nachhaltig","gesundheitsvorsorge","0.0023"
"1350","nachhaltig","au","0.0023"
"1351","nachhaltig","zivilgesellschaften","0.0023"
"1352","nachhaltig","millenniumsentwicklungsziele","0.0023"
"1353","nachhaltig","finanzund","0.0023"
"1354","nachhaltig","verschwörungstheorien","0.0023"
"1355","nachhaltig","myanmars","0.0023"
"1356","nachhaltig","demenzkranke","0.0023"
"1357","nachhaltig","wachstumspolitik","0.0023"
"1358","nachhaltig","exportschlager","0.0023"
"1359","nachhaltig","wachstumskräfte","0.0023"
"1360","nachhaltig","agrarwirtschaft","0.0023"
"1361","nachhaltig","donau","0.0023"
"1362","nachhaltig","versorgungsstrukturen","0.0023"
"1363","nachhaltig","empfängerland","0.0023"
"1364","nachhaltig","universitär","0.0023"
"1365","nachhaltig","stetige","0.0023"
"1366","nachhaltig","greening","0.0023"
"1367","nachhaltig","pflanzenschutz","0.0023"
"1368","nachhaltig","euro-rettungsschirm","0.0023"
"1369","nachhaltig","schrumpfend","0.0023"
"1370","nachhaltig","gap","0.0023"
"1371","nachhaltig","klimaschutzpolitik","0.0023"
"1372","nachhaltig","konsistente","0.0023"
"1373","nachhaltig","stadtentwicklungspolitik","0.0023"
"1374","nachhaltig","saatgut","0.0023"
"1375","nachhaltig","economy","0.0023"
"1376","nachhaltig","christlichliberale","0.0023"
"1377","nachhaltig","vorsorgend","0.0023"
"1378","nachhaltig","weltöffentlichkeit","0.0023"
"1379","nachhaltig","einklagbar","0.0023"
"1380","nachhaltig","zielgerichtete","0.0023"
"1381","nachhaltig","rohstoffsektor","0.0023"
"1382","nachhaltig","corporate","0.0023"
"1383","nachhaltig","referat","0.0022"
"1384","nachhaltig","milliardenschwere","0.0022"
"1385","nachhaltig","finanzsituation","0.0022"
"1386","nachhaltig","ausrüsten","0.0022"
"1387","nachhaltig","fischarten","0.0022"
"1388","nachhaltig","justieren","0.0022"
"1389","nachhaltig","tragbar","0.0022"
"1390","nachhaltig","finanzplatz","0.0022"
"1391","nachhaltig","selektiv","0.0022"
"1392","nachhaltig","steuerbefreiung","0.0022"
"1393","nachhaltig","preisen","0.0022"
"1394","nachhaltig","sensibilisierung","0.0022"
"1395","nachhaltig","energiebereich","0.0022"
"1396","nachhaltig","schwellen-","0.0022"
"1397","nachhaltig","pflege-bahr","0.0022"
"1398","nachhaltig","konsens","0.0022"
"1399","nachhaltig","geschlossenheit","0.0022"
"1400","nachhaltig","befriedung","0.0022"
"1401","nachhaltig","seminar","0.0022"
"1402","nachhaltig","betätigung","0.0022"
"1403","nachhaltig","einander","0.0022"
"1404","nachhaltig","haushaltsführung","0.0022"
"1405","nachhaltig","nachhaltige","0.0022"
"1406","nachhaltig","schöpfen","0.0022"
"1407","nachhaltig","mogelpackung","0.0022"
"1408","nachhaltig","fortentwickeln","0.0022"
"1409","nachhaltig","kernfusion","0.0022"
"1410","nachhaltig","sicherungssystemen","0.0022"
"1411","nachhaltig","steuermittel","0.0022"
"1412","nachhaltig","responsibility","0.0022"
"1413","nachhaltig","subventionieren","0.0022"
"1414","nachhaltig","projektförderung","0.0022"
"1415","nachhaltig","verbauen","0.0022"
"1416","nachhaltig","demografischer","0.0022"
"1417","nachhaltig","grundstein","0.0022"
"1418","nachhaltig","menschenrechtssituation","0.0022"
"1419","nachhaltig","kräftig","0.0022"
"1420","nachhaltig","green","0.0022"
"1421","nachhaltig","leiblich","0.0022"
"1422","nachhaltig","verkehrs-","0.0022"
"1423","nachhaltig","positionspapier","0.0022"
"1424","nachhaltig","wachstumsimpulse","0.0022"
"1425","nachhaltig","erholung","0.0022"
"1426","nachhaltig","erfolgversprechend","0.0022"
"1427","nachhaltig","erdöl","0.0022"
"1428","nachhaltig","prämisse","0.0022"
"1429","nachhaltig","grundpfeiler","0.0022"
"1430","nachhaltig","menschen-","0.0022"
"1431","nachhaltig","landkreise","0.0022"
"1432","nachhaltig","social","0.0022"
"1433","nachhaltig","gemeint","0.0022"
"1434","nachhaltig","leitlinie","0.0022"
"1435","nachhaltig","lebensgrundlagen","0.0022"
"1436","nachhaltig","wertschöpfungskette","0.0022"
"1437","nachhaltig","extreme","0.0022"
"1438","nachhaltig","begleitforschung","0.0022"
"1439","nachhaltig","weichenstellung","0.0022"
"1440","nachhaltig","parlamentarischer","0.0022"
"1441","nachhaltig","bundeskanzleramt","0.0022"
"1442","nachhaltig","treibhausgasemissionen","0.0022"
"1443","nachhaltig","lanka","0.0022"
"1444","nachhaltig","praktik","0.0022"
"1445","nachhaltig","europaweite","0.0022"
"1446","nachhaltig","opposition","0.0022"
"1447","nachhaltig","geschäftsmodelle","0.0022"
"1448","nachhaltig","saubere","0.0022"
"1449","nachhaltig","einschließen","0.0022"
"1450","nachhaltig","krisenbewältigung","0.0022"
"1451","nachhaltig","stillen","0.0022"
"1452","nachhaltig","erneuerung","0.0022"
"1453","nachhaltig","kleinbauern","0.0022"
"1454","nachhaltig","stelle","0.0022"
"1455","nachhaltig","qualitätspakt","0.0022"
"1456","nachhaltig","entschlossenheit","0.0022"
"1457","nachhaltig","gesundheitsministerium","0.0022"
"1458","nachhaltig","optimierung","0.0022"
"1459","nachhaltig","sri","0.0022"
"1460","nachhaltig","lehren","0.0022"
"1461","nachhaltig","rhein","0.0022"
"1462","nachhaltig","verlangen","0.0022"
"1463","nachhaltig","eingeschlagen","0.0022"
"1464","nachhaltig","sicherheitsverantwortung","0.0022"
"1465","nachhaltig","philosophie","0.0022"
"1466","nachhaltig","gleichgewicht","0.0022"
"1467","nachhaltig","vorgabe","0.0022"
"1468","nachhaltig","letzteres","0.0022"
"1469","nachhaltig","verlässlicher","0.0022"
"1470","nachhaltig","nutzbar","0.0022"
"1471","nachhaltig","pflanzenschutzmittel","0.0022"
"1472","nachhaltig","prioritätensetzung","0.0022"
"1473","nachhaltig","weißbuch","0.0022"
"1474","nachhaltig","tragfähige","0.0022"
"1475","nachhaltig","gemeinwohl","0.0022"
"1476","nachhaltig","energieerzeugung","0.0022"
"1477","nachhaltig","verhalten","0.0022"
"1478","nachhaltig","mitbürgerin","0.0022"
"1479","nachhaltig","import","0.0022"
"1480","nachhaltig","partnerländer","0.0022"
"1481","nachhaltig","haushaltsdisziplin","0.0022"
"1482","nachhaltig","nord-","0.0022"
"1483","nachhaltig","schwarzgelb","0.0022"
"1484","nachhaltig","sicherstellung","0.0022"
"1485","nachhaltig","sozialausgaben","0.0022"
"1486","nachhaltig","aufwerten","0.0022"
"1487","nachhaltig","äußern","0.0022"
"1488","nachhaltig","öffentlichkeitsarbeit","0.0022"
"1489","nachhaltig","geber","0.0022"
"1490","nachhaltig","maschine","0.0022"
"1491","nachhaltig","einkaufen","0.0022"
"1492","nachhaltig","sparsam","0.0022"
"1493","nachhaltig","dafürhalten","0.0022"
"1494","nachhaltig","zentralasien","0.0022"
"1495","nachhaltig","möhring","0.0022"
"1496","nachhaltig","strukturwandel","0.0022"
"1497","nachhaltig","resultierend","0.0022"
"1498","nachhaltig","finanzierbar","0.0022"
"1499","nachhaltig","befähigen","0.0022"
"1500","nachhaltig","weltbank","0.0022"
"1501","nachhaltig","ökologie","0.0022"
"1502","nachhaltig","flächenverbrauch","0.0022"
"1503","nachhaltig","gesundheits-","0.0022"
"1504","nachhaltig","governance","0.0022"
"1505","nachhaltig","sozialsysteme","0.0022"
"1506","nachhaltig","wunderbare","0.0022"
"1507","nachhaltig","kreative","0.0022"
"1508","nachhaltig","wirtschaftsstandort","0.0022"
"1509","nachhaltig","marktes","0.0022"
"1510","nachhaltig","wissenschaftsfreiheitsgesetz","0.0022"
"1511","nachhaltig","schulde","0.0022"
"1512","nachhaltig","unmissverständlich","0.0022"
"1513","nachhaltig","neuerung","0.0022"
"1514","nachhaltig","hinreichend","0.0022"
"1515","nachhaltig","russlands","0.0022"
"1516","nachhaltig","leiter","0.0022"
"1517","nachhaltig","menschenrechtspolitik","0.0022"
"1518","nachhaltig","fülle","0.0022"
"1519","nachhaltig","sympathie","0.0022"
"1520","nachhaltig","anspruchsvoll","0.0022"
"1521","nachhaltig","bisherig","0.0022"
"1522","nachhaltig","richten","0.0022"
"1523","nachhaltig","zuführen","0.0022"
"1524","nachhaltig","vorbildfunktion","0.0022"
"1525","nachhaltig","zerstörung","0.0022"
"1526","nachhaltig","passagier","0.0022"
"1527","nachhaltig","kumpf","0.0022"
"1528","nachhaltig","pädagogisch","0.0022"
"1529","nachhaltig","weltbevölkerung","0.0022"
"1530","nachhaltig","britta","0.0022"
"1531","nachhaltig","verhindern","0.0022"
"1532","nachhaltig","konzeption","0.0022"
"1533","nachhaltig","einzelne","0.0022"
"1534","nachhaltig","erforschung","0.0022"
"1535","nachhaltig","auswiegen","0.0022"
"1536","nachhaltig","wahlprüfung","0.0022"
"1537","nachhaltig","erwerbsminderung","0.0022"
"1538","nachhaltig","instrumentarium","0.0022"
"1539","nachhaltig","deutsche","0.0022"
"1540","nachhaltig","strang","0.0022"
"1541","nachhaltig","lehrerausbildung","0.0022"
"1542","nachhaltig","anbindung","0.0022"
"1543","nachhaltig","kombination","0.0022"
"1544","nachhaltig","seriöse","0.0022"
"1545","nachhaltig","reichen","0.0022"
"1546","nachhaltig","belastbar","0.0022"
"1547","nachhaltig","komplette","0.0022"
"1548","nachhaltig","arbeitsmarktes","0.0022"
"1549","nachhaltig","frau","0.0022"
"1550","nachhaltig","schwellenländern","0.0022"
"1551","nachhaltig","straßenverkehr","0.0022"
"1552","nachhaltig","verpasst","0.0022"
"1553","nachhaltig","anbau","0.0022"
"1554","nachhaltig","erforschen","0.0022"
"1555","nachhaltig","verlagerung","0.0022"
"1556","nachhaltig","geschäftsmodell","0.0022"
"1557","nachhaltig","forschungs-","0.0022"
"1558","nachhaltig","versöhnung","0.0022"
"1559","nachhaltig","schwede","0.0022"
"1560","nachhaltig","unstrittig","0.0022"
"1561","nachhaltig","vielleicht","0.0022"
"1562","nachhaltig","außergerichtlich","0.0022"
"1563","nachhaltig","gleich","0.0022"
"1564","nachhaltig","homepage","0.0022"
"1565","nachhaltig","skizzieren","0.0022"
"1566","nachhaltig","schifffahrt","0.0022"
"1567","nachhaltig","solidität","0.0022"
"1568","nachhaltig","punkt","0.0022"
"1569","nachhaltig","erwerbsleben","0.0022"
"1570","nachhaltig","bildungssystem","0.0022"
"1571","nachhaltig","mittels","0.0022"
"1572","nachhaltig","solidarische","0.0022"
"1573","nachhaltig","homburger","0.0022"
"1574","nachhaltig","immunität","0.0022"
"1575","nachhaltig","abgestimmt","0.0022"
"1576","nachhaltig","gleichstellen","0.0022"
"1577","nachhaltig","vaatz","0.0022"
"1578","nachhaltig","juristische","0.0022"
"1579","nachhaltig","fossil","0.0022"
"1580","nachhaltig","mindern","0.0022"
"1581","nachhaltig","klimawandels","0.0022"
"1582","nachhaltig","anschließend","0.0022"
"1583","nachhaltig","bevorzugen","0.0022"
"1584","nachhaltig","emission","0.0022"
"1585","nachhaltig","lazar","0.0022"
"1586","nachhaltig","übergabe","0.0022"
"1587","nachhaltig","wurzel","0.0021"
"1588","nachhaltig","willen","0.0021"
"1589","nachhaltig","widerspruch","0.0021"
"1590","nachhaltig","bgb","0.0021"
"1591","nachhaltig","gratulieren","0.0021"
"1592","nachhaltig","spezielle","0.0021"
"1593","nachhaltig","fortentwicklung","0.0021"
"1594","nachhaltig","erreichung","0.0021"
"1595","nachhaltig","bildungspaket","0.0021"
"1596","nachhaltig","handlung","0.0021"
"1597","nachhaltig","jemand","0.0021"
"1598","nachhaltig","vermögensabgabe","0.0021"
"1599","nachhaltig","unterschiedlich","0.0021"
"1600","nachhaltig","haßelmann","0.0021"
"1601","nachhaltig","bedingung","0.0021"
"1602","nachhaltig","formulieren","0.0021"
"1603","nachhaltig","beendigung","0.0021"
"1604","nachhaltig","vorreiter","0.0021"
"1605","nachhaltig","löschen","0.0021"
"1606","nachhaltig","mitteilung","0.0021"
"1607","nachhaltig","vorlegen","0.0021"
"1608","nachhaltig","mindeststandards","0.0021"
"1609","nachhaltig","ausgrenzung","0.0021"
"1610","nachhaltig","überwindung","0.0021"
"1611","nachhaltig","angelegt","0.0021"
"1612","nachhaltig","transparente","0.0021"
"1613","nachhaltig","packen","0.0021"
"1614","nachhaltig","tierhaltung","0.0021"
"1615","nachhaltig","verknüpfen","0.0021"
"1616","nachhaltig","expertise","0.0021"
"1617","nachhaltig","leidig","0.0021"
"1618","nachhaltig","uno","0.0021"
"1619","nachhaltig","streben","0.0021"
"1620","nachhaltig","stillstand","0.0021"
"1621","nachhaltig","gesundheitsversorgung","0.0021"
"1622","nachhaltig","rettung","0.0021"
"1623","nachhaltig","glücklich","0.0021"
"1624","nachhaltig","rücksicht","0.0021"
"1625","nachhaltig","sören","0.0021"
"1626","nachhaltig","selbstverpflichtung","0.0021"
"1627","nachhaltig","horst","0.0021"
"1628","nachhaltig","beeinflussen","0.0021"
"1629","nachhaltig","örtlich","0.0021"
"1630","nachhaltig","vornehmen","0.0021"
"1631","nachhaltig","zugute","0.0021"
"1632","nachhaltig","wilms","0.0021"
"1633","nachhaltig","netzneutralität","0.0021"
"1634","nachhaltig","kfw","0.0021"
"1635","nachhaltig","hektar","0.0021"
"1636","nachhaltig","lenken","0.0021"
"1637","nachhaltig","darstellung","0.0021"
"1638","nachhaltig","erschüttern","0.0021"
"1639","nachhaltig","einsteigen","0.0021"
"1640","nachhaltig","dienst","0.0021"
"1641","nachhaltig","stabilitätsmechanismus","0.0021"
"1642","nachhaltig","mitbürger","0.0021"
"1643","nachhaltig","crone","0.0021"
"1644","nachhaltig","behindert","0.0021"
"1645","nachhaltig","ermutigen","0.0021"
"1646","nachhaltig","mitten","0.0021"
"1647","nachhaltig","akut","0.0021"
"1648","nachhaltig","versehen","0.0021"
"1649","nachhaltig","alpers","0.0021"
"1650","nachhaltig","valerie","0.0021"
"1651","nachhaltig","vorrangig","0.0021"
"1652","nachhaltig","vision","0.0021"
"1653","nachhaltig","piraterie","0.0021"
"1654","nachhaltig","flächendeckende","0.0021"
"1655","nachhaltig","trotzdem","0.0021"
"1656","nachhaltig","wettbewerbsfähig","0.0021"
"1657","nachhaltig","fdp-bundestagsfraktion","0.0021"
"1658","nachhaltig","bezweifeln","0.0021"
"1659","nachhaltig","gewisse","0.0021"
"1660","nachhaltig","freiwilligendienste","0.0021"
"1661","nachhaltig","fraktionsübergreifend","0.0021"
"1662","nachhaltig","erneuerbarer","0.0021"
"1663","nachhaltig","beeinträchtigen","0.0021"
"1664","nachhaltig","libanon","0.0021"
"1665","nachhaltig","wiederaufbau","0.0021"
"1666","nachhaltig","weltweite","0.0021"
"1667","nachhaltig","vereinbar","0.0021"
"1668","nachhaltig","stetig","0.0021"
"1669","nachhaltig","spatz","0.0021"
"1670","nachhaltig","elke","0.0021"
"1671","nachhaltig","barrierefreien","0.0021"
"1672","nachhaltig","insolvenz","0.0021"
"1673","nachhaltig","vereinfachung","0.0021"
"1674","nachhaltig","monika","0.0021"
"1675","nachhaltig","fazit","0.0021"
"1676","nachhaltig","vertretbar","0.0021"
"1677","nachhaltig","tragend","0.0021"
"1678","nachhaltig","berichterstattung:","0.0021"
"1679","nachhaltig","verlagern","0.0021"
"1680","nachhaltig","geschichte","0.0021"
"1681","nachhaltig","atomenergie","0.0021"
"1682","nachhaltig","nachweis","0.0021"
"1683","nachhaltig","amerikanisch","0.0021"
"1684","nachhaltig","verkehrsinfrastruktur","0.0021"
"1685","nachhaltig","augenhöhe","0.0021"
"1686","nachhaltig","inklusive","0.0021"
"1687","nachhaltig","gesundheitssystem","0.0021"
"1688","nachhaltig","fall","0.0021"
"1689","nachhaltig","effektive","0.0021"
"1690","nachhaltig","außenpolitisch","0.0021"
"1691","nachhaltig","staatsschuldenkrise","0.0021"
"1692","nachhaltig","genau","0.0021"
"1693","nachhaltig","verunsicherung","0.0021"
"1694","nachhaltig","rasch","0.0021"
"1695","nachhaltig","sitte","0.0021"
"1696","nachhaltig","bartol","0.0021"
"1697","nachhaltig","klimafonds","0.0021"
"1698","nachhaltig","ärztlich","0.0021"
"1699","nachhaltig","woche","0.0021"
"1700","nachhaltig","plädieren","0.0021"
"1701","nachhaltig","beseitigung","0.0021"
"1702","nachhaltig","vorangetrieben","0.0021"
"1703","nachhaltig","behm","0.0021"
"1704","nachhaltig","morgen","0.0021"
"1705","nachhaltig","krankenhäusern","0.0021"
"1706","nachhaltig","arbeits-","0.0021"
"1707","nachhaltig","gläubiger","0.0021"
"1708","nachhaltig","senkung","0.0021"
"1709","nachhaltig","hochschulpakt","0.0021"
"1710","nachhaltig","sämtliche","0.0021"
"1711","nachhaltig","verabreden","0.0021"
"1712","nachhaltig","weitergeben","0.0021"
"1713","nachhaltig","nachdruck","0.0021"
"1714","nachhaltig","grenzüberschreitend","0.0021"
"1715","nachhaltig","tierschutz","0.0021"
"1716","nachhaltig","hinreichen","0.0021"
"1717","nachhaltig","döring","0.0021"
"1718","nachhaltig","schätzung","0.0021"
"1719","nachhaltig","gebäude","0.0021"
"1720","nachhaltig","lokal","0.0021"
"1721","nachhaltig","enquete-kommission","0.0021"
"1722","nachhaltig","atomausstieg","0.0021"
"1723","nachhaltig","genossenschaft","0.0021"
"1724","nachhaltig","photovoltaik","0.0021"
"1725","nachhaltig","sektor","0.0021"
"1726","nachhaltig","mechanismus","0.0021"
"1727","nachhaltig","grundlegende","0.0021"
"1728","nachhaltig","birgit","0.0021"
"1729","nachhaltig","befinden","0.0021"
"1730","nachhaltig","wirtschaftskrise","0.0021"
"1731","nachhaltig","katrin","0.0021"
"1732","nachhaltig","vereinbarung","0.0021"
"1733","nachhaltig","los","0.0021"
"1734","nachhaltig","erschließen","0.002"
"1735","nachhaltig","hunger","0.002"
"1736","nachhaltig","methode","0.002"
"1737","nachhaltig","digital","0.002"
"1738","nachhaltig","irgendeiner","0.002"
"1739","nachhaltig","gebot","0.002"
"1740","nachhaltig","finanzplanung","0.002"
"1741","nachhaltig","griechisch","0.002"
"1742","nachhaltig","debatte","0.002"
"1743","nachhaltig","dortig","0.002"
"1744","nachhaltig","tätig","0.002"
"1745","nachhaltig","steuersenkungen","0.002"
"1746","nachhaltig","erwirtschaften","0.002"
"1747","nachhaltig","pakt","0.002"
"1748","nachhaltig","stellenwert","0.002"
"1749","nachhaltig","einstieg","0.002"
"1750","nachhaltig","sicherheitskräfte","0.002"
"1751","nachhaltig","auto","0.002"
"1752","nachhaltig","reihe","0.002"
"1753","nachhaltig","anpacken","0.002"
"1754","nachhaltig","halt","0.002"
"1755","nachhaltig","vernetzen","0.002"
"1756","nachhaltig","hersteller","0.002"
"1757","nachhaltig","stimme","0.002"
"1758","nachhaltig","behinderung","0.002"
"1759","nachhaltig","europaweit","0.002"
"1760","nachhaltig","unten","0.002"
"1761","nachhaltig","ideologie","0.002"
"1762","nachhaltig","seriös","0.002"
"1763","nachhaltig","ausgebildet","0.002"
"1764","nachhaltig","terrorismus","0.002"
"1765","nachhaltig","zumal","0.002"
"1766","nachhaltig","dual","0.002"
"1767","nachhaltig","vorsehen","0.002"
"1768","nachhaltig","dokumentieren","0.002"
"1769","nachhaltig","brücke","0.002"
"1770","nachhaltig","gestaltung","0.002"
"1771","nachhaltig","realistisch","0.002"
"1772","nachhaltig","illegal","0.002"
"1773","nachhaltig","effizienz","0.002"
"1774","nachhaltig","erweiterung","0.002"
"1775","nachhaltig","gesetzentwürfe","0.002"
"1776","nachhaltig","erde","0.002"
"1777","nachhaltig","steuerpolitik","0.002"
"1778","nachhaltig","behörde","0.002"
"1779","nachhaltig","beziehen","0.002"
"1780","nachhaltig","menschenrechten","0.002"
"1781","nachhaltig","erschweren","0.002"
"1782","nachhaltig","gewaltig","0.002"
"1783","nachhaltig","somalia","0.002"
"1784","nachhaltig","vermutlich","0.002"
"1785","nachhaltig","beide","0.002"
"1786","nachhaltig","drücken","0.002"
"1787","nachhaltig","anstreben","0.002"
"1788","nachhaltig","überflüssig","0.002"
"1789","nachhaltig","arnold","0.002"
"1790","nachhaltig","investor","0.002"
"1791","nachhaltig","jahrelang","0.002"
"1792","nachhaltig","nacht","0.002"
"1793","nachhaltig","auflage","0.002"
"1794","nachhaltig","schuldig","0.002"
"1795","nachhaltig","decken","0.002"
"1796","nachhaltig","vernachlässigen","0.002"
"1797","nachhaltig","zahlung","0.002"
"1798","nachhaltig","überweisungsvorschlag:","0.002"
"1799","nachhaltig","umfangreich","0.002"
"1800","nachhaltig","relevant","0.002"
"1801","nachhaltig","fachlich","0.002"
"1802","nachhaltig","bettina","0.002"
"1803","nachhaltig","verhandlung","0.002"
"1804","nachhaltig","weshalb","0.002"
"1805","nachhaltig","kontinuierlich","0.002"
"1806","nachhaltig","inwieweit","0.002"
"1807","nachhaltig","verwendung","0.002"
"1808","nachhaltig","zurückführen","0.002"
"1809","nachhaltig","portugal","0.002"
"1810","nachhaltig","erfahrung","0.002"
"1811","nachhaltig","leiten","0.002"
"1812","nachhaltig","nützen","0.002"
"1813","nachhaltig","appell","0.002"
"1814","nachhaltig","gestern","0.002"
"1815","nachhaltig","unrecht","0.002"
"1816","nachhaltig","übergang","0.002"
"1817","nachhaltig","birkwald","0.002"
"1818","nachhaltig","gegenstand","0.002"
"1819","nachhaltig","vorstand","0.002"
"1820","nachhaltig","übernahme","0.002"
"1821","nachhaltig","systematisch","0.002"
"1822","nachhaltig","ressort","0.002"
"1823","nachhaltig","tunesien","0.002"
"1824","nachhaltig","überlassen","0.002"
"1825","nachhaltig","sozialdemokrat","0.002"
"1826","nachhaltig","einheitliche","0.002"
"1827","nachhaltig","markus","0.002"
"1828","nachhaltig","beurteilen","0.002"
"1829","nachhaltig","zentrum","0.002"
"1830","nachhaltig","agnes","0.002"
"1831","nachhaltig","aufwand","0.002"
"1832","nachhaltig","truppe","0.002"
"1833","nachhaltig","demografische","0.002"
"1834","nachhaltig","prozeß","0.002"
"1835","nachhaltig","schwierige","0.002"
"1836","nachhaltig","lässt","0.002"
"1837","nachhaltig","besuchen","0.002"
"1838","nachhaltig","kreis","0.002"
"1839","nachhaltig","streng","0.002"
"1840","nachhaltig","vorredner","0.002"
"1841","nachhaltig","glaubwürdigkeit","0.002"
"1842","nachhaltig","ministerium","0.0019"
"1843","nachhaltig","zentralbank","0.0019"
"1844","nachhaltig","gleichstellung","0.0019"
"1845","nachhaltig","auswärtiger","0.0019"
"1846","nachhaltig","csu-fraktion","0.0019"
"1847","nachhaltig","entnehmen","0.0019"
"1848","nachhaltig","hoffentlich","0.0019"
"1849","nachhaltig","verbrechen","0.0019"
"1850","nachhaltig","verringern","0.0019"
"1851","nachhaltig","abwarten","0.0019"
"1852","nachhaltig","ute","0.0019"
"1853","nachhaltig","nächst","0.0019"
"1854","nachhaltig","nahezu","0.0019"
"1855","nachhaltig","mangelnd","0.0019"
"1856","nachhaltig","schiene","0.0019"
"1857","nachhaltig","abzug","0.0019"
"1858","nachhaltig","durchsetzung","0.0019"
"1859","nachhaltig","sprechen","0.0019"
"1860","nachhaltig","progression","0.0019"
"1861","nachhaltig","zusammenarbeiten","0.0019"
"1862","nachhaltig","seitdem","0.0019"
"1863","nachhaltig","bereitschaft","0.0019"
"1864","nachhaltig","steuereinnahmen","0.0019"
"1865","nachhaltig","ermitteln","0.0019"
"1866","nachhaltig","gar","0.0019"
"1867","nachhaltig","fachkräftemangel","0.0019"
"1868","nachhaltig","bilateral","0.0019"
"1869","nachhaltig","zukommen","0.0019"
"1870","nachhaltig","nachkommen","0.0019"
"1871","nachhaltig","befasst","0.0019"
"1872","nachhaltig","verbindung","0.0019"
"1873","nachhaltig","funktion","0.0019"
"1874","nachhaltig","ausländisch","0.0019"
"1875","nachhaltig","kinder-","0.0019"
"1876","nachhaltig","komplex","0.0019"
"1877","nachhaltig","tag","0.0019"
"1878","nachhaltig","ausgestaltung","0.0019"
"1879","nachhaltig","studierende","0.0019"
"1880","nachhaltig","ausüben","0.0019"
"1881","nachhaltig","beschäftigt","0.0019"
"1882","nachhaltig","realisieren","0.0019"
"1883","nachhaltig","katja","0.0019"
"1884","nachhaltig","geeignet","0.0019"
"1885","nachhaltig","ordentlich","0.0019"
"1886","nachhaltig","ja","0.0019"
"1887","nachhaltig","auftreten","0.0019"
"1888","nachhaltig","gegenteil","0.0019"
"1889","nachhaltig","zusatzpunkt","0.0019"
"1890","nachhaltig","analyse","0.0019"
"1891","nachhaltig","betrieb","0.0019"
"1892","nachhaltig","übertragen","0.0019"
"1893","nachhaltig","zuständig","0.0019"
"1894","nachhaltig","not","0.0019"
"1895","nachhaltig","zehn","0.0019"
"1896","nachhaltig","berlin","0.0019"
"1897","nachhaltig","neuverschuldung","0.0019"
"1898","nachhaltig","bewältigen","0.0019"
"1899","nachhaltig","staatssekretär","0.0019"
"1900","nachhaltig","verlust","0.0019"
"1901","nachhaltig","lieben","0.0019"
"1902","nachhaltig","schwarz-gelbe","0.0019"
"1903","nachhaltig","beinhalten","0.0019"
"1904","nachhaltig","folgen","0.0019"
"1905","nachhaltig","eigentlich","0.0019"
"1906","nachhaltig","ausführlich","0.0019"
"1907","nachhaltig","jahrhundert","0.0019"
"1908","nachhaltig","afrika","0.0019"
"1909","nachhaltig","steigen","0.0019"
"1910","nachhaltig","ersetzen","0.0019"
"1911","nachhaltig","beschließen","0.0019"
"1912","nachhaltig","patrick","0.0019"
"1913","nachhaltig","einleiten","0.0019"
"1914","nachhaltig","südsudan","0.0019"
"1915","nachhaltig","treiben","0.0019"
"1916","nachhaltig","mittelständisch","0.0019"
"1917","nachhaltig","darstellen","0.0019"
"1918","nachhaltig","erklären","0.0019"
"1919","nachhaltig","ganze","0.0019"
"1920","nachhaltig","ergebnis","0.0019"
"1921","nachhaltig","vielfältig","0.0019"
"1922","nachhaltig","joachim","0.0019"
"1923","nachhaltig","formulierung","0.0019"
"1924","nachhaltig","abbau","0.0019"
"1925","nachhaltig","ansetzen","0.0019"
"1926","nachhaltig","außen","0.0019"
"1927","nachhaltig","hohen","0.0019"
"1928","nachhaltig","derzeit","0.0018"
"1929","nachhaltig","politiker","0.0018"
"1930","nachhaltig","hierbei","0.0018"
"1931","nachhaltig","umfassen","0.0018"
"1932","nachhaltig","unterscheiden","0.0018"
"1933","nachhaltig","solange","0.0018"
"1934","nachhaltig","klug","0.0018"
"1935","nachhaltig","beamte","0.0018"
"1936","nachhaltig","herz","0.0018"
"1937","nachhaltig","gremium","0.0018"
"1938","nachhaltig","höhe","0.0018"
"1939","nachhaltig","vorgelegt","0.0018"
"1940","nachhaltig","enorm","0.0018"
"1941","nachhaltig","überhaupt","0.0018"
"1942","nachhaltig","kosovo","0.0018"
"1943","nachhaltig","schick","0.0018"
"1944","nachhaltig","finanzkrise","0.0018"
"1945","nachhaltig","verursachen","0.0018"
"1946","nachhaltig","bewähren","0.0018"
"1947","nachhaltig","wiederum","0.0018"
"1948","nachhaltig","zulasten","0.0018"
"1949","nachhaltig","anbieten","0.0018"
"1950","nachhaltig","ägypten","0.0018"
"1951","nachhaltig","grün","0.0018"
"1952","nachhaltig","entweder","0.0018"
"1953","nachhaltig","aufmerksam","0.0018"
"1954","nachhaltig","tier","0.0018"
"1955","nachhaltig","beweisen","0.0018"
"1956","nachhaltig","verwaltung","0.0018"
"1957","nachhaltig","wohnung","0.0018"
"1958","nachhaltig","erwähnen","0.0018"
"1959","nachhaltig","institut","0.0018"
"1960","nachhaltig","hingegen","0.0018"
"1961","nachhaltig","einzelfall","0.0018"
"1962","nachhaltig","ziemlich","0.0018"
"1963","nachhaltig","richtige","0.0018"
"1964","nachhaltig","früh","0.0018"
"1965","nachhaltig","bereiten","0.0018"
"1966","nachhaltig","anweisen","0.0018"
"1967","nachhaltig","schwierigkeit","0.0018"
"1968","nachhaltig","empfehlung","0.0018"
"1969","nachhaltig","qualifizieren","0.0018"
"1970","nachhaltig","link","0.0018"
"1971","nachhaltig","dauer","0.0018"
"1972","nachhaltig","konzentrieren","0.0018"
"1973","nachhaltig","einführen","0.0018"
"1974","nachhaltig","veröffentlichen","0.0018"
"1975","nachhaltig","motto","0.0018"
"1976","nachhaltig","umso","0.0018"
"1977","nachhaltig","anzahl","0.0018"
"1978","nachhaltig","gutachten","0.0018"
"1979","nachhaltig","verweigern","0.0018"
"1980","nachhaltig","sieben","0.0018"
"1981","nachhaltig","bewertung","0.0018"
"1982","nachhaltig","kanzlerin","0.0018"
"1983","nachhaltig","schwer","0.0018"
"1984","nachhaltig","garantieren","0.0018"
"1985","nachhaltig","vorgesehen","0.0018"
"1986","nachhaltig","einrichten","0.0018"
"1987","nachhaltig","ministerin","0.0018"
"1988","nachhaltig","papier","0.0018"
"1989","nachhaltig","weitergehen","0.0018"
"1990","nachhaltig","bundeshaushalt","0.0018"
"1991","nachhaltig","deutschen","0.0018"
"1992","nachhaltig","republik","0.0018"
"1993","nachhaltig","spanien","0.0017"
"1994","nachhaltig","linksfraktion","0.0017"
"1995","nachhaltig","zuvor","0.0017"
"1996","nachhaltig","mittelstand","0.0017"
"1997","nachhaltig","beschäftigen","0.0017"
"1998","nachhaltig","humanitär","0.0017"
"1999","nachhaltig","ausnahme","0.0017"
"2000","nachhaltig","hören","0.0017"
