"","V1","V2","V3"
"1","nachhaltig","weltnaturschutzgipfel","5.5839"
"2","nachhaltig","rohstoffeinnahmen","5.5839"
"3","nachhaltig","tourismusentwicklung","5.5839"
"4","nachhaltig","umweltbildung","5.4786"
"5","nachhaltig","waldwirtschaft","5.4786"
"6","nachhaltig","demographischer","5.4298"
"7","nachhaltig","infrastrukturplanung","5.3833"
"8","nachhaltig","dienstwagenflotte","5.2962"
"9","nachhaltig","waldbewirtschaftung","5.2962"
"10","nachhaltig","palm-","5.2962"
"11","nachhaltig","angebaut","5.1785"
"12","nachhaltig","stadtplanung","5.0731"
"13","nachhaltig","zukunftsfesten","5.0731"
"14","nachhaltig","verkehrskonzept","5.0731"
"15","nachhaltig","schlüsselfaktor","5.0731"
"16","nachhaltig","verträglichen","5.0731"
"17","nachhaltig","regionalentwicklung","5.0731"
"18","nachhaltig","investitionspolitik","5.0731"
"19","nachhaltig","sojaöl","5.0086"
"20","nachhaltig","landnutzung","4.9598"
"21","nachhaltig","beratungsnetzwerke","4.8908"
"22","nachhaltig","generationengerechten","4.8908"
"23","nachhaltig","umweltorganisationen","4.8908"
"24","nachhaltig","bewirtschaftung","4.8908"
"25","nachhaltig","bewegungsverhalten","4.7854"
"26","nachhaltig","pauschalreisen","4.7854"
"27","nachhaltig","generationengerecht","4.7366"
"28","nachhaltig","kabinettsbeschlusses","4.7366"
"29","nachhaltig","ernährungs-","4.7366"
"30","nachhaltig","asien-strategie","4.7366"
"31","nachhaltig","erzeugt","4.6901"
"32","nachhaltig","generationengerechte","4.6031"
"33","nachhaltig","umweltverträgliche","4.6031"
"34","nachhaltig","friedenslösung","4.6031"
"35","nachhaltig","ausdünnung","4.6031"
"36","nachhaltig","waldbesitzer","4.6031"
"37","nachhaltig","nawaro-bonus","4.6031"
"38","nachhaltig","zertifizierungssystem","4.6031"
"39","nachhaltig","pflanzenschutz","4.5231"
"40","nachhaltig","konzession","4.4853"
"41","nachhaltig","strohfeuer","4.4633"
"42","nachhaltig","naturlandschaften","4.4633"
"43","nachhaltig","anwachsend","4.38"
"44","nachhaltig","einspeisevergütung","4.38"
"45","nachhaltig","wachstumspolitik","4.3154"
"46","nachhaltig","radverkehrs","4.2846"
"47","nachhaltig","monokultur","4.2846"
"48","nachhaltig","ressourcenschutz","4.2846"
"49","nachhaltig","wirkend","4.2548"
"50","nachhaltig","klimafreundlicher","4.1976"
"51","nachhaltig","barrierefrei","4.1976"
"52","nachhaltig","bewirtschaften","4.1976"
"53","nachhaltig","wohlergehen","4.1976"
"54","nachhaltig","finanzreform","4.1976"
"55","nachhaltig","rentenfinanzen","4.1568"
"56","nachhaltig","palmöl","4.137"
"57","nachhaltig","linderung","4.1176"
"58","nachhaltig","technologiepolitik","4.1176"
"59","nachhaltig","stadtentwicklungspolitik","4.0595"
"60","nachhaltig","anrainerstaaten","4.0435"
"61","nachhaltig","umrüsten","4.0435"
"62","nachhaltig","ernährungssicherheit","4.0435"
"63","nachhaltig","budgethilfen","4.0435"
"64","nachhaltig","leitbild","4.0015"
"65","nachhaltig","vielseitig","3.9745"
"66","nachhaltig","substitution","3.9745"
"67","nachhaltig","meeresschutz","3.9525"
"68","nachhaltig","meerespolitik","3.931"
"69","nachhaltig","fischerei","3.9214"
"70","nachhaltig","befriedung","3.91"
"71","nachhaltig","implementiert","3.91"
"72","nachhaltig","zertifizierungssysteme","3.91"
"73","nachhaltig","städtisch","3.91"
"74","nachhaltig","brasilianisch","3.91"
"75","nachhaltig","staatsfinanzen","3.91"
"76","nachhaltig","allokationsplan","3.8691"
"77","nachhaltig","zukunftstechnologien","3.8493"
"78","nachhaltig","indigenen","3.8493"
"79","nachhaltig","beirat","3.8136"
"80","nachhaltig","zertifikatehandel","3.7922"
"81","nachhaltig","zukunftsweisend","3.7922"
"82","nachhaltig","abfallwirtschaft","3.7381"
"83","nachhaltig","kompetenzverteilung","3.7381"
"84","nachhaltig","zusatzbeiträge","3.7207"
"85","nachhaltig","schutzgebiete","3.7121"
"86","nachhaltig","verschwenden","3.6868"
"87","nachhaltig","wachstumskräfte","3.6868"
"88","nachhaltig","meeresumwelt","3.6868"
"89","nachhaltig","ostseeregion","3.6868"
"90","nachhaltig","bundeswaldgesetz","3.6868"
"91","nachhaltig","energiewende","3.6868"
"92","nachhaltig","biomasse","3.6781"
"93","nachhaltig","energetisch","3.638"
"94","nachhaltig","ausweisung","3.638"
"95","nachhaltig","anbau","3.6321"
"96","nachhaltig","armutsbekämpfung","3.6145"
"97","nachhaltig","wirtschaften","3.6098"
"98","nachhaltig","klimapolitischen","3.5915"
"99","nachhaltig","bundesmittel","3.5915"
"100","nachhaltig","finanzpolitik","3.547"
"101","nachhaltig","eigentumsrechte","3.547"
"102","nachhaltig","schädigen","3.547"
"103","nachhaltig","haushalts-","3.5255"
"104","nachhaltig","kleinbauern","3.5255"
"105","nachhaltig","finanzierungsvorschlag","3.5045"
"106","nachhaltig","energiegewinnung","3.5045"
"107","nachhaltig","verkehrs-","3.5045"
"108","nachhaltig","opferpension","3.5045"
"109","nachhaltig","maßgeschneidert","3.5045"
"110","nachhaltig","flüchtlingspolitik","3.4771"
"111","nachhaltig","multilaterale","3.4771"
"112","nachhaltig","ökosystem","3.4717"
"113","nachhaltig","geschlechtergerechtigkeit","3.4637"
"114","nachhaltig","pflegeleistungen","3.4637"
"115","nachhaltig","krankenhausfinanzierung","3.4637"
"116","nachhaltig","forstwirtschaft","3.4557"
"117","nachhaltig","nachhaltigkeitsverordnung","3.4504"
"118","nachhaltig","biokraftstoffen","3.4341"
"119","nachhaltig","haushaltspolitik","3.4244"
"120","nachhaltig","verbessert","3.4244"
"121","nachhaltig","pflanzenschutzmitteln","3.4244"
"122","nachhaltig","schulsport","3.4244"
"123","nachhaltig","nachweislich","3.4054"
"124","nachhaltig","gesamtstrategie","3.3991"
"125","nachhaltig","verbund","3.3991"
"126","nachhaltig","verträglich","3.3867"
"127","nachhaltig","demografischer","3.3867"
"128","nachhaltig","vertrauensverlust","3.3867"
"129","nachhaltig","vorneweg","3.3867"
"130","nachhaltig","zukunftsträchtig","3.3867"
"131","nachhaltig","erzeugung","3.3867"
"132","nachhaltig","agrarwirtschaft","3.3744"
"133","nachhaltig","erneuerbare-energien-gesetzes","3.3503"
"134","nachhaltig","beschädigen","3.3503"
"135","nachhaltig","schiffbau","3.3503"
"136","nachhaltig","ankurbeln","3.3152"
"137","nachhaltig","erschließung","3.3152"
"138","nachhaltig","umsteuern","3.3152"
"139","nachhaltig","touristische","3.3152"
"140","nachhaltig","lebensräume","3.3152"
"141","nachhaltig","verlässlich","3.3038"
"142","nachhaltig","kohärent","3.2981"
"143","nachhaltig","geschäftsmodelle","3.2486"
"144","nachhaltig","belebung","3.2486"
"145","nachhaltig","angepassten","3.2486"
"146","nachhaltig","schöpfung","3.2486"
"147","nachhaltig","gesundheitswesens","3.2486"
"148","nachhaltig","ganzheitlich","3.2168"
"149","nachhaltig","stoffliche","3.186"
"150","nachhaltig","andauern","3.186"
"151","nachhaltig","zerschlagung","3.186"
"152","nachhaltig","flankierend","3.186"
"153","nachhaltig","heizen","3.186"
"154","nachhaltig","gewinnung","3.176"
"155","nachhaltig","energieversorgung","3.168"
"156","nachhaltig","funktionsfähig","3.1562"
"157","nachhaltig","verantwortungsbewusstsein","3.1562"
"158","nachhaltig","partnerländer","3.1562"
"159","nachhaltig","ersatzlos","3.1272"
"160","nachhaltig","entwicklungspolitischen","3.1272"
"161","nachhaltig","bewahrung","3.1272"
"162","nachhaltig","hunger","3.113"
"163","nachhaltig","baulich","3.099"
"164","nachhaltig","lokale","3.099"
"165","nachhaltig","behutsam","3.0716"
"166","nachhaltig","andauernd","3.0716"
"167","nachhaltig","biologisch","3.0627"
"168","nachhaltig","vielversprechend","3.045"
"169","nachhaltig","hohn","3.045"
"170","nachhaltig","mittelstandsförderung","3.045"
"171","nachhaltig","zukunftsfähige","3.0276"
"172","nachhaltig","cajus","3.0276"
"173","nachhaltig","sozialsysteme","3.019"
"174","nachhaltig","anbauen","3.019"
"175","nachhaltig","hilfestellung","3.019"
"176","nachhaltig","wald","2.9978"
"177","nachhaltig","grundstein","2.9937"
"178","nachhaltig","chemisch","2.9937"
"179","nachhaltig","netzwerk","2.969"
"180","nachhaltig","aufgestellt","2.969"
"181","nachhaltig","reformpolitik","2.969"
"182","nachhaltig","entschuldung","2.969"
"183","nachhaltig","effiziente","2.9641"
"184","nachhaltig","wirkungsvoll","2.9609"
"185","nachhaltig","ansatzweise","2.9609"
"186","nachhaltig","ausrichtung","2.9586"
"187","nachhaltig","finanzierung","2.9517"
"188","nachhaltig","investitionsprogramm","2.9449"
"189","nachhaltig","gesundheitssystem","2.9354"
"190","nachhaltig","ökologisch","2.9235"
"191","nachhaltig","hinarbeiten","2.9213"
"192","nachhaltig","zukunftsfähig","2.9136"
"193","nachhaltig","konsum","2.9136"
"194","nachhaltig","sicherungssystemen","2.8983"
"195","nachhaltig","schwerpunktsetzung","2.8983"
"196","nachhaltig","caesar","2.8983"
"197","nachhaltig","partizipation","2.8833"
"198","nachhaltig","rücklage","2.8759"
"199","nachhaltig","wiederholung","2.8759"
"200","nachhaltig","längerfristig","2.8759"
"201","nachhaltig","subventionierung","2.8759"
"202","nachhaltig","fisch","2.8539"
"203","nachhaltig","biodiversität","2.8324"
"204","nachhaltig","steuermitteln","2.8253"
"205","nachhaltig","nutzung","2.813"
"206","nachhaltig","energetischen","2.7975"
"207","nachhaltig","partnerländern","2.7907"
"208","nachhaltig","strukturschwach","2.7907"
"209","nachhaltig","integriert","2.7907"
"210","nachhaltig","fehmarnbelt-querung","2.7907"
"211","nachhaltig","paritätisch","2.7839"
"212","nachhaltig","biokraftstoffe","2.7772"
"213","nachhaltig","verlässlichen","2.7705"
"214","nachhaltig","stabile","2.7606"
"215","nachhaltig","meilenstein","2.7573"
"216","nachhaltig","bülow","2.7573"
"217","nachhaltig","import","2.741"
"218","nachhaltig","rentenpolitik","2.741"
"219","nachhaltig","entwicklung","2.7315"
"220","nachhaltig","potenziellen","2.7313"
"221","nachhaltig","korrupt","2.7313"
"222","nachhaltig","wirtschaftspartnerschaftsabkommen","2.7313"
"223","nachhaltig","übergewicht","2.7313"
"224","nachhaltig","erzeugen","2.7275"
"225","nachhaltig","landau","2.7186"
"226","nachhaltig","extremismus","2.7186"
"227","nachhaltig","einbeziehung","2.7122"
"228","nachhaltig","aufräumen","2.7122"
"229","nachhaltig","konjunkturell","2.7085"
"230","nachhaltig","fremdenfeindlichkeit","2.6752"
"231","nachhaltig","atmosphäre","2.6752"
"232","nachhaltig","nahrungsmittel","2.6692"
"233","nachhaltig","langfristig","2.6615"
"234","nachhaltig","marie-luise","2.6572"
"235","nachhaltig","grundbildung","2.6572"
"236","nachhaltig","öl","2.6513"
"237","nachhaltig","nationale","2.6435"
"238","nachhaltig","regierungsführung","2.6395"
"239","nachhaltig","wettlauf","2.6221"
"240","nachhaltig","sprung","2.6221"
"241","nachhaltig","erneuerbare-energien-wärmegesetz","2.6221"
"242","nachhaltig","drogenanbau","2.6221"
"243","nachhaltig","vereinbar","2.6221"
"244","nachhaltig","wirtschaftsförderung","2.605"
"245","nachhaltig","staatsfonds","2.605"
"246","nachhaltig","erhaltung","2.5994"
"247","nachhaltig","tragfähig","2.5994"
"248","nachhaltig","tragfähige","2.5882"
"249","nachhaltig","wirtschaftswachstum","2.584"
"250","nachhaltig","produzieren","2.5822"
"251","nachhaltig","familienpolitik","2.5787"
"252","nachhaltig","natur","2.5662"
"253","nachhaltig","verantwortungsvoll","2.5662"
"254","nachhaltig","artenvielfalt","2.5662"
"255","nachhaltig","integrieren","2.5604"
"256","nachhaltig","wachstum","2.558"
"257","nachhaltig","gelungen","2.5554"
"258","nachhaltig","bundesebene","2.5447"
"259","nachhaltig","umwelt-","2.5394"
"260","nachhaltig","quantitativ","2.5394"
"261","nachhaltig","energieeffizienz","2.5362"
"262","nachhaltig","entwicklungspolitik","2.5354"
"263","nachhaltig","ausgerichtet","2.5237"
"264","nachhaltig","verkehrsbereich","2.5237"
"265","nachhaltig","holz","2.5237"
"266","nachhaltig","wandel","2.5208"
"267","nachhaltig","parlamentarische","2.5195"
"268","nachhaltig","qualitativ","2.5192"
"269","nachhaltig","wahlperiode","2.5174"
"270","nachhaltig","gewährung","2.5082"
"271","nachhaltig","lebensbedingungen","2.5082"
"272","nachhaltig","erdöl","2.5082"
"273","nachhaltig","wertschöpfung","2.5082"
"274","nachhaltig","zusammenhalt","2.503"
"275","nachhaltig","dött","2.503"
"276","nachhaltig","ostsee","2.5005"
"277","nachhaltig","bundeshaushalts","2.4929"
"278","nachhaltig","sozial-","2.4929"
"279","nachhaltig","zukunftsfähigkeit","2.4929"
"280","nachhaltig","hinausgehen","2.4929"
"281","nachhaltig","fläche","2.4816"
"282","nachhaltig","dokumentieren","2.4778"
"283","nachhaltig","lebensqualität","2.463"
"284","nachhaltig","energiebereich","2.4484"
"285","nachhaltig","sonnen","2.4484"
"286","nachhaltig","ausweis","2.4484"
"287","nachhaltig","überarbeiten","2.4436"
"288","nachhaltig","solide","2.4372"
"289","nachhaltig","ordnungspolitisch","2.434"
"290","nachhaltig","energieeinsparung","2.434"
"291","nachhaltig","entwicklungs-","2.434"
"292","nachhaltig","umweltschutz","2.434"
"293","nachhaltig","haushaltskonsolidierung","2.4269"
"294","nachhaltig","verspielen","2.4199"
"295","nachhaltig","gesunden","2.4128"
"296","nachhaltig","wirtschaftspolitik","2.4114"
"297","nachhaltig","regionale","2.4114"
"298","nachhaltig","rechtsextremismus","2.4105"
"299","nachhaltig","eigenverantwortung","2.4059"
"300","nachhaltig","meer","2.4059"
"301","nachhaltig","beeinflussen","2.4059"
"302","nachhaltig","eu-ratspräsidentschaft","2.398"
"303","nachhaltig","hochwertige","2.3921"
"304","nachhaltig","kulturwirtschaft","2.3875"
"305","nachhaltig","umgang","2.3862"
"306","nachhaltig","new","2.3785"
"307","nachhaltig","bgb","2.3785"
"308","nachhaltig","wasser","2.374"
"309","nachhaltig","kurzfristig","2.3704"
"310","nachhaltig","wahrung","2.3695"
"311","nachhaltig","wünschenswert","2.3695"
"312","nachhaltig","dauerhaft","2.3634"
"313","nachhaltig","pflegeversicherung","2.3556"
"314","nachhaltig","klimapolitik","2.3518"
"315","nachhaltig","reichtum","2.3518"
"316","nachhaltig","auswertung","2.3518"
"317","nachhaltig","konsolidierung","2.3518"
"318","nachhaltig","armut","2.3426"
"319","nachhaltig","energetische","2.3387"
"320","nachhaltig","verbreitung","2.3258"
"321","nachhaltig","elite","2.3258"
"322","nachhaltig","generationengerechtigkeit","2.3258"
"323","nachhaltig","becker","2.3258"
"324","nachhaltig","beseitigung","2.3173"
"325","nachhaltig","heimisch","2.3173"
"326","nachhaltig","verkehrspolitik","2.3131"
"327","nachhaltig","kontinent","2.3055"
"328","nachhaltig","steuergeldern","2.3005"
"329","nachhaltig","masse","2.2881"
"330","nachhaltig","bekämpfen","2.2826"
"331","nachhaltig","energiepolitik","2.2793"
"332","nachhaltig","arbeitsmarktpolitik","2.2758"
"333","nachhaltig","gewerbe","2.2758"
"334","nachhaltig","säule","2.2723"
"335","nachhaltig","nachwachsend","2.2697"
"336","nachhaltig","gerechtigkeit","2.2626"
"337","nachhaltig","entwicklungsländer","2.2585"
"338","nachhaltig","betrieben","2.2551"
"339","nachhaltig","konsolidieren","2.2438"
"340","nachhaltig","fraktionsübergreifend","2.2399"
"341","nachhaltig","gewährleistung","2.2399"
"342","nachhaltig","erschüttern","2.2399"
"343","nachhaltig","ökologie","2.2282"
"344","nachhaltig","thilo","2.2282"
"345","nachhaltig","weiterbildung","2.2195"
"346","nachhaltig","tourismus","2.2185"
"347","nachhaltig","jeglich","2.2166"
"348","nachhaltig","oberste","2.2166"
"349","nachhaltig","stoppen","2.2128"
"350","nachhaltig","gestalten","2.2114"
"351","nachhaltig","ressource","2.208"
"352","nachhaltig","klimaschutzes","2.1977"
"353","nachhaltig","vorurteil","2.1939"
"354","nachhaltig","aufweisen","2.1902"
"355","nachhaltig","ruck","2.1883"
"356","nachhaltig","antreten","2.1827"
"357","nachhaltig","biologische","2.1827"
"358","nachhaltig","illegale","2.1827"
"359","nachhaltig","umfassend","2.181"
"360","nachhaltig","friede","2.1807"
"361","nachhaltig","verschieben","2.1753"
"362","nachhaltig","fachlich","2.1717"
"363","nachhaltig","klima","2.1608"
"364","nachhaltig","ausrichten","2.1608"
"365","nachhaltig","klima-","2.1608"
"366","nachhaltig","sicherung","2.1542"
"367","nachhaltig","ertrag","2.1535"
"368","nachhaltig","einklang","2.1535"
"369","nachhaltig","vielfalt","2.1529"
"370","nachhaltig","vorbildlich","2.1499"
"371","nachhaltig","wirken","2.1484"
"372","nachhaltig","erfüllung","2.1464"
"373","nachhaltig","stellenwert","2.1446"
"374","nachhaltig","struktur","2.1382"
"375","nachhaltig","generation","2.1357"
"376","nachhaltig","stammen","2.1322"
"377","nachhaltig","friedliche","2.1322"
"378","nachhaltig","unterlassen","2.1287"
"379","nachhaltig","rohstoff","2.126"
"380","nachhaltig","konstruktive","2.1252"
"381","nachhaltig","unrecht","2.1182"
"382","nachhaltig","koppeln","2.1182"
"383","nachhaltig","energiewirtschaft","2.1182"
"384","nachhaltig","kauch","2.1113"
"385","nachhaltig","marco","2.1044"
"386","nachhaltig","spürbar","2.0976"
"387","nachhaltig","stabilisieren","2.0976"
"388","nachhaltig","wirtschafts-","2.0976"
"389","nachhaltig","zahlreiche","2.0976"
"390","nachhaltig","parlamentes","2.0976"
"391","nachhaltig","sozialpolitik","2.0976"
"392","nachhaltig","anstatt","2.0908"
"393","nachhaltig","zivilbevölkerung","2.0874"
"394","nachhaltig","innovative","2.0841"
"395","nachhaltig","intelligent","2.0824"
"396","nachhaltig","bildungs-","2.0774"
"397","nachhaltig","entwicklungsländern","2.0751"
"398","nachhaltig","ausreichend","2.0745"
"399","nachhaltig","sanierung","2.0734"
"400","nachhaltig","nachfolgend","2.0707"
"401","nachhaltig","wirkung","2.0707"
"402","nachhaltig","arbeitsminister","2.0674"
"403","nachhaltig","absicherung","2.0615"
"404","nachhaltig","streben","2.0576"
"405","nachhaltig","alternativ","2.0576"
"406","nachhaltig","umweltpolitik","2.0576"
"407","nachhaltig","beweis","2.0576"
"408","nachhaltig","handel","2.0498"
"409","nachhaltig","entstehend","2.0478"
"410","nachhaltig","umbau","2.0478"
"411","nachhaltig","regierungschefs","2.0478"
"412","nachhaltig","verbleiben","2.0478"
"413","nachhaltig","aufbau","2.0464"
"414","nachhaltig","brunkhorst","2.0446"
"415","nachhaltig","fördern","2.0426"
"416","nachhaltig","unterrichtung","2.0414"
"417","nachhaltig","wind","2.0381"
"418","nachhaltig","see","2.0381"
"419","nachhaltig","verhinderung","2.0381"
"420","nachhaltig","bahnreform","2.0381"
"421","nachhaltig","rasch","2.0318"
"422","nachhaltig","weiterentwickeln","2.0286"
"423","nachhaltig","dual","2.0286"
"424","nachhaltig","bekenntnis","2.0254"
"425","nachhaltig","stabilisierung","2.0229"
"426","nachhaltig","hoppe","2.0191"
"427","nachhaltig","senken","2.0112"
"428","nachhaltig","unterbinden","2.0097"
"429","nachhaltig","derart","2.0097"
"430","nachhaltig","abwenden","2.0097"
"431","nachhaltig","nutzen","2.0035"
"432","nachhaltig","unterbreiten","2.0004"
"433","nachhaltig","erwerb","2.0004"
"434","nachhaltig","aufstockung","2.0004"
"435","nachhaltig","koczy","2.0004"
"436","nachhaltig","schwellenländern","2.0004"
"437","nachhaltig","ostdeutsch","2.0004"
"438","nachhaltig","aktivität","1.9912"
"439","nachhaltig","demografischen","1.9894"
"440","nachhaltig","klare","1.9821"
"441","nachhaltig","veränderung","1.9821"
"442","nachhaltig","spielräume","1.9821"
"443","nachhaltig","gesamtkonzept","1.9821"
"444","nachhaltig","antisemitismus","1.9821"
"445","nachhaltig","bonn","1.9775"
"446","nachhaltig","voranzutreiben","1.973"
"447","nachhaltig","japan","1.973"
"448","nachhaltig","eeg","1.97"
"449","nachhaltig","fundament","1.964"
"450","nachhaltig","wirtschaftlich","1.9606"
"451","nachhaltig","nachweisen","1.9596"
"452","nachhaltig","gravierend","1.9552"
"453","nachhaltig","eingesetzt","1.9552"
"454","nachhaltig","rezession","1.9552"
"455","nachhaltig","grundlegend","1.9463"
"456","nachhaltig","methode","1.9463"
"457","nachhaltig","einseitig","1.9463"
"458","nachhaltig","schützen","1.9428"
"459","nachhaltig","zulasten","1.9405"
"460","nachhaltig","weiche","1.9405"
"461","nachhaltig","prävention","1.9339"
"462","nachhaltig","beitragen","1.9322"
"463","nachhaltig","nachdruck","1.9289"
"464","nachhaltig","einleiten","1.9255"
"465","nachhaltig","einsparung","1.9175"
"466","nachhaltig","schmitt","1.9175"
"467","nachhaltig","soziale","1.917"
"468","nachhaltig","weltwirtschaft","1.9119"
"469","nachhaltig","aufrechterhalte","1.9119"
"470","nachhaltig","förderprogramm","1.9034"
"471","nachhaltig","variante","1.9034"
"472","nachhaltig","basis","1.8967"
"473","nachhaltig","ausgewogen","1.895"
"474","nachhaltig","element","1.895"
"475","nachhaltig","vereinbarkeit","1.895"
"476","nachhaltig","nachhaltigkeit","1.8884"
"477","nachhaltig","innovation","1.8879"
"478","nachhaltig","charakter","1.8867"
"479","nachhaltig","ansatz","1.8794"
"480","nachhaltig","bündnisses","1.8744"
"481","nachhaltig","daseinsvorsorge","1.8704"
"482","nachhaltig","fassen","1.8676"
"483","nachhaltig","schweigen","1.8676"
"484","nachhaltig","vertretbar","1.8623"
"485","nachhaltig","steuermehreinnahmen","1.8623"
"486","nachhaltig","charta","1.8623"
"487","nachhaltig","stadt","1.8623"
"488","nachhaltig","plan","1.859"
"489","nachhaltig","mobilität","1.8582"
"490","nachhaltig","mittelpunkt","1.8569"
"491","nachhaltig","bekämpfung","1.8548"
"492","nachhaltig","verlässlichkeit","1.8542"
"493","nachhaltig","korrektur","1.8542"
"494","nachhaltig","ländlich","1.8516"
"495","nachhaltig","verletzung","1.8463"
"496","nachhaltig","stabil","1.8463"
"497","nachhaltig","novellierung","1.8463"
"498","nachhaltig","globalisierung","1.8463"
"499","nachhaltig","innovativ","1.8463"
"500","nachhaltig","betreffend","1.8384"
"501","nachhaltig","entwicklungszusammenarbeit","1.8384"
"502","nachhaltig","verunsichern","1.8384"
"503","nachhaltig","berichterstatter","1.8305"
"504","nachhaltig","umwelt","1.8288"
"505","nachhaltig","sicher","1.8266"
"506","nachhaltig","stimmung","1.8227"
"507","nachhaltig","billigen","1.815"
"508","nachhaltig","gerecht","1.815"
"509","nachhaltig","versorgungssicherheit","1.815"
"510","nachhaltig","entgegenwirken","1.815"
"511","nachhaltig","ausgleich","1.8119"
"512","nachhaltig","lasst","1.8073"
"513","nachhaltig","erwirtschaften","1.8048"
"514","nachhaltig","verbesserung","1.8012"
"515","nachhaltig","gudrun","1.7997"
"516","nachhaltig","keineswegs","1.7997"
"517","nachhaltig","ökonomisch","1.796"
"518","nachhaltig","voranbringen","1.7947"
"519","nachhaltig","pakt","1.7922"
"520","nachhaltig","atomkraft","1.7922"
"521","nachhaltig","sicherheitslage","1.7847"
"522","nachhaltig","technologisch","1.7847"
"523","nachhaltig","entschließung","1.7847"
"524","nachhaltig","rahmenbedingungen","1.7824"
"525","nachhaltig","steigern","1.7817"
"526","nachhaltig","schwächen","1.7773"
"527","nachhaltig","lebend","1.7773"
"528","nachhaltig","begegnen","1.7773"
"529","nachhaltig","erkennbar","1.7699"
"530","nachhaltig","betreiben","1.7662"
"531","nachhaltig","innenausschusses","1.7626"
"532","nachhaltig","aktionsplan","1.7626"
"533","nachhaltig","titel","1.7598"
"534","nachhaltig","vernunft","1.7553"
"535","nachhaltig","dauer","1.7512"
"536","nachhaltig","gewählt","1.7481"
"537","nachhaltig","anmahnen","1.7481"
"538","nachhaltig","rückgang","1.7457"
"539","nachhaltig","kulturelle","1.7457"
"540","nachhaltig","integrationspolitik","1.7409"
"541","nachhaltig","blockieren","1.7338"
"542","nachhaltig","staatengemeinschaft","1.7267"
"543","nachhaltig","stabilität","1.7239"
"544","nachhaltig","effizient","1.722"
"545","nachhaltig","kinderarmut","1.7162"
"546","nachhaltig","lokal","1.7127"
"547","nachhaltig","konsequent","1.711"
"548","nachhaltig","investieren","1.6971"
"549","nachhaltig","wohlstand","1.6887"
"550","nachhaltig","gesellschaftliche","1.6853"
"551","nachhaltig","steuer-","1.6853"
"552","nachhaltig","garantieren","1.6799"
"553","nachhaltig","konjunktur","1.6799"
"554","nachhaltig","bündeln","1.6786"
"555","nachhaltig","strategisch","1.6764"
"556","nachhaltig","naturschutz","1.673"
"557","nachhaltig","einsetzen","1.6703"
"558","nachhaltig","bewirken","1.6686"
"559","nachhaltig","investition","1.666"
"560","nachhaltig","betroffen","1.6636"
"561","nachhaltig","auseinandersetzen","1.662"
"562","nachhaltig","anstrengung","1.6554"
"563","nachhaltig","pflanze","1.6543"
"564","nachhaltig","bedeutung","1.6464"
"565","nachhaltig","bewältigen","1.6456"
"566","nachhaltig","irgendwie","1.6456"
"567","nachhaltig","plädieren","1.6413"
"568","nachhaltig","kontext","1.6391"
"569","nachhaltig","genitalverstümmelung","1.6391"
"570","nachhaltig","sozial","1.6384"
"571","nachhaltig","beschlossen","1.6327"
"572","nachhaltig","bestandteil","1.6295"
"573","nachhaltig","beitrag","1.6292"
"574","nachhaltig","erfolgreich","1.6286"
"575","nachhaltig","verlässliche","1.6263"
"576","nachhaltig","verankern","1.625"
"577","nachhaltig","agenda","1.6242"
"578","nachhaltig","stadtentwicklung","1.6209"
"579","nachhaltig","hingegen","1.6199"
"580","nachhaltig","derzeitig","1.6168"
"581","nachhaltig","stehend","1.6157"
"582","nachhaltig","vorrang","1.6136"
"583","nachhaltig","unmöglich","1.6136"
"584","nachhaltig","strategie","1.6111"
"585","nachhaltig","unterstützen","1.6098"
"586","nachhaltig","verbessern","1.6085"
"587","nachhaltig","wörtlich","1.6074"
"588","nachhaltig","hinein","1.6074"
"589","nachhaltig","realistisch","1.6074"
"590","nachhaltig","spüren","1.6074"
"591","nachhaltig","projekt","1.606"
"592","nachhaltig","prägen","1.6042"
"593","nachhaltig","strategische","1.6011"
"594","nachhaltig","effektiv","1.598"
"595","nachhaltig","erstmals","1.598"
"596","nachhaltig","funktionierend","1.5949"
"597","nachhaltig","gesundheitsfonds","1.5949"
"598","nachhaltig","ratifizierung","1.5949"
"599","nachhaltig","anlage","1.5925"
"600","nachhaltig","wirksam","1.5919"
"601","nachhaltig","ausbau","1.5888"
"602","nachhaltig","erfordern","1.5867"
"603","nachhaltig","hoffentlich","1.5827"
"604","nachhaltig","sorgen","1.5776"
"605","nachhaltig","verwirklichen","1.5766"
"606","nachhaltig","klimaschutz","1.5744"
"607","nachhaltig","energie-","1.5706"
"608","nachhaltig","aufschwung","1.5586"
"609","nachhaltig","potenziale","1.5586"
"610","nachhaltig","politik","1.5571"
"611","nachhaltig","dortig","1.5526"
"612","nachhaltig","humanitär","1.5497"
"613","nachhaltig","bewusstsein","1.5467"
"614","nachhaltig","klimawandels","1.5467"
"615","nachhaltig","finanzieren","1.5449"
"616","nachhaltig","sichern","1.5446"
"617","nachhaltig","werben","1.5444"
"618","nachhaltig","finanzmärkte","1.5428"
"619","nachhaltig","wiederaufbau","1.5409"
"620","nachhaltig","entfalten","1.5409"
"621","nachhaltig","allzu","1.5409"
"622","nachhaltig","afrika","1.5361"
"623","nachhaltig","last","1.535"
"624","nachhaltig","süden","1.5273"
"625","nachhaltig","akteur","1.5264"
"626","nachhaltig","konzept","1.5258"
"627","nachhaltig","region","1.5235"
"628","nachhaltig","gleichzeitig","1.5235"
"629","nachhaltig","wärme","1.5235"
"630","nachhaltig","einerseits","1.5235"
"631","nachhaltig","entwicklungshilfe","1.5178"
"632","nachhaltig","schutz","1.5139"
"633","nachhaltig","versicherung","1.5121"
"634","nachhaltig","stärken","1.5121"
"635","nachhaltig","entwickeln","1.5055"
"636","nachhaltig","strukturell","1.5053"
"637","nachhaltig","grünen","1.5048"
"638","nachhaltig","unterstreichen","1.5036"
"639","nachhaltig","seriös","1.5008"
"640","nachhaltig","begleiten","1.4985"
"641","nachhaltig","förderung","1.4974"
"642","nachhaltig","stärkung","1.4952"
"643","nachhaltig","marieluise","1.4896"
"644","nachhaltig","suchen","1.4848"
"645","nachhaltig","landwirtschaft","1.484"
"646","nachhaltig","global","1.4827"
"647","nachhaltig","nahe","1.4822"
"648","nachhaltig","anreiz","1.4804"
"649","nachhaltig","nachvollziehbar","1.4785"
"650","nachhaltig","ethisch","1.4731"
"651","nachhaltig","strom","1.472"
"652","nachhaltig","anforderung","1.4676"
"653","nachhaltig","wettbewerbsfähigkeit","1.4676"
"654","nachhaltig","grundlage","1.4652"
"655","nachhaltig","arbeitslosenversicherung","1.4622"
"656","nachhaltig","nunmehr","1.4622"
"657","nachhaltig","reduzierung","1.4604"
"658","nachhaltig","verändern","1.4593"
"659","nachhaltig","infrastruktur","1.4554"
"660","nachhaltig","zugunsten","1.4532"
"661","nachhaltig","dimension","1.4532"
"662","nachhaltig","zentral","1.4522"
"663","nachhaltig","vermeiden","1.4514"
"664","nachhaltig","erneuerbaren","1.4501"
"665","nachhaltig","dar","1.4419"
"666","nachhaltig","produktion","1.4355"
"667","nachhaltig","dienen","1.4342"
"668","nachhaltig","herausforderung","1.4323"
"669","nachhaltig","zerstören","1.432"
"670","nachhaltig","andererseits","1.4313"
"671","nachhaltig","überwinden","1.425"
"672","nachhaltig","konkrete","1.4221"
"673","nachhaltig","überweisungsvorschlag","1.4175"
"674","nachhaltig","automatisch","1.4147"
"675","nachhaltig","materiell","1.4147"
"676","nachhaltig","bundesministerium","1.4147"
"677","nachhaltig","seitens","1.4147"
"678","nachhaltig","solidarität","1.4121"
"679","nachhaltig","beschränken","1.4121"
"680","nachhaltig","reform","1.4044"
"681","nachhaltig","bemühung","1.4019"
"682","nachhaltig","gute","1.3993"
"683","nachhaltig","zertifikat","1.3993"
"684","nachhaltig","wissenschaftlich","1.3993"
"685","nachhaltig","regelmäßig","1.3943"
"686","nachhaltig","korruption","1.3943"
"687","nachhaltig","schiene","1.3909"
"688","nachhaltig","zurückkehren","1.3892"
"689","nachhaltig","dynamik","1.3892"
"690","nachhaltig","sowie","1.3817"
"691","nachhaltig","angelika","1.3809"
"692","nachhaltig","demokratische","1.3809"
"693","nachhaltig","beschäftigung","1.3798"
"694","nachhaltig","sachverständigenrat","1.3792"
"695","nachhaltig","kooperation","1.3792"
"696","nachhaltig","ergreifen","1.371"
"697","nachhaltig","chance","1.371"
"698","nachhaltig","schlüssel","1.3693"
"699","nachhaltig","vornehm","1.3693"
"700","nachhaltig","bundesagentur","1.3693"
"701","nachhaltig","staatlich","1.3666"
"702","nachhaltig","definieren","1.362"
"703","nachhaltig","zp","1.3605"
"704","nachhaltig","vermitteln","1.3595"
"705","nachhaltig","richtige","1.3595"
"706","nachhaltig","vernachlässigen","1.3547"
"707","nachhaltig","aufbauen","1.345"
"708","nachhaltig","gezielt","1.345"
"709","nachhaltig","einfluss","1.3412"
"710","nachhaltig","arbeitsplätze","1.3402"
"711","nachhaltig","beitragssatz","1.3386"
"712","nachhaltig","lösung","1.3378"
"713","nachhaltig","zeichen","1.3373"
"714","nachhaltig","bemühen","1.337"
"715","nachhaltig","streichen","1.3354"
"716","nachhaltig","mittelfristig","1.3354"
"717","nachhaltig","mutig","1.3354"
"718","nachhaltig","somit","1.3331"
"719","nachhaltig","priorität","1.3323"
"720","nachhaltig","notwendige","1.3316"
"721","nachhaltig","bekannt","1.3307"
"722","nachhaltig","ziel","1.3296"
"723","nachhaltig","novelle","1.3291"
"724","nachhaltig","achten","1.3291"
"725","nachhaltig","bedingung","1.3236"
"726","nachhaltig","faire","1.3212"
"727","nachhaltig","ausführlich","1.3197"
"728","nachhaltig","afrikanisch","1.3197"
"729","nachhaltig","einbringen","1.3175"
"730","nachhaltig","setzen","1.3171"
"731","nachhaltig","auslösen","1.3166"
"732","nachhaltig","erneuerbarer","1.3166"
"733","nachhaltig","gelingen","1.3119"
"734","nachhaltig","anwenden","1.3104"
"735","nachhaltig","effizienz","1.3073"
"736","nachhaltig","altersarmut","1.3073"
"737","nachhaltig","volk","1.3026"
"738","nachhaltig","aufpassen","1.3026"
"739","nachhaltig","energiepreise","1.3026"
"740","nachhaltig","finanzmarktkrise","1.3026"
"741","nachhaltig","aussehen","1.2958"
"742","nachhaltig","gremium","1.295"
"743","nachhaltig","vordergrund","1.2935"
"744","nachhaltig","regional","1.2919"
"745","nachhaltig","impuls","1.2919"
"746","nachhaltig","dringen","1.2914"
"747","nachhaltig","infrage","1.2912"
"748","nachhaltig","irak","1.2889"
"749","nachhaltig","technische","1.2889"
"750","nachhaltig","bieten","1.2856"
"751","nachhaltig","anerkennen","1.2853"
"752","nachhaltig","tradition","1.2844"
"753","nachhaltig","gesichtspunkt","1.2829"
"754","nachhaltig","rentenversicherung","1.2817"
"755","nachhaltig","zukunft","1.2816"
"756","nachhaltig","jeweilig","1.2799"
"757","nachhaltig","friedlich","1.2799"
"758","nachhaltig","verabschiedung","1.2754"
"759","nachhaltig","erinnerung","1.2739"
"760","nachhaltig","drucksachen","1.2718"
"761","nachhaltig","gewährleisten","1.2709"
"762","nachhaltig","reise","1.2709"
"763","nachhaltig","tod","1.2664"
"764","nachhaltig","produkt","1.2658"
"765","nachhaltig","beachten","1.265"
"766","nachhaltig","konzentrieren","1.262"
"767","nachhaltig","erfahren","1.262"
"768","nachhaltig","juli","1.262"
"769","nachhaltig","landwirtschaftlich","1.262"
"770","nachhaltig","qualifizierung","1.2576"
"771","nachhaltig","bauer","1.2561"
"772","nachhaltig","illegal","1.2488"
"773","nachhaltig","volkswirtschaft","1.2488"
"774","nachhaltig","ermöglichen","1.2484"
"775","nachhaltig","heinz","1.2474"
"776","nachhaltig","erneut","1.2462"
"777","nachhaltig","gebäude","1.2445"
"778","nachhaltig","entweder","1.2416"
"779","nachhaltig","voraussetzung","1.2413"
"780","nachhaltig","zugrunde","1.2401"
"781","nachhaltig","einbeziehen","1.2401"
"782","nachhaltig","sektor","1.2401"
"783","nachhaltig","entlastung","1.2393"
"784","nachhaltig","erachten","1.2393"
"785","nachhaltig","tisch","1.2375"
"786","nachhaltig","auflegen","1.2358"
"787","nachhaltig","absichern","1.2358"
"788","nachhaltig","berichterstattung","1.2349"
"789","nachhaltig","zeitpunkt","1.2344"
"790","nachhaltig","kriterium","1.2324"
"791","nachhaltig","prozeß","1.2272"
"792","nachhaltig","programm","1.2244"
"793","nachhaltig","verringern","1.223"
"794","nachhaltig","vernünftig","1.221"
"795","nachhaltig","neben","1.2208"
"796","nachhaltig","berücksichtigung","1.2187"
"797","nachhaltig","voraus","1.2187"
"798","nachhaltig","steuerzahler","1.2166"
"799","nachhaltig","entziehen","1.2145"
"800","nachhaltig","eignen","1.2131"
"801","nachhaltig","einsatz","1.2118"
"802","nachhaltig","zentrum","1.2103"
"803","nachhaltig","kapital","1.2103"
"804","nachhaltig","praxis","1.2075"
"805","nachhaltig","glaubwürdigkeit","1.2061"
"806","nachhaltig","ding","1.2059"
"807","nachhaltig","schaffen","1.2021"
"808","nachhaltig","erfolg","1.2019"
"809","nachhaltig","zukünftig","1.2019"
"810","nachhaltig","hinsicht","1.1991"
"811","nachhaltig","addicks","1.1977"
"812","nachhaltig","lauf","1.1977"
"813","nachhaltig","mitwirken","1.1977"
"814","nachhaltig","glaubwürdig","1.1977"
"815","nachhaltig","kopp","1.1977"
"816","nachhaltig","zielen","1.1964"
"817","nachhaltig","gesund","1.1936"
"818","nachhaltig","aspekt","1.1924"
"819","nachhaltig","verordnung","1.1909"
"820","nachhaltig","operation","1.1895"
"821","nachhaltig","versetzen","1.1895"
"822","nachhaltig","umfassen","1.1895"
"823","nachhaltig","landwirt","1.1895"
"824","nachhaltig","hinsichtlich","1.1884"
"825","nachhaltig","bedarf","1.183"
"826","nachhaltig","kinderzuschlag","1.1826"
"827","nachhaltig","organisieren","1.1745"
"828","nachhaltig","überwiegen","1.1732"
"829","nachhaltig","große","1.1675"
"830","nachhaltig","kanzlerin","1.1611"
"831","nachhaltig","ute","1.1611"
"832","nachhaltig","erreichen","1.1556"
"833","nachhaltig","klar","1.1531"
"834","nachhaltig","grüner","1.1505"
"835","nachhaltig","viertens","1.1491"
"836","nachhaltig","agieren","1.1491"
"837","nachhaltig","irgendwann","1.1478"
"838","nachhaltig","maßnahme","1.1476"
"839","nachhaltig","modernisierung","1.1452"
"840","nachhaltig","truppe","1.1452"
"841","nachhaltig","tatsächlich","1.1452"
"842","nachhaltig","belegen","1.1432"
"843","nachhaltig","bedürfnis","1.1335"
"844","nachhaltig","lediglich","1.1315"
"845","nachhaltig","boden","1.1296"
"846","nachhaltig","gesundheit","1.1274"
"847","nachhaltig","wirklich","1.1263"
"848","nachhaltig","beinhalten","1.1257"
"849","nachhaltig","kürzen","1.1257"
"850","nachhaltig","fuß","1.1257"
"851","nachhaltig","ost","1.1244"
"852","nachhaltig","wachsend","1.1219"
"853","nachhaltig","sinnvoll","1.1211"
"854","nachhaltig","einsparen","1.118"
"855","nachhaltig","finanziell","1.112"
"856","nachhaltig","dirk","1.1117"
"857","nachhaltig","aufstocken","1.1104"
"858","nachhaltig","verfolgen","1.1098"
"859","nachhaltig","steigerung","1.1041"
"860","nachhaltig","rücken","1.1041"
"861","nachhaltig","darin","1.1032"
"862","nachhaltig","personal","1.1016"
"863","nachhaltig","leisten","1.1005"
"864","nachhaltig","ereignis","1.099"
"865","nachhaltig","finanzielle","1.0953"
"866","nachhaltig","internationale","1.0924"
"867","nachhaltig","letztlich","1.0916"
"868","nachhaltig","appellieren","1.0878"
"869","nachhaltig","kommunal","1.086"
"870","nachhaltig","angehen","1.0841"
"871","nachhaltig","hinaus","1.0821"
"872","nachhaltig","schüler","1.0804"
"873","nachhaltig","energie","1.0799"
"874","nachhaltig","solange","1.0792"
"875","nachhaltig","vertrauen","1.0788"
"876","nachhaltig","national","1.0773"
"877","nachhaltig","bewegung","1.0767"
"878","nachhaltig","ausweiten","1.0767"
"879","nachhaltig","experte","1.0767"
"880","nachhaltig","erfolgen","1.0749"
"881","nachhaltig","wissenschaft","1.0749"
"882","nachhaltig","geschäft","1.0731"
"883","nachhaltig","bildung","1.0698"
"884","nachhaltig","realisieren","1.0694"
"885","nachhaltig","flexibel","1.0694"
"886","nachhaltig","zeitlich","1.0658"
"887","nachhaltig","korrigieren","1.0621"
"888","nachhaltig","sinn","1.0616"
"889","nachhaltig","osten","1.0564"
"890","nachhaltig","eintreten","1.0535"
"891","nachhaltig","integration","1.0529"
"892","nachhaltig","wolle","1.0525"
"893","nachhaltig","fort","1.0513"
"894","nachhaltig","gemeinsam","1.0486"
"895","nachhaltig","raum","1.0477"
"896","nachhaltig","sozialdemokrat","1.0477"
"897","nachhaltig","wesentlich","1.0442"
"898","nachhaltig","empfehlung","1.0442"
"899","nachhaltig","inhalt","1.043"
"900","nachhaltig","stattdessen","1.0406"
"901","nachhaltig","hierbei","1.0406"
"902","nachhaltig","ort","1.0399"
"903","nachhaltig","je","1.0322"
"904","nachhaltig","erbringen","1.0289"
"905","nachhaltig","belastung","1.0283"
"906","nachhaltig","gang","1.0265"
"907","nachhaltig","kampf","1.0265"
"908","nachhaltig","bremen","1.0231"
"909","nachhaltig","positiv","1.0221"
"910","nachhaltig","dadurch","1.0178"
"911","nachhaltig","anpassung","1.0161"
"912","nachhaltig","geplant","1.015"
"913","nachhaltig","vorhanden","1.0127"
"914","nachhaltig","bestand","1.0058"
"915","nachhaltig","verzichten","1.0041"
"916","nachhaltig","bilanz","1.0012"
"917","nachhaltig","verwenden","1.0007"
"918","nachhaltig","verbunden","0.9956"
"919","nachhaltig","christel","0.9922"
"920","nachhaltig","hinz","0.9922"
"921","nachhaltig","gesellschaft","0.9859"
"922","nachhaltig","außen","0.9854"
"923","nachhaltig","vorsitzende","0.9854"
"924","nachhaltig","finanzkrise","0.9854"
"925","nachhaltig","markt","0.9846"
"926","nachhaltig","reaktorsicherheit","0.9814"
"927","nachhaltig","drucksache","0.9805"
"928","nachhaltig","starke","0.9788"
"929","nachhaltig","ablehnung","0.9788"
"930","nachhaltig","erstens","0.9781"
"931","nachhaltig","weder","0.9743"
"932","nachhaltig","nation","0.9734"
"933","nachhaltig","überzeugen","0.971"
"934","nachhaltig","finanz","0.9699"
"935","nachhaltig","elterngeld","0.9688"
"936","nachhaltig","zusammenarbeit","0.9685"
"937","nachhaltig","beruf","0.9672"
"938","nachhaltig","massiv","0.9655"
"939","nachhaltig","zusagen","0.9655"
"940","nachhaltig","steigend","0.9633"
"941","nachhaltig","politisch","0.963"
"942","nachhaltig","bald","0.9622"
"943","nachhaltig","anwendung","0.9622"
"944","nachhaltig","eng","0.959"
"945","nachhaltig","allgemein","0.959"
"946","nachhaltig","china","0.9552"
"947","nachhaltig","verpflichtung","0.9541"
"948","nachhaltig","fähigkeit","0.9524"
"949","nachhaltig","krankheit","0.9503"
"950","nachhaltig","gabriel","0.9503"
"951","nachhaltig","bedrohen","0.9492"
"952","nachhaltig","möglich","0.9466"
"953","nachhaltig","öffnen","0.946"
"954","nachhaltig","maß","0.946"
"955","nachhaltig","schöne","0.946"
"956","nachhaltig","sicherstellen","0.9434"
"957","nachhaltig","arbeitsmarkt","0.9432"
"958","nachhaltig","abhängig","0.9427"
"959","nachhaltig","zuletzt","0.9379"
"960","nachhaltig","teuer","0.9374"
"961","nachhaltig","versorgung","0.9347"
"962","nachhaltig","ausweitung","0.9331"
"963","nachhaltig","greifen","0.9284"
"964","nachhaltig","bau","0.9276"
"965","nachhaltig","gegenwärtig","0.9268"
"966","nachhaltig","insgesamt","0.9226"
"967","nachhaltig","klimawandel","0.9226"
"968","nachhaltig","bauen","0.9205"
"969","nachhaltig","junge","0.9194"
"970","nachhaltig","nachdem","0.9189"
"971","nachhaltig","instrument","0.9188"
"972","nachhaltig","fortsetzen","0.9158"
"973","nachhaltig","usw","0.9142"
"974","nachhaltig","resolution","0.9142"
"975","nachhaltig","ernährung","0.9101"
"976","nachhaltig","kraft","0.9088"
"977","nachhaltig","bevölkerung","0.908"
"978","nachhaltig","angebot","0.908"
"979","nachhaltig","weiterentwicklung","0.908"
"980","nachhaltig","zweitens","0.9066"
"981","nachhaltig","system","0.9064"
"982","nachhaltig","angriff","0.9049"
"983","nachhaltig","kulturell","0.9049"
"984","nachhaltig","perspektive","0.9033"
"985","nachhaltig","engagement","0.9018"
"986","nachhaltig","verlassen","0.8997"
"987","nachhaltig","notwendigkeit","0.8997"
"988","nachhaltig","ernsthaft","0.8987"
"989","nachhaltig","blick","0.897"
"990","nachhaltig","helfen","0.8946"
"991","nachhaltig","anschlag","0.8926"
"992","nachhaltig","technologie","0.8917"
"993","nachhaltig","initiative","0.8895"
"994","nachhaltig","hohen","0.8895"
"995","nachhaltig","betonen","0.8883"
"996","nachhaltig","vielfältig","0.8865"
"997","nachhaltig","senkung","0.8855"
"998","nachhaltig","verbinden","0.8855"
"999","nachhaltig","formulieren","0.8847"
"1000","nachhaltig","interesse","0.879"
"1001","nachhaltig","träger","0.8774"
"1002","nachhaltig","versuch","0.8754"
"1003","nachhaltig","vorgabe","0.8754"
"1004","nachhaltig","unterstützung","0.8744"
"1005","nachhaltig","verkehr","0.8729"
"1006","nachhaltig","abbauen","0.8714"
"1007","nachhaltig","detail","0.8654"
"1008","nachhaltig","europäisch","0.8643"
"1009","nachhaltig","einnehmen","0.8595"
"1010","nachhaltig","auto","0.8595"
"1011","nachhaltig","sicherheit","0.8581"
"1012","nachhaltig","insbesondere","0.8562"
"1013","nachhaltig","beweisen","0.8536"
"1014","nachhaltig","bestehend","0.8536"
"1015","nachhaltig","widersprechen","0.8536"
"1016","nachhaltig","signal","0.8524"
"1017","nachhaltig","dienstleistungen","0.8448"
"1018","nachhaltig","dialog","0.8419"
"1019","nachhaltig","jedoch","0.838"
"1020","nachhaltig","verteilen","0.8361"
"1021","nachhaltig","vergessen","0.8361"
"1022","nachhaltig","gemeinschaft","0.8361"
"1023","nachhaltig","horst","0.8332"
"1024","nachhaltig","leiden","0.8303"
"1025","nachhaltig","hervorragend","0.8275"
"1026","nachhaltig","nachdenken","0.8269"
"1027","nachhaltig","demokratie","0.8256"
"1028","nachhaltig","sowohl","0.8254"
"1029","nachhaltig","richtung","0.8246"
"1030","nachhaltig","legislaturperiode","0.8232"
"1031","nachhaltig","außerdem","0.8199"
"1032","nachhaltig","gebiet","0.8175"
"1033","nachhaltig","wahrscheinlich","0.8161"
"1034","nachhaltig","parlamentarisch","0.8144"
"1035","nachhaltig","dauern","0.8132"
"1036","nachhaltig","wunsch","0.8132"
"1037","nachhaltig","ersetzen","0.8048"
"1038","nachhaltig","prozess","0.8034"
"1039","nachhaltig","rund","0.802"
"1040","nachhaltig","profitieren","0.802"
"1041","nachhaltig","hilfe","0.8006"
"1042","nachhaltig","christian","0.8006"
"1043","nachhaltig","ebene","0.7992"
"1044","nachhaltig","herrschen","0.7992"
"1045","nachhaltig","aufklärung","0.7992"
"1046","nachhaltig","rahmen","0.7982"
"1047","nachhaltig","weiterentwickel","0.7937"
"1048","nachhaltig","gesellschaftlich","0.7909"
"1049","nachhaltig","letztendlich","0.7909"
"1050","nachhaltig","schlagen","0.7872"
"1051","nachhaltig","zuvor","0.7854"
"1052","nachhaltig","gesamt","0.7799"
"1053","nachhaltig","verbraucherinnen","0.7799"
"1054","nachhaltig","auffordern","0.7781"
"1055","nachhaltig","bringen","0.7735"
"1056","nachhaltig","statt","0.7717"
"1057","nachhaltig","bitten","0.7717"
"1058","nachhaltig","notwendig","0.7706"
"1059","nachhaltig","fordern","0.7693"
"1060","nachhaltig","fortschritt","0.768"
"1061","nachhaltig","wirtschaft","0.7679"
"1062","nachhaltig","regel","0.7669"
"1063","nachhaltig","konflikt","0.7654"
"1064","nachhaltig","summe","0.7636"
"1065","nachhaltig","umgehen","0.7636"
"1066","nachhaltig","fahren","0.76"
"1067","nachhaltig","beginn","0.7583"
"1068","nachhaltig","treten","0.7565"
"1069","nachhaltig","mitte","0.7556"
"1070","nachhaltig","ebenso","0.754"
"1071","nachhaltig","vorbereiten","0.7529"
"1072","nachhaltig","berücksichtigen","0.7529"
"1073","nachhaltig","genauso","0.7514"
"1074","nachhaltig","schnell","0.7512"
"1075","nachhaltig","legen","0.7507"
"1076","nachhaltig","zusätzlich","0.7476"
"1077","nachhaltig","nr","0.7476"
"1078","nachhaltig","vorlegen","0.7476"
"1079","nachhaltig","drittens","0.7463"
"1080","nachhaltig","einrichtung","0.745"
"1081","nachhaltig","menschenrechte","0.745"
"1082","nachhaltig","nachfrage","0.7424"
"1083","nachhaltig","fühlen","0.7397"
"1084","nachhaltig","westen","0.7397"
"1085","nachhaltig","grenze","0.7397"
"1086","nachhaltig","geld","0.7386"
"1087","nachhaltig","manchmal","0.7358"
"1088","nachhaltig","brauchen","0.733"
"1089","nachhaltig","eigen","0.731"
"1090","nachhaltig","vereinte","0.7302"
"1091","nachhaltig","haushalt","0.7299"
"1092","nachhaltig","eigene","0.7267"
"1093","nachhaltig","partner","0.7267"
"1094","nachhaltig","außenpolitik","0.7267"
"1095","nachhaltig","tätigkeit","0.7267"
"1096","nachhaltig","weltweit","0.725"
"1097","nachhaltig","reichen","0.7177"
"1098","nachhaltig","schaffung","0.7138"
"1099","nachhaltig","mittelständisch","0.7138"
"1100","nachhaltig","liefern","0.7113"
"1101","nachhaltig","bündnis","0.7106"
"1102","nachhaltig","besonder","0.7069"
"1103","nachhaltig","rein","0.7062"
"1104","nachhaltig","gewinnen","0.7049"
"1105","nachhaltig","faktum","0.6986"
"1106","nachhaltig","weise","0.6983"
"1107","nachhaltig","weitere","0.6911"
"1108","nachhaltig","trotzdem","0.6911"
"1109","nachhaltig","enthalten","0.6904"
"1110","nachhaltig","organisation","0.6894"
"1111","nachhaltig","kosovo","0.6877"
"1112","nachhaltig","land","0.6819"
"1113","nachhaltig","miteinander","0.6811"
"1114","nachhaltig","kern","0.6811"
"1115","nachhaltig","dafür","0.6759"
"1116","nachhaltig","bereich","0.6752"
"1117","nachhaltig","angemessen","0.6713"
"1118","nachhaltig","zuständig","0.6654"
"1119","nachhaltig","ikb","0.6639"
"1120","nachhaltig","gedanke","0.6631"
"1121","nachhaltig","jugendliche","0.6629"
"1122","nachhaltig","hoffen","0.6608"
"1123","nachhaltig","einzig","0.6599"
"1124","nachhaltig","kaum","0.6567"
"1125","nachhaltig","zehn","0.6531"
"1126","nachhaltig","gegenteil","0.6519"
"1127","nachhaltig","anbieten","0.6519"
"1128","nachhaltig","modern","0.6519"
"1129","nachhaltig","einstellen","0.6503"
"1130","nachhaltig","acht","0.6495"
"1131","nachhaltig","erfüllen","0.648"
"1132","nachhaltig","persönlich","0.6471"
"1133","nachhaltig","koalitionsvertrag","0.6471"
"1134","nachhaltig","schwerpunkt","0.6471"
"1135","nachhaltig","abgeordneter","0.6394"
"1136","nachhaltig","sinken","0.636"
"1137","nachhaltig","gerade","0.6359"
"1138","nachhaltig","qualifizieren","0.6352"
"1139","nachhaltig","verzeichnen","0.6328"
"1140","nachhaltig","kümmern","0.6312"
"1141","nachhaltig","öffentlich","0.6285"
"1142","nachhaltig","genügen","0.6258"
"1143","nachhaltig","nächst","0.6256"
"1144","nachhaltig","vorliegend","0.6188"
"1145","nachhaltig","tat","0.618"
"1146","nachhaltig","grüne","0.6177"
"1147","nachhaltig","schritt","0.6155"
"1148","nachhaltig","sicherlich","0.6118"
"1149","nachhaltig","zweifel","0.611"
"1150","nachhaltig","einhalten","0.6095"
"1151","nachhaltig","unbedingt","0.6072"
"1152","nachhaltig","vorteil","0.6072"
"1153","nachhaltig","januar","0.606"
"1154","nachhaltig","bezug","0.606"
"1155","nachhaltig","ziemlich","0.6049"
"1156","nachhaltig","engagieren","0.6049"
"1157","nachhaltig","wichtig","0.6033"
"1158","nachhaltig","bisher","0.6007"
"1159","nachhaltig","freiheit","0.6003"
"1160","nachhaltig","mitgliedstaaten","0.5988"
"1161","nachhaltig","seehofer","0.598"
"1162","nachhaltig","verstärken","0.5958"
"1163","nachhaltig","krankenversicherung","0.5958"
"1164","nachhaltig","hand","0.595"
"1165","nachhaltig","bund","0.5912"
"1166","nachhaltig","antrag","0.5872"
"1167","nachhaltig","durchführen","0.5822"
"1168","nachhaltig","bedeuten","0.5809"
"1169","nachhaltig","endlich","0.5804"
"1170","nachhaltig","genug","0.58"
"1171","nachhaltig","wenigstens","0.58"
"1172","nachhaltig","kleine","0.5763"
"1173","nachhaltig","darüber","0.5733"
"1174","nachhaltig","äußern","0.5733"
"1175","nachhaltig","international","0.5726"
"1176","nachhaltig","zugleich","0.5711"
"1177","nachhaltig","jährlich","0.5703"
"1178","nachhaltig","vielmehr","0.5689"
"1179","nachhaltig","begrüßen","0.5681"
"1180","nachhaltig","bericht","0.5675"
"1181","nachhaltig","verbot","0.5666"
"1182","nachhaltig","betrieb","0.5662"
"1183","nachhaltig","hinblick","0.5618"
"1184","nachhaltig","müssen","0.5606"
"1185","nachhaltig","schlimm","0.5557"
"1186","nachhaltig","mittelstand","0.5557"
"1187","nachhaltig","fond","0.5557"
"1188","nachhaltig","schließlich","0.5546"
"1189","nachhaltig","glauben","0.5533"
"1190","nachhaltig","dabei","0.5517"
"1191","nachhaltig","cdu/csu","0.5503"
"1192","nachhaltig","mensch","0.5491"
"1193","nachhaltig","grundsatz","0.5484"
"1194","nachhaltig","aufstellen","0.547"
"1195","nachhaltig","stark","0.5463"
"1196","nachhaltig","form","0.5434"
"1197","nachhaltig","lösen","0.5409"
"1198","nachhaltig","besonders","0.5401"
"1199","nachhaltig","diskussion","0.5376"
"1200","nachhaltig","orientieren","0.5362"
"1201","nachhaltig","privat","0.5341"
"1202","nachhaltig","vergangen","0.5326"
"1203","nachhaltig","lang","0.5319"
"1204","nachhaltig","straße","0.5277"
"1205","nachhaltig","welt","0.5274"
"1206","nachhaltig","erarbeiten","0.5234"
"1207","nachhaltig","oft","0.5205"
"1208","nachhaltig","ag","0.5199"
"1209","nachhaltig","genannt","0.5108"
"1210","nachhaltig","arbeitslosigkeit","0.5101"
"1211","nachhaltig","eindeutig","0.5098"
"1212","nachhaltig","allein","0.5097"
"1213","nachhaltig","weitergehen","0.5088"
"1214","nachhaltig","reduzieren","0.5074"
"1215","nachhaltig","bestimmen","0.5058"
"1216","nachhaltig","behandeln","0.5032"
"1217","nachhaltig","umsetzen","0.503"
"1218","nachhaltig","heißen","0.5002"
"1219","nachhaltig","bisherig","0.4977"
"1220","nachhaltig","handeln","0.4969"
"1221","nachhaltig","familie","0.4966"
"1222","nachhaltig","arbeiten","0.4959"
"1223","nachhaltig","fehlen","0.4932"
"1224","nachhaltig","aufnehmen","0.4881"
"1225","nachhaltig","mindestens","0.4854"
"1226","nachhaltig","teilhabe","0.4841"
"1227","nachhaltig","stellen","0.4841"
"1228","nachhaltig","redner","0.482"
"1229","nachhaltig","herstellen","0.48"
"1230","nachhaltig","patient","0.478"
"1231","nachhaltig","direkt","0.476"
"1232","nachhaltig","darstellen","0.4752"
"1233","nachhaltig","zweit","0.4746"
"1234","nachhaltig","polizei","0.4699"
"1235","nachhaltig","schwierig","0.4695"
"1236","nachhaltig","ausbildung","0.4689"
"1237","nachhaltig","beispielsweise","0.4666"
"1238","nachhaltig","art","0.4659"
"1239","nachhaltig","defizit","0.4659"
"1240","nachhaltig","mittel","0.4639"
"1241","nachhaltig","bürokratie","0.4639"
"1242","nachhaltig","gesetzliche","0.4639"
"1243","nachhaltig","her","0.4619"
"1244","nachhaltig","verpflichten","0.4613"
"1245","nachhaltig","entsprechen","0.4566"
"1246","nachhaltig","beid","0.456"
"1247","nachhaltig","entlasten","0.454"
"1248","nachhaltig","kultur","0.4521"
"1249","nachhaltig","darauf","0.4496"
"1250","nachhaltig","gefahr","0.4471"
"1251","nachhaltig","arm","0.4442"
"1252","nachhaltig","vorschlag","0.4427"
"1253","nachhaltig","deutsch","0.4417"
"1254","nachhaltig","angesichts","0.4403"
"1255","nachhaltig","abgeordnete","0.4395"
"1256","nachhaltig","lage","0.4381"
"1257","nachhaltig","sicht","0.4342"
"1258","nachhaltig","deshalb","0.4334"
"1259","nachhaltig","gesetzlich","0.4326"
"1260","nachhaltig","spd","0.4323"
"1261","nachhaltig","bundesregierung","0.4321"
"1262","nachhaltig","deutsche","0.4287"
"1263","nachhaltig","auswirkung","0.4287"
"1264","nachhaltig","kommune","0.4287"
"1265","nachhaltig","darum","0.4274"
"1266","nachhaltig","ergeben","0.4274"
"1267","nachhaltig","unternehmen","0.427"
"1268","nachhaltig","regierung","0.4269"
"1269","nachhaltig","politische","0.4256"
"1270","nachhaltig","verdienen","0.4249"
"1271","nachhaltig","bewegen","0.4236"
"1272","nachhaltig","zeigen","0.4228"
"1273","nachhaltig","weit","0.4212"
"1274","nachhaltig","prinzip","0.421"
"1275","nachhaltig","verhältnis","0.4198"
"1276","nachhaltig","lernen","0.4198"
"1277","nachhaltig","stehen","0.4186"
"1278","nachhaltig","erkennen","0.4157"
"1279","nachhaltig","koalition","0.4143"
"1280","nachhaltig","risiko","0.4116"
"1281","nachhaltig","bürger","0.411"
"1282","nachhaltig","daher","0.4082"
"1283","nachhaltig","marktwirtschaft","0.4059"
"1284","nachhaltig","idee","0.4059"
"1285","nachhaltig","fdp-fraktion","0.4012"
"1286","nachhaltig","zivil","0.4003"
"1287","nachhaltig","steinbrück","0.4003"
"1288","nachhaltig","verbraucher","0.3993"
"1289","nachhaltig","problem","0.399"
"1290","nachhaltig","mutter","0.3984"
"1291","nachhaltig","deutschland","0.3982"
"1292","nachhaltig","anspruch","0.3954"
"1293","nachhaltig","künftig","0.3928"
"1294","nachhaltig","anfang","0.3928"
"1295","nachhaltig","solch","0.3923"
"1296","nachhaltig","interessant","0.391"
"1297","nachhaltig","deswegen","0.39"
"1298","nachhaltig","bislang","0.3891"
"1299","nachhaltig","daran","0.3884"
"1300","nachhaltig","häufig","0.3873"
"1301","nachhaltig","dass","0.3861"
"1302","nachhaltig","vorgehen","0.386"
"1303","nachhaltig","afghanistan","0.3852"
"1304","nachhaltig","leider","0.384"
"1305","nachhaltig","erfahrung","0.3836"
"1306","nachhaltig","ursache","0.3836"
"1307","nachhaltig","zumindest","0.3807"
"1308","nachhaltig","wille","0.3799"
"1309","nachhaltig","erhöhen","0.3778"
"1310","nachhaltig","dritte","0.369"
"1311","nachhaltig","verlangen","0.3678"
"1312","nachhaltig","union","0.3677"
"1313","nachhaltig","einführung","0.3654"
"1314","nachhaltig","neue","0.3645"
"1315","nachhaltig","obwohl","0.36"
"1316","nachhaltig","schnellen","0.3575"
"1317","nachhaltig","kommission","0.3564"
"1318","nachhaltig","inzwischen","0.3555"
"1319","nachhaltig","überzeugung","0.3546"
"1320","nachhaltig","klaren","0.3534"
"1321","nachhaltig","schluss","0.3525"
"1322","nachhaltig","wert","0.3525"
"1323","nachhaltig","alt","0.3489"
"1324","nachhaltig","qualität","0.3487"
"1325","nachhaltig","führen","0.3472"
"1326","nachhaltig","europa","0.346"
"1327","nachhaltig","teil","0.3433"
"1328","nachhaltig","vornehmen","0.3416"
"1329","nachhaltig","weiterhin","0.3404"
"1330","nachhaltig","erzielen","0.3392"
"1331","nachhaltig","deutschen","0.3376"
"1332","nachhaltig","gut","0.3348"
"1333","nachhaltig","auftrag","0.3346"
"1334","nachhaltig","großen","0.3313"
"1335","nachhaltig","gutes","0.3311"
"1336","nachhaltig","zentrale","0.3282"
"1337","nachhaltig","grundsätzlich","0.3264"
"1338","nachhaltig","rechtlich","0.323"
"1339","nachhaltig","fest","0.3189"
"1340","nachhaltig","innerhalb","0.3186"
"1341","nachhaltig","partei","0.3178"
"1342","nachhaltig","bewerten","0.3161"
"1343","nachhaltig","modell","0.3161"
"1344","nachhaltig","kind","0.3161"
"1345","nachhaltig","beschäftigen","0.3133"
"1346","nachhaltig","fraktion","0.3115"
"1347","nachhaltig","jahrzehnt","0.3109"
"1348","nachhaltig","entscheiden","0.3104"
"1349","nachhaltig","früh","0.3033"
"1350","nachhaltig","übrigen","0.3024"
"1351","nachhaltig","soldatinnen","0.3007"
"1352","nachhaltig","verfügung","0.299"
"1353","nachhaltig","bundesverfassungsgericht","0.299"
"1354","nachhaltig","sollen","0.2978"
"1355","nachhaltig","versuchen","0.2962"
"1356","nachhaltig","entscheidend","0.2957"
"1357","nachhaltig","zulassen","0.2957"
"1358","nachhaltig","kinderbetreuung","0.294"
"1359","nachhaltig","entsprechend","0.2898"
"1360","nachhaltig","schreiben","0.2889"
"1361","nachhaltig","all","0.2869"
"1362","nachhaltig","folgen","0.2864"
"1363","nachhaltig","mehrfach","0.2839"
"1364","nachhaltig","eben","0.2835"
"1365","nachhaltig","russland","0.2779"
"1366","nachhaltig","demokratisch","0.2757"
"1367","nachhaltig","kommend","0.2707"
"1368","nachhaltig","arbeit","0.2683"
"1369","nachhaltig","reich","0.2674"
"1370","nachhaltig","beispiel","0.2661"
"1371","nachhaltig","situation","0.2638"
"1372","nachhaltig","erst","0.2627"
"1373","nachhaltig","aufgabe","0.2619"
"1374","nachhaltig","stattfinden","0.2617"
"1375","nachhaltig","groß","0.2614"
"1376","nachhaltig","konsequenz","0.2604"
"1377","nachhaltig","bürgerin","0.2567"
"1378","nachhaltig","jugend","0.2561"
"1379","nachhaltig","empfehlen","0.2554"
"1380","nachhaltig","öffentlichkeit","0.2528"
"1381","nachhaltig","rente","0.2496"
"1382","nachhaltig","ausschuß","0.2464"
"1383","nachhaltig","tragen","0.2446"
"1384","nachhaltig","richtig","0.2414"
"1385","nachhaltig","arbeitslose","0.24"
"1386","nachhaltig","kenntnis","0.2376"
"1387","nachhaltig","begründen","0.2368"
"1388","nachhaltig","verantwortlich","0.2368"
"1389","nachhaltig","betrachten","0.2352"
"1390","nachhaltig","zusammen","0.2321"
"1391","nachhaltig","ebenfalls","0.2289"
"1392","nachhaltig","forschung","0.2255"
"1393","nachhaltig","karl","0.2242"
"1394","nachhaltig","herrn","0.2229"
"1395","nachhaltig","banken","0.2226"
"1396","nachhaltig","sitzen","0.2195"
"1397","nachhaltig","welch","0.2171"
"1398","nachhaltig","antwort","0.2157"
"1399","nachhaltig","anfrage","0.2133"
"1400","nachhaltig","längst","0.2086"
"1401","nachhaltig","erlauben","0.2056"
"1402","nachhaltig","urteil","0.204"
"1403","nachhaltig","reagieren","0.201"
"1404","nachhaltig","laut","0.201"
"1405","nachhaltig","betreffen","0.201"
"1406","nachhaltig","forderung","0.1989"
"1407","nachhaltig","bereits","0.1966"
"1408","nachhaltig","nie","0.1964"
"1409","nachhaltig","erleben","0.1949"
"1410","nachhaltig","zeit","0.1908"
"1411","nachhaltig","linke","0.1898"
"1412","nachhaltig","gestern","0.1863"
"1413","nachhaltig","aufmerksamkeit","0.1853"
"1414","nachhaltig","thema","0.1838"
"1415","nachhaltig","bahn","0.1833"
"1416","nachhaltig","wahl","0.1812"
"1417","nachhaltig","seite","0.1809"
"1418","nachhaltig","natürlich","0.1738"
"1419","nachhaltig","tätigen","0.1708"
"1420","nachhaltig","geschichte","0.1678"
"1421","nachhaltig","bundesrepublik","0.1634"
"1422","nachhaltig","vertreter","0.1619"
"1423","nachhaltig","hinweisen","0.1615"
"1424","nachhaltig","herzlich","0.1614"
"1425","nachhaltig","sport","0.159"
"1426","nachhaltig","militärisch","0.1575"
"1427","nachhaltig","warum","0.1571"
"1428","nachhaltig","heute","0.1561"
"1429","nachhaltig","erste","0.1539"
"1430","nachhaltig","leben","0.1505"
"1431","nachhaltig","davon","0.1483"
"1432","nachhaltig","verantwortung","0.1477"
"1433","nachhaltig","eltern","0.1437"
"1434","nachhaltig","kosten","0.142"
"1435","nachhaltig","frei","0.1386"
"1436","nachhaltig","denken","0.1366"
"1437","nachhaltig","innenausschuss","0.1343"
"1438","nachhaltig","bundeswehr","0.1279"
"1439","nachhaltig","bleiben","0.1269"
"1440","nachhaltig","bestehen","0.1245"
"1441","nachhaltig","möglichkeit","0.1236"
"1442","nachhaltig","entstehen","0.1222"
"1443","nachhaltig","eindruck","0.122"
"1444","nachhaltig","immer","0.1219"
"1445","nachhaltig","csu","0.1201"
"1446","nachhaltig","eingehen","0.118"
"1447","nachhaltig","arbeitnehmerinnen","0.1089"
"1448","nachhaltig","bayer","0.1061"
"1449","nachhaltig","fragen","0.1042"
"1450","nachhaltig","bevor","0.1019"
"1451","nachhaltig","froh","0.0977"
"1452","nachhaltig","vertrag","0.0941"
"1453","nachhaltig","mehr","0.0913"
"1454","nachhaltig","deutlich","0.0909"
"1455","nachhaltig","neu","0.0893"
"1456","nachhaltig","gehen","0.087"
"1457","nachhaltig","auffassung","0.0868"
"1458","nachhaltig","auge","0.0786"
"1459","nachhaltig","liegen","0.078"
"1460","nachhaltig","zunehmen","0.0772"
"1461","nachhaltig","sehen","0.0766"
"1462","nachhaltig","aussprechen","0.0759"
"1463","nachhaltig","bzw","0.0741"
"1464","nachhaltig","beschlussempfehlung","0.0732"
"1465","nachhaltig","erklären","0.0727"
"1466","nachhaltig","offensichtlich","0.0723"
"1467","nachhaltig","aktiv","0.0692"
"1468","nachhaltig","ausgeben","0.0692"
"1469","nachhaltig","allerdings","0.0671"
"1470","nachhaltig","erkenntnis","0.0665"
"1471","nachhaltig","position","0.0563"
"1472","nachhaltig","transparenz","0.0545"
"1473","nachhaltig","michael","0.0479"
"1474","nachhaltig","branche","0.0453"
"1475","nachhaltig","bisschen","0.044"
"1476","nachhaltig","ministerin","0.0431"
"1477","nachhaltig","nämlich","0.0399"
"1478","nachhaltig","schule","0.0387"
"1479","nachhaltig","bundestag","0.0382"
"1480","nachhaltig","ausschuss","0.0347"
"1481","nachhaltig","mitglied","0.0241"
"1482","nachhaltig","gegenüber","0.0232"
"1483","nachhaltig","tun","0.0213"
"1484","nachhaltig","studie","0.0143"
"1485","nachhaltig","kommen","0.0096"
"1486","nachhaltig","cdu","0.0071"
"1487","nachhaltig","krieg","0.0055"
"1488","nachhaltig","vorhin","0.0029"
