"","V1","V2","V3"
"1","nachhaltig","entwicklung","418.0903"
"2","nachhaltig","montags","220.6833"
"3","nachhaltig","taz.ökobiz","191.8456"
"4","nachhaltig","wirtschaft","173.8325"
"5","nachhaltig","konsum","96.9849"
"6","nachhaltig","ökologisch","96.6274"
"7","nachhaltig","ziel","74.0904"
"8","nachhaltig","fischerei","73.4596"
"9","nachhaltig","mobilität","71.5459"
"10","nachhaltig","seite","70.453"
"11","nachhaltig","produzieren","68.3343"
"12","nachhaltig","tourismus","64.648"
"13","nachhaltig","geschichte","62.989"
"14","nachhaltig","lösung","57.2321"
"15","nachhaltig","landwirtschaft","54.1423"
"16","nachhaltig","entwicklungsziele","52.9572"
"17","nachhaltig","umgang","50.2664"
"18","nachhaltig","textilien","47.9237"
"19","nachhaltig","verändern","47.7386"
"20","nachhaltig","wachstum","44.3657"
"21","nachhaltig","fördern","44.345"
"22","nachhaltig","stadtentwicklung","41.3787"
"23","nachhaltig","dass","41.1967"
"24","nachhaltig","beeinflusst","37.3731"
"25","nachhaltig","prägen","36.4069"
"26","nachhaltig","finden","35.9744"
"27","nachhaltig","fair","35.8614"
"28","nachhaltig","eberswalde","35.1323"
"29","nachhaltig","ressource","35.0968"
"30","nachhaltig","wirtschaften","34.08"
"31","nachhaltig","sozial","33.6575"
"32","nachhaltig","eindruck","31.9433"
"33","nachhaltig","langfristig","31.4013"
"34","nachhaltig","gestalten","31.3967"
"35","nachhaltig","forstwirtschaft","30.9126"
"36","nachhaltig","einsetzen","30.6469"
"37","nachhaltig","wirkung","30.0338"
"38","nachhaltig","msc-siegel","30.0257"
"39","nachhaltig","ökonomisch","29.7414"
"40","nachhaltig","erschüttern","28.3406"
"41","nachhaltig","investition","27.9658"
"42","nachhaltig","deutschland","27.848"
"43","nachhaltig","stören","27.5999"
"44","nachhaltig","vertrauen","27.5099"
"45","nachhaltig","umweltschutz","27.161"
"46","nachhaltig","konzept","27.0747"
"47","nachhaltig","produkt","25.6449"
"48","nachhaltig","hinterlassen","25.5114"
"49","nachhaltig","bewirtschaftung","24.8329"
"50","nachhaltig","ausgewogen","24.4512"
"51","nachhaltig","gerecht","24.4214"
"52","nachhaltig","un-zielen","24.2822"
"53","nachhaltig","mietvertraglichen","24.2822"
"54","nachhaltig","journalistischen","24.2822"
"55","nachhaltig","suchen","24.0022"
"56","nachhaltig","mode","23.6857"
"57","nachhaltig","unternehmen","23.6341"
"58","nachhaltig","schaden","23.5754"
"59","nachhaltig","herstellen","22.9697"
"60","nachhaltig","bedarf","22.3562"
"61","nachhaltig","voranbringen","22.2514"
"62","nachhaltig","infrastruktur","22.0965"
"63","nachhaltig","zentral","21.672"
"64","nachhaltig","transformation","21.4992"
"65","nachhaltig","anbau","21.4236"
"66","nachhaltig","produktion","20.7525"
"67","nachhaltig","effektiv","20.7446"
"68","nachhaltig","gefangen","20.2121"
"69","nachhaltig","beitragen","19.9016"
"70","nachhaltig","reaktorsicherheit","19.8338"
"71","nachhaltig","wildfisch","19.8338"
"72","nachhaltig","sdsn","19.8338"
"73","nachhaltig","rohstoffwirtschaft","19.8338"
"74","nachhaltig","inklusives","19.8338"
"75","nachhaltig","agenda","19.3542"
"76","nachhaltig","stadtplanung","19.1524"
"77","nachhaltig","öko-institut","19.0267"
"78","nachhaltig","gesund","18.8516"
"79","nachhaltig","naturschutz","18.3326"
"80","nachhaltig","zukünftig","17.7299"
"81","nachhaltig","kulturaustausch","17.6385"
"82","nachhaltig","schädigen","17.5209"
"83","nachhaltig","ermöglichen","17.0678"
"84","nachhaltig","sowie","16.9098"
"85","nachhaltig","stammen","16.7705"
"86","nachhaltig","ausschuss","16.6699"
"87","nachhaltig","beeindrucken","16.6098"
"88","nachhaltig","geldanlagen","16.6098"
"89","nachhaltig","regional","16.4087"
"90","nachhaltig","unterstützen","16.2876"
"91","nachhaltig","vorreiter","16.1883"
"92","nachhaltig","fischbeständen","16.1815"
"93","nachhaltig","vertrauensverhältnis","16.1815"
"94","nachhaltig","obfrau","16.1815"
"95","nachhaltig","fischfangs","16.1815"
"96","nachhaltig","europaletten","16.1815"
"97","nachhaltig","sozialunion","16.1815"
"98","nachhaltig","futternapf","16.1815"
"99","nachhaltig","modeläden","16.1815"
"100","nachhaltig","wildwuchs","16.1815"
"101","nachhaltig","kleiderlinie","16.1815"
"102","nachhaltig","gedeihliche","16.1815"
"103","nachhaltig","krabbenfischern","16.1815"
"104","nachhaltig","gewissenhaft","16.1815"
"105","nachhaltig","identitätssicherung","16.1815"
"106","nachhaltig","wagenleben","16.1815"
"107","nachhaltig","kleinanleger","16.1815"
"108","nachhaltig","namensrechte","16.1815"
"109","nachhaltig","glotz-richter","16.1815"
"110","nachhaltig","finanzprodukte","16.0864"
"111","nachhaltig","sdg","16.0018"
"112","nachhaltig","definition","16.0018"
"113","nachhaltig","fang","15.7868"
"114","nachhaltig","veränderung","15.615"
"115","nachhaltig","strategie","15.4623"
"116","nachhaltig","hinsicht","15.4036"
"117","nachhaltig","politik","15.3783"
"118","nachhaltig","sollen","15.2966"
"119","nachhaltig","lebensweise","15.0373"
"120","nachhaltig","gelingen","14.9065"
"121","nachhaltig","germany","14.8788"
"122","nachhaltig","unesco","14.8788"
"123","nachhaltig","lies","14.8788"
"124","nachhaltig","versprechen","14.682"
"125","nachhaltig","verbessern","14.4894"
"126","nachhaltig","anlegen","14.3356"
"127","nachhaltig","beeinträchtigen","14.3085"
"128","nachhaltig","arbeiten","14.2175"
"129","nachhaltig","engagieren","14.0364"
"130","nachhaltig","verstört","13.8898"
"131","nachhaltig","referentin","13.8898"
"132","nachhaltig","exemplarisch","13.8898"
"133","nachhaltig","geografie","13.8898"
"134","nachhaltig","lebensstil","13.8245"
"135","nachhaltig","rat","13.5926"
"136","nachhaltig","wirken","13.4343"
"137","nachhaltig","sauber","13.4154"
"138","nachhaltig","kleidung","13.4087"
"139","nachhaltig","verbraucher","13.3851"
"140","nachhaltig","verkehrswende","13.3722"
"141","nachhaltig","anbieten","13.2628"
"142","nachhaltig","kritisieren","13.1156"
"143","nachhaltig","entwickeln","13.0833"
"144","nachhaltig","pedelecs","13.0528"
"145","nachhaltig","sicherstellen","12.948"
"146","nachhaltig","schonen","12.948"
"147","nachhaltig","akteur","12.9022"
"148","nachhaltig","gedanke","12.9022"
"149","nachhaltig","nutzung","12.9022"
"150","nachhaltig","sagen","12.9018"
"151","nachhaltig","aufbauen","12.8371"
"152","nachhaltig","soziale","12.8252"
"153","nachhaltig","internationale","12.7075"
"154","nachhaltig","urban","12.4233"
"155","nachhaltig","speck","12.4125"
"156","nachhaltig","erdbär","12.4125"
"157","nachhaltig","integrativ","12.4125"
"158","nachhaltig","thünen-institut","12.4125"
"159","nachhaltig","bundesprogramm","12.4125"
"160","nachhaltig","staatengemeinschaft","12.4125"
"161","nachhaltig","aktionsbündnis","12.4125"
"162","nachhaltig","greening","12.4125"
"163","nachhaltig","sonstwie","12.4125"
"164","nachhaltig","destabilisiert","12.4125"
"165","nachhaltig","witt","12.4125"
"166","nachhaltig","überschaubaren","12.4125"
"167","nachhaltig","modellregion","12.4125"
"168","nachhaltig","dreifach","12.4125"
"169","nachhaltig","rohstoffabbau","12.4125"
"170","nachhaltig","geldanlage","12.4125"
"171","nachhaltig","verfassungsrichter","12.4125"
"172","nachhaltig","produktionsweise","12.4125"
"173","nachhaltig","naturverträglich","12.4125"
"174","nachhaltig","aktualität","12.4125"
"175","nachhaltig","nahrungsproduktion","12.4125"
"176","nachhaltig","lebensstile","12.4125"
"177","nachhaltig","erfasste","12.4125"
"178","nachhaltig","bne","12.4125"
"179","nachhaltig","implizieren","12.328"
"180","nachhaltig","armutsbekämpfung","12.328"
"181","nachhaltig","energieeffizienz","12.328"
"182","nachhaltig","vertreter*innen","12.328"
"183","nachhaltig","selbstverständnis","12.328"
"184","nachhaltig","preis","12.3048"
"185","nachhaltig","möglich","12.126"
"186","nachhaltig","vereinte","12.104"
"187","nachhaltig","umwelt","11.9263"
"188","nachhaltig","verankern","11.8287"
"189","nachhaltig","banken","11.803"
"190","nachhaltig","ware","11.7824"
"191","nachhaltig","schaffen","11.7745"
"192","nachhaltig","gesellschaft","11.7017"
"193","nachhaltig","voran","11.5931"
"194","nachhaltig","green","11.4776"
"195","nachhaltig","bündnis","11.4143"
"196","nachhaltig","arbeit","11.3744"
"197","nachhaltig","sinnvoll","11.3692"
"198","nachhaltig","womöglich","11.3646"
"199","nachhaltig","banane","11.1562"
"200","nachhaltig","zukunftsfähige","11.1196"
"201","nachhaltig","wertschöpfungskette","11.1196"
"202","nachhaltig","sichern","11.0639"
"203","nachhaltig","standard","11.0599"
"204","nachhaltig","darum","11.022"
"205","nachhaltig","energiewende","10.9555"
"206","nachhaltig","umweltfreundlich","10.9276"
"207","nachhaltig","nötig","10.9276"
"208","nachhaltig","klub","10.9276"
"209","nachhaltig","bezahlbar","10.85"
"210","nachhaltig","schutz","10.8307"
"211","nachhaltig","unternehmensführung","10.7224"
"212","nachhaltig","fischernetzen","10.7224"
"213","nachhaltig","strumpfhosen","10.7224"
"214","nachhaltig","zielvorgaben","10.7224"
"215","nachhaltig","bauernregeln","10.7224"
"216","nachhaltig","auseinanderzusetzen","10.7224"
"217","nachhaltig","kreieren","10.7224"
"218","nachhaltig","hausordnung","10.7224"
"219","nachhaltig","naturfasern","10.7224"
"220","nachhaltig","energieeffizient","10.7224"
"221","nachhaltig","fangmethoden","10.7224"
"222","nachhaltig","konkretisieren","10.7224"
"223","nachhaltig","zivilgesellschaftlicher","10.7224"
"224","nachhaltig","goy","10.7224"
"225","nachhaltig","meerestiere","10.7224"
"226","nachhaltig","unternehmerinnen","10.7224"
"227","nachhaltig","-verteilung","10.7224"
"228","nachhaltig","verschrecken","10.7224"
"229","nachhaltig","kaufverhalten","10.7224"
"230","nachhaltig","waldwirtschaft","10.7224"
"231","nachhaltig","mobilpunkt","10.7224"
"232","nachhaltig","liefern","10.7182"
"233","nachhaltig","einklang","10.6055"
"234","nachhaltig","sustainable","10.6055"
"235","nachhaltig","umsetzung","10.5603"
"236","nachhaltig","grundsatz","10.5578"
"237","nachhaltig","thema","10.5394"
"238","nachhaltig","prozeß","10.5152"
"239","nachhaltig","aspekt","10.5152"
"240","nachhaltig","jedoch","10.4046"
"241","nachhaltig","bieten","10.3917"
"242","nachhaltig","anbieter","10.3175"
"243","nachhaltig","ansatz","10.1823"
"244","nachhaltig","mensch","10.1631"
"245","nachhaltig","umsetzen","10.1448"
"246","nachhaltig","fairphone","10.1377"
"247","nachhaltig","erzeuger","10.1377"
"248","nachhaltig","touristische","10.1377"
"249","nachhaltig","projekt","10.1374"
"250","nachhaltig","erzeugen","10.06"
"251","nachhaltig","grundsätzlich","10.06"
"252","nachhaltig","speziell","10.0111"
"253","nachhaltig","propagieren","10.0111"
"254","nachhaltig","innovation","9.9376"
"255","nachhaltig","hoffnung","9.8648"
"256","nachhaltig","hochschule","9.8648"
"257","nachhaltig","begriff","9.8205"
"258","nachhaltig","weltweit","9.8198"
"259","nachhaltig","austauschen","9.7548"
"260","nachhaltig","friedliche","9.709"
"261","nachhaltig","labels","9.709"
"262","nachhaltig","arbeitswelt","9.709"
"263","nachhaltig","menschenrechte","9.6221"
"264","nachhaltig","strittig","9.573"
"265","nachhaltig","elle","9.573"
"266","nachhaltig","designerin","9.573"
"267","nachhaltig","schocken","9.573"
"268","nachhaltig","unternehmensgrün","9.573"
"269","nachhaltig","rne","9.573"
"270","nachhaltig","alleinige","9.573"
"271","nachhaltig","pfriem","9.573"
"272","nachhaltig","bambus","9.573"
"273","nachhaltig","landnutzung","9.573"
"274","nachhaltig","kohlelobby","9.573"
"275","nachhaltig","level","9.573"
"276","nachhaltig","produktions-","9.573"
"277","nachhaltig","thimann","9.573"
"278","nachhaltig","flüchtig","9.573"
"279","nachhaltig","zertifikat","9.5087"
"280","nachhaltig","verbesserung","9.4038"
"281","nachhaltig","energieversorgung","9.3138"
"282","nachhaltig","anspruchsvoll","9.3138"
"283","nachhaltig","lebensräume","9.3138"
"284","nachhaltig","anreiz","9.3138"
"285","nachhaltig","bioökonomie","9.3138"
"286","nachhaltig","natürlich","9.2113"
"287","nachhaltig","brüssel","9.0858"
"288","nachhaltig","siegel","9.0695"
"289","nachhaltig","stärken","9.0334"
"290","nachhaltig","frage","8.9538"
"291","nachhaltig","weltwirtschaft","8.9474"
"292","nachhaltig","befürchten","8.9084"
"293","nachhaltig","wirklich","8.8742"
"294","nachhaltig","erklären","8.836"
"295","nachhaltig","innovativ","8.8254"
"296","nachhaltig","nation","8.812"
"297","nachhaltig","übergreifend","8.7003"
"298","nachhaltig","rampenlicht","8.7003"
"299","nachhaltig","umkrempeln","8.7003"
"300","nachhaltig","moratorium","8.7003"
"301","nachhaltig","daseinsvorsorge","8.7003"
"302","nachhaltig","waschmittel","8.7003"
"303","nachhaltig","bau-","8.7003"
"304","nachhaltig","dienstleistung","8.7003"
"305","nachhaltig","legalisierung","8.7003"
"306","nachhaltig","bali","8.7003"
"307","nachhaltig","modewelt","8.7003"
"308","nachhaltig","jack","8.7003"
"309","nachhaltig","gräff","8.7003"
"310","nachhaltig","inklusiven","8.7003"
"311","nachhaltig","cornelia","8.7003"
"312","nachhaltig","sozial-ökologische","8.7003"
"313","nachhaltig","globales","8.7003"
"314","nachhaltig","diskutieren","8.6974"
"315","nachhaltig","tat","8.614"
"316","nachhaltig","eintreten","8.614"
"317","nachhaltig","lieferketten","8.6063"
"318","nachhaltig","beirat","8.6063"
"319","nachhaltig","ganzheitlich","8.6063"
"320","nachhaltig","verletzung","8.6063"
"321","nachhaltig","ethisch","8.5972"
"322","nachhaltig","bisherig","8.4657"
"323","nachhaltig","ernährung","8.4657"
"324","nachhaltig","wirtschaftlich","8.4649"
"325","nachhaltig","belasten","8.447"
"326","nachhaltig","verständnis","8.41"
"327","nachhaltig","bildung","8.3173"
"328","nachhaltig","öl","8.3001"
"329","nachhaltig","zeichen","8.3001"
"330","nachhaltig","eingesetzt","8.2875"
"331","nachhaltig","bereitschaft","8.2875"
"332","nachhaltig","e-mobilität","8.2875"
"333","nachhaltig","konsumieren","8.2129"
"334","nachhaltig","alternative","8.1645"
"335","nachhaltig","verbindlich","8.0224"
"336","nachhaltig","to","8.0224"
"337","nachhaltig","methode","8.0161"
"338","nachhaltig","kooperation","8.0161"
"339","nachhaltig","unternehmensverantwortung","7.9979"
"340","nachhaltig","stadtentwicklungspolitik","7.9979"
"341","nachhaltig","überzogen","7.9979"
"342","nachhaltig","unterstützt","7.9979"
"343","nachhaltig","expertinnen","7.9979"
"344","nachhaltig","versäumen","7.9979"
"345","nachhaltig","evangelisch","7.9979"
"346","nachhaltig","wirtschaftsweise","7.9979"
"347","nachhaltig","weiche","7.9979"
"348","nachhaltig","kurdenpolitik","7.9979"
"349","nachhaltig","auftraggeber","7.9979"
"350","nachhaltig","anleitung","7.9979"
"351","nachhaltig","energiequellen","7.9979"
"352","nachhaltig","bewahrung","7.9979"
"353","nachhaltig","referent","7.9979"
"354","nachhaltig","tours","7.9979"
"355","nachhaltig","bemühung","7.9885"
"356","nachhaltig","vfl","7.9885"
"357","nachhaltig","internet","7.8786"
"358","nachhaltig","trend","7.7864"
"359","nachhaltig","werben","7.7864"
"360","nachhaltig","investieren","7.7194"
"361","nachhaltig","beschädigen","7.7071"
"362","nachhaltig","lebensmittel","7.6639"
"363","nachhaltig","schwerpunkt","7.6597"
"364","nachhaltig","erfolgen","7.6597"
"365","nachhaltig","darüber","7.6295"
"366","nachhaltig","heißen","7.5306"
"367","nachhaltig","bundesregierung","7.5264"
"368","nachhaltig","trotzdem","7.5161"
"369","nachhaltig","transparent","7.4868"
"370","nachhaltig","finanzierung","7.4835"
"371","nachhaltig","konferenz","7.4835"
"372","nachhaltig","leben","7.4581"
"373","nachhaltig","erbringen","7.4416"
"374","nachhaltig","zusammenleben","7.4416"
"375","nachhaltig","stadt","7.4122"
"376","nachhaltig","hierzu","7.4116"
"377","nachhaltig","repertoire","7.4116"
"378","nachhaltig","neoliberaler","7.4116"
"379","nachhaltig","strategische","7.4116"
"380","nachhaltig","permanente","7.4116"
"381","nachhaltig","traumatisiert","7.4116"
"382","nachhaltig","voranzutreiben","7.4116"
"383","nachhaltig","umweltschutzorganisation","7.4116"
"384","nachhaltig","future","7.4116"
"385","nachhaltig","vermindern","7.4116"
"386","nachhaltig","tourismusbörse","7.4116"
"387","nachhaltig","eigenständige","7.4116"
"388","nachhaltig","schaubühne","7.4116"
"389","nachhaltig","weise","7.337"
"390","nachhaltig","material","7.2677"
"391","nachhaltig","möglichst","7.2293"
"392","nachhaltig","gut","7.2289"
"393","nachhaltig","kombinieren","7.1905"
"394","nachhaltig","ansässig","7.1905"
"395","nachhaltig","solidarische","7.1905"
"396","nachhaltig","kreislaufwirtschaft","7.1905"
"397","nachhaltig","tour","7.1905"
"398","nachhaltig","kriterium","7.1687"
"399","nachhaltig","export","7.1566"
"400","nachhaltig","wichtig","7.0642"
"401","nachhaltig","erfolg","7.0636"
"402","nachhaltig","lernen","6.9997"
"403","nachhaltig","pflicht","6.9988"
"404","nachhaltig","heike","6.9988"
"405","nachhaltig","langsam","6.975"
"406","nachhaltig","schaffung","6.9524"
"407","nachhaltig","gesunden","6.9524"
"408","nachhaltig","lebensmittelproduktion","6.9094"
"409","nachhaltig","unterwerfen","6.9094"
"410","nachhaltig","popkultur","6.9094"
"411","nachhaltig","mehrwert","6.9094"
"412","nachhaltig","germanwatch","6.9094"
"413","nachhaltig","verwurzeln","6.9094"
"414","nachhaltig","gefragt","6.9094"
"415","nachhaltig","verbund","6.9094"
"416","nachhaltig","objektiv","6.9094"
"417","nachhaltig","fischbestände","6.9094"
"418","nachhaltig","eu-weit","6.9094"
"419","nachhaltig","steuerungskreis","6.9094"
"420","nachhaltig","welt","6.8997"
"421","nachhaltig","basis","6.8769"
"422","nachhaltig","csu","6.8769"
"423","nachhaltig","grün","6.7531"
"424","nachhaltig","bewirtschaften","6.7263"
"425","nachhaltig","ökosystem","6.7263"
"426","nachhaltig","regionale","6.6966"
"427","nachhaltig","merkel","6.6276"
"428","nachhaltig","erzielen","6.5518"
"429","nachhaltig","faire","6.5518"
"430","nachhaltig","messe","6.5408"
"431","nachhaltig","finanz","6.511"
"432","nachhaltig","anerkannt","6.511"
"433","nachhaltig","dänemark","6.511"
"434","nachhaltig","profitabel","6.4713"
"435","nachhaltig","kekeritz","6.4713"
"436","nachhaltig","schwerwiegend","6.4713"
"437","nachhaltig","bauvorhaben","6.4713"
"438","nachhaltig","verzehren","6.4713"
"439","nachhaltig","leihen","6.4713"
"440","nachhaltig","wirtschaftssystem","6.4713"
"441","nachhaltig","roboter","6.4713"
"442","nachhaltig","erwecken","6.4713"
"443","nachhaltig","unwto","6.4713"
"444","nachhaltig","schade","6.4713"
"445","nachhaltig","anbindung","6.4713"
"446","nachhaltig","jahrtausend","6.4713"
"447","nachhaltig","abfallwirtschaft","6.4713"
"448","nachhaltig","earth","6.4713"
"449","nachhaltig","betrachtet","6.4713"
"450","nachhaltig","lebens-","6.4713"
"451","nachhaltig","komitee","6.4713"
"452","nachhaltig","vielerorts","6.4713"
"453","nachhaltig","mietwohnung","6.4713"
"454","nachhaltig","schmerzhaft","6.4713"
"455","nachhaltig","sg","6.4713"
"456","nachhaltig","produzent","6.4329"
"457","nachhaltig","generation","6.427"
"458","nachhaltig","food","6.411"
"459","nachhaltig","mal","6.3586"
"460","nachhaltig","achten","6.3271"
"461","nachhaltig","show","6.3058"
"462","nachhaltig","intelligent","6.3058"
"463","nachhaltig","beeinflussen","6.3058"
"464","nachhaltig","weder","6.2883"
"465","nachhaltig","heimisch","6.2739"
"466","nachhaltig","bewegung","6.2737"
"467","nachhaltig","erfahrung","6.2157"
"468","nachhaltig","politisch","6.1477"
"469","nachhaltig","beschäftigen","6.1438"
"470","nachhaltig","begeistern","6.1405"
"471","nachhaltig","niederlande","6.1213"
"472","nachhaltig","hinweisen","6.1099"
"473","nachhaltig","holdinghausen","6.1099"
"474","nachhaltig","vegan","6.1099"
"475","nachhaltig","unterordnen","6.0835"
"476","nachhaltig","praktik","6.0835"
"477","nachhaltig","konsumverhalten","6.0835"
"478","nachhaltig","irritieren","6.0835"
"479","nachhaltig","zimmermann","6.0835"
"480","nachhaltig","ausbreitung","6.0835"
"481","nachhaltig","janzing","6.0835"
"482","nachhaltig","council","6.0835"
"483","nachhaltig","jahrzehntelang","6.0835"
"484","nachhaltig","bock","6.0835"
"485","nachhaltig","störung","6.0835"
"486","nachhaltig","anthroposophischen","6.0835"
"487","nachhaltig","vornehmlich","6.0835"
"488","nachhaltig","begrenzung","6.0835"
"489","nachhaltig","gehandelt","6.0835"
"490","nachhaltig","msc","6.0835"
"491","nachhaltig","klöckner","6.0835"
"492","nachhaltig","klimawandel","6.0728"
"493","nachhaltig","geld","6.0596"
"494","nachhaltig","künftig","6.0452"
"495","nachhaltig","anbauen","6.0106"
"496","nachhaltig","see","5.9229"
"497","nachhaltig","plastikmüll","5.9226"
"498","nachhaltig","finanzmärkte","5.9226"
"499","nachhaltig","wenig","5.8965"
"500","nachhaltig","somit","5.884"
"501","nachhaltig","ereignis","5.884"
"502","nachhaltig","offenbaren","5.8445"
"503","nachhaltig","veranstaltung","5.8445"
"504","nachhaltig","erlauben","5.8264"
"505","nachhaltig","wachsend","5.8264"
"506","nachhaltig","erhalten","5.8106"
"507","nachhaltig","struktur","5.7658"
"508","nachhaltig","betonen","5.7658"
"509","nachhaltig","fällen","5.7658"
"510","nachhaltig","experte","5.7658"
"511","nachhaltig","diesjährig","5.7432"
"512","nachhaltig","erfinden","5.7432"
"513","nachhaltig","phase","5.7432"
"514","nachhaltig","ausgezeichnet","5.7363"
"515","nachhaltig","umfassen","5.7363"
"516","nachhaltig","höchst","5.7363"
"517","nachhaltig","grundsätzliche","5.7363"
"518","nachhaltig","vermittlung","5.7363"
"519","nachhaltig","lebensraum","5.7363"
"520","nachhaltig","beurteilen","5.7363"
"521","nachhaltig","rot-grünen","5.7363"
"522","nachhaltig","hinterlässt","5.7363"
"523","nachhaltig","verbreitung","5.7363"
"524","nachhaltig","bernward","5.7363"
"525","nachhaltig","verhelfen","5.7363"
"526","nachhaltig","öl-","5.7363"
"527","nachhaltig","beseitigung","5.7363"
"528","nachhaltig","gutachter","5.7363"
"529","nachhaltig","scheinen","5.6652"
"530","nachhaltig","gemeinsam","5.6564"
"531","nachhaltig","zerstören","5.6384"
"532","nachhaltig","stark","5.5829"
"533","nachhaltig","ertrag","5.5712"
"534","nachhaltig","diskurs","5.5712"
"535","nachhaltig","norden","5.5469"
"536","nachhaltig","konflikt","5.5325"
"537","nachhaltig","umweltbewusstsein","5.4225"
"538","nachhaltig","überschuss","5.4225"
"539","nachhaltig","zweifelhaft","5.4225"
"540","nachhaltig","norm","5.4225"
"541","nachhaltig","antrieb","5.4225"
"542","nachhaltig","einzelner","5.4225"
"543","nachhaltig","anregen","5.4225"
"544","nachhaltig","sexy","5.4225"
"545","nachhaltig","friederike","5.4225"
"546","nachhaltig","einladung","5.4225"
"547","nachhaltig","übergang","5.4225"
"548","nachhaltig","dringend","5.4225"
"549","nachhaltig","verkehrspolitik","5.4225"
"550","nachhaltig","dichter","5.4225"
"551","nachhaltig","vizepräsident","5.4225"
"552","nachhaltig","verbraucherinnen","5.4225"
"553","nachhaltig","krabbenfischer","5.4225"
"554","nachhaltig","manuel","5.4225"
"555","nachhaltig","kauf","5.4062"
"556","nachhaltig","anspruch","5.3686"
"557","nachhaltig","verhalten","5.3686"
"558","nachhaltig","beziehung","5.3686"
"559","nachhaltig","endlich","5.3418"
"560","nachhaltig","integration","5.2967"
"561","nachhaltig","relativ","5.2967"
"562","nachhaltig","deutsche","5.2873"
"563","nachhaltig","erkennbar","5.2476"
"564","nachhaltig","betreiben","5.1962"
"565","nachhaltig","sogenannt","5.1786"
"566","nachhaltig","berlin","5.1753"
"567","nachhaltig","gebäude","5.1731"
"568","nachhaltig","europa","5.1539"
"569","nachhaltig","besprechen","5.1368"
"570","nachhaltig","gemeinwohl","5.1368"
"571","nachhaltig","steigerung","5.1368"
"572","nachhaltig","echo","5.1368"
"573","nachhaltig","vorangehen","5.1368"
"574","nachhaltig","dynamisch","5.1368"
"575","nachhaltig","geschäftsmodell","5.1368"
"576","nachhaltig","neoliberalen","5.1368"
"577","nachhaltig","konzipieren","5.1368"
"578","nachhaltig","edel","5.1368"
"579","nachhaltig","rewe","5.1368"
"580","nachhaltig","verpacken","5.1368"
"581","nachhaltig","einheitlich","5.1368"
"582","nachhaltig","freiburger","5.1368"
"583","nachhaltig","klein","5.1218"
"584","nachhaltig","dafür","5.1016"
"585","nachhaltig","entwerfen","5.0951"
"586","nachhaltig","bemühen","5.0951"
"587","nachhaltig","energie","5.0677"
"588","nachhaltig","kaum","5.0516"
"589","nachhaltig","müller","5.0376"
"590","nachhaltig","erde","5.0345"
"591","nachhaltig","kämpfen","4.9666"
"592","nachhaltig","deutlich","4.9503"
"593","nachhaltig","fehlen","4.9263"
"594","nachhaltig","sorgen","4.9155"
"595","nachhaltig","atomkraft","4.875"
"596","nachhaltig","kantine","4.875"
"597","nachhaltig","renommiert","4.875"
"598","nachhaltig","außen-","4.875"
"599","nachhaltig","appellieren","4.875"
"600","nachhaltig","parlamentarische","4.875"
"601","nachhaltig","sofa","4.875"
"602","nachhaltig","bundesliga","4.875"
"603","nachhaltig","qualitativ","4.875"
"604","nachhaltig","christopher","4.875"
"605","nachhaltig","heran","4.875"
"606","nachhaltig","kakao","4.875"
"607","nachhaltig","lieben","4.8686"
"608","nachhaltig","konsequent","4.8068"
"609","nachhaltig","indes","4.8068"
"610","nachhaltig","brot","4.8068"
"611","nachhaltig","effizient","4.8068"
"612","nachhaltig","bewirken","4.8068"
"613","nachhaltig","technologie","4.7759"
"614","nachhaltig","form","4.7493"
"615","nachhaltig","setzen","4.7456"
"616","nachhaltig","bank","4.7035"
"617","nachhaltig","möglichkeit","4.6935"
"618","nachhaltig","leistung","4.6787"
"619","nachhaltig","wandel","4.6787"
"620","nachhaltig","afrika","4.6641"
"621","nachhaltig","zeigen","4.6562"
"622","nachhaltig","glauben","4.6533"
"623","nachhaltig","christian","4.6398"
"624","nachhaltig","punkt","4.6398"
"625","nachhaltig","wissenschaftler","4.6367"
"626","nachhaltig","vereinigte","4.6337"
"627","nachhaltig","lee","4.6337"
"628","nachhaltig","zuständigkeit","4.6337"
"629","nachhaltig","rücksicht","4.6337"
"630","nachhaltig","tate","4.6337"
"631","nachhaltig","verbauen","4.6337"
"632","nachhaltig","unnötig","4.6337"
"633","nachhaltig","inspiration","4.6337"
"634","nachhaltig","sortieren","4.6337"
"635","nachhaltig","berühren","4.6337"
"636","nachhaltig","konkrete","4.5837"
"637","nachhaltig","sprecher","4.5619"
"638","nachhaltig","mann","4.5608"
"639","nachhaltig","artenvielfalt","4.5387"
"640","nachhaltig","inszenieren","4.5387"
"641","nachhaltig","effekt","4.5387"
"642","nachhaltig","ozean","4.5387"
"643","nachhaltig","rückkehr","4.5387"
"644","nachhaltig","genug","4.5294"
"645","nachhaltig","sinn","4.5294"
"646","nachhaltig","zugleich","4.5148"
"647","nachhaltig","wenigstens","4.4908"
"648","nachhaltig","instrument","4.4908"
"649","nachhaltig","dritt","4.4883"
"650","nachhaltig","künstler","4.4535"
"651","nachhaltig","art","4.4479"
"652","nachhaltig","umbau","4.4116"
"653","nachhaltig","beratung","4.4116"
"654","nachhaltig","abbauen","4.4116"
"655","nachhaltig","kapitel","4.4104"
"656","nachhaltig","polizeilich","4.4104"
"657","nachhaltig","anpassung","4.4104"
"658","nachhaltig","terrorismus","4.4104"
"659","nachhaltig","sexuell","4.4104"
"660","nachhaltig","zusammenschluss","4.4104"
"661","nachhaltig","josef","4.4104"
"662","nachhaltig","sicherheitspolitik","4.4104"
"663","nachhaltig","durchbruch","4.4104"
"664","nachhaltig","behindern","4.4104"
"665","nachhaltig","innovative","4.4104"
"666","nachhaltig","dm","4.4104"
"667","nachhaltig","arbeitsplätzen","4.4104"
"668","nachhaltig","teilnehmerinnen","4.4104"
"669","nachhaltig","sankt","4.4104"
"670","nachhaltig","ioc","4.4104"
"671","nachhaltig","dadurch","4.3929"
"672","nachhaltig","lösen","4.3929"
"673","nachhaltig","angebot","4.3705"
"674","nachhaltig","beispiel","4.3536"
"675","nachhaltig","fordern","4.3535"
"676","nachhaltig","zukunft","4.3535"
"677","nachhaltig","negativ","4.2887"
"678","nachhaltig","haus","4.2249"
"679","nachhaltig","information","4.2238"
"680","nachhaltig","daher","4.2164"
"681","nachhaltig","schnell","4.2052"
"682","nachhaltig","ressourcenverbrauch","4.2028"
"683","nachhaltig","broschüre","4.2028"
"684","nachhaltig","landbau","4.2028"
"685","nachhaltig","sorgfältig","4.2028"
"686","nachhaltig","verbrechen","4.2028"
"687","nachhaltig","aktionsplan","4.2028"
"688","nachhaltig","horn","4.2028"
"689","nachhaltig","e-autos","4.2028"
"690","nachhaltig","bundesverband","4.2028"
"691","nachhaltig","pflanzlich","4.2028"
"692","nachhaltig","finanzsystem","4.2028"
"693","nachhaltig","hilfsorganisation","4.2028"
"694","nachhaltig","ruf","4.1699"
"695","nachhaltig","heben","4.1699"
"696","nachhaltig","atmosphäre","4.1699"
"697","nachhaltig","gesamt","4.1582"
"698","nachhaltig","fisch","4.1582"
"699","nachhaltig","heutig","4.1386"
"700","nachhaltig","bestand","4.1386"
"701","nachhaltig","vergeben","4.1386"
"702","nachhaltig","verantwortung","4.1013"
"703","nachhaltig","verpflichten","4.0703"
"704","nachhaltig","reise","4.0703"
"705","nachhaltig","klasse","4.0552"
"706","nachhaltig","letztlich","4.0552"
"707","nachhaltig","wochenend","4.0552"
"708","nachhaltig","forum","4.0552"
"709","nachhaltig","dauerhaft","4.055"
"710","nachhaltig","image","4.055"
"711","nachhaltig","eignen","4.055"
"712","nachhaltig","kurzfristig","4.055"
"713","nachhaltig","angriff","4.055"
"714","nachhaltig","ökonomie","4.055"
"715","nachhaltig","fashion","4.055"
"716","nachhaltig","tag","4.0423"
"717","nachhaltig","menschliche","4.009"
"718","nachhaltig","beschloss","4.009"
"719","nachhaltig","beschleunigen","4.009"
"720","nachhaltig","gleichgewicht","4.009"
"721","nachhaltig","österreichisch","4.009"
"722","nachhaltig","hindernis","4.009"
"723","nachhaltig","volkswirtschaft","4.009"
"724","nachhaltig","wirtschaftspolitik","4.009"
"725","nachhaltig","lebensmittelverschwendung","4.009"
"726","nachhaltig","lediglich","3.9735"
"727","nachhaltig","programm","3.97"
"728","nachhaltig","plattform","3.9437"
"729","nachhaltig","konsument","3.9437"
"730","nachhaltig","erfolgreich","3.9349"
"731","nachhaltig","verweisen","3.8934"
"732","nachhaltig","recht","3.8373"
"733","nachhaltig","antreten","3.8359"
"734","nachhaltig","schülerinnen","3.8359"
"735","nachhaltig","herstellung","3.8359"
"736","nachhaltig","gesundheitlich","3.8277"
"737","nachhaltig","veganer","3.8277"
"738","nachhaltig","maß","3.8277"
"739","nachhaltig","ermittlung","3.8277"
"740","nachhaltig","aufklären","3.8277"
"741","nachhaltig","mitbestimmung","3.8277"
"742","nachhaltig","schaf","3.8277"
"743","nachhaltig","bezweifeln","3.8277"
"744","nachhaltig","rendite","3.8277"
"745","nachhaltig","brennen","3.8277"
"746","nachhaltig","historiker","3.8277"
"747","nachhaltig","öffentlich-rechtlichen","3.8277"
"748","nachhaltig","fahren","3.8022"
"749","nachhaltig","müssen","3.799"
"750","nachhaltig","situation","3.7744"
"751","nachhaltig","wegen","3.7489"
"752","nachhaltig","ersetzen","3.7383"
"753","nachhaltig","dienstag","3.7383"
"754","nachhaltig","bedeutung","3.7383"
"755","nachhaltig","derjenige","3.7383"
"756","nachhaltig","greenpeace","3.7383"
"757","nachhaltig","streng","3.7315"
"758","nachhaltig","wohnen","3.7222"
"759","nachhaltig","förderung","3.663"
"760","nachhaltig","verfolgen","3.663"
"761","nachhaltig","verkehr","3.663"
"762","nachhaltig","papier","3.663"
"763","nachhaltig","stichwort","3.6575"
"764","nachhaltig","besser","3.6575"
"765","nachhaltig","statement","3.6575"
"766","nachhaltig","erschweren","3.6575"
"767","nachhaltig","deal","3.6575"
"768","nachhaltig","musikalisch","3.6575"
"769","nachhaltig","rind","3.6575"
"770","nachhaltig","angelegt","3.6575"
"771","nachhaltig","erteilen","3.6575"
"772","nachhaltig","fraglich","3.6575"
"773","nachhaltig","milch","3.6575"
"774","nachhaltig","reduzierung","3.6575"
"775","nachhaltig","olympisch","3.6575"
"776","nachhaltig","ausreichend","3.6575"
"777","nachhaltig","regulierung","3.6575"
"778","nachhaltig","alge","3.6575"
"779","nachhaltig","anlässlich","3.6575"
"780","nachhaltig","wu","3.6575"
"781","nachhaltig","vollständig","3.6302"
"782","nachhaltig","label","3.6302"
"783","nachhaltig","nordsee","3.6302"
"784","nachhaltig","system","3.6197"
"785","nachhaltig","damals","3.6171"
"786","nachhaltig","steigend","3.5319"
"787","nachhaltig","ausgeben","3.5319"
"788","nachhaltig","zentrale","3.517"
"789","nachhaltig","idee","3.516"
"790","nachhaltig","organisieren","3.5137"
"791","nachhaltig","erhöhen","3.5117"
"792","nachhaltig","klimaschutz","3.5117"
"793","nachhaltig","markt","3.5014"
"794","nachhaltig","auskommen","3.4974"
"795","nachhaltig","start-ups","3.4974"
"796","nachhaltig","abschalten","3.4974"
"797","nachhaltig","marine","3.4974"
"798","nachhaltig","gestaltung","3.4974"
"799","nachhaltig","solidarisch","3.4974"
"800","nachhaltig","sportlich","3.4974"
"801","nachhaltig","notwendigkeit","3.4974"
"802","nachhaltig","geistig","3.4974"
"803","nachhaltig","sc","3.4974"
"804","nachhaltig","entwicklungsländern","3.4974"
"805","nachhaltig","recycelt","3.4974"
"806","nachhaltig","entwicklungspolitik","3.4974"
"807","nachhaltig","go","3.4974"
"808","nachhaltig","klimaabkommen","3.4974"
"809","nachhaltig","betreffen","3.4542"
"810","nachhaltig","empfehlen","3.4461"
"811","nachhaltig","umwelt-","3.4366"
"812","nachhaltig","globalisierung","3.4366"
"813","nachhaltig","kredit","3.4366"
"814","nachhaltig","süden","3.3766"
"815","nachhaltig","lassen","3.3576"
"816","nachhaltig","erhöhung","3.3463"
"817","nachhaltig","machbar","3.3463"
"818","nachhaltig","künstlerin","3.3463"
"819","nachhaltig","heutzutage","3.3463"
"820","nachhaltig","würdigen","3.3463"
"821","nachhaltig","wirtschaftswachstum","3.3463"
"822","nachhaltig","geschäftsführerin","3.3463"
"823","nachhaltig","verantwortliche","3.3463"
"824","nachhaltig","transportieren","3.3463"
"825","nachhaltig","reinhard","3.3463"
"826","nachhaltig","nachfragen","3.3463"
"827","nachhaltig","legen","3.3437"
"828","nachhaltig","rahmen","3.3418"
"829","nachhaltig","fleisch","3.3418"
"830","nachhaltig","verstärken","3.3085"
"831","nachhaltig","lauten","3.3085"
"832","nachhaltig","einzig","3.3023"
"833","nachhaltig","interessieren","3.2868"
"834","nachhaltig","definieren","3.2541"
"835","nachhaltig","susanne","3.2541"
"836","nachhaltig","jahrelang","3.2541"
"837","nachhaltig","workshop","3.2541"
"838","nachhaltig","kostenlos","3.2541"
"839","nachhaltig","müssten","3.2336"
"840","nachhaltig","jemand","3.2336"
"841","nachhaltig","spiel","3.2336"
"842","nachhaltig","kalte","3.2035"
"843","nachhaltig","en","3.2035"
"844","nachhaltig","nichtregierungsorganisationen","3.2035"
"845","nachhaltig","mitteilen","3.2035"
"846","nachhaltig","norddeutsch","3.2035"
"847","nachhaltig","authentisch","3.2035"
"848","nachhaltig","enorme","3.2035"
"849","nachhaltig","dortig","3.2035"
"850","nachhaltig","gehören","3.1805"
"851","nachhaltig","verbinden","3.1792"
"852","nachhaltig","genau","3.1669"
"853","nachhaltig","bestehend","3.1667"
"854","nachhaltig","argumentieren","3.1667"
"855","nachhaltig","tun","3.1605"
"856","nachhaltig","polizei","3.0981"
"857","nachhaltig","welch","3.0906"
"858","nachhaltig","immer","3.0753"
"859","nachhaltig","lokal","3.0747"
"860","nachhaltig","waschen","3.0683"
"861","nachhaltig","beschlossen","3.0683"
"862","nachhaltig","georg","3.0683"
"863","nachhaltig","recycling","3.0683"
"864","nachhaltig","entgegensetzen","3.0683"
"865","nachhaltig","wolfsburg","3.0683"
"866","nachhaltig","jed","3.0671"
"867","nachhaltig","verband","3.0488"
"868","nachhaltig","präsentieren","3.0236"
"869","nachhaltig","stiftung","3.0236"
"870","nachhaltig","statt","3.0006"
"871","nachhaltig","angeboten","2.9993"
"872","nachhaltig","architektur","2.9993"
"873","nachhaltig","hersteller","2.987"
"874","nachhaltig","verhältnis","2.987"
"875","nachhaltig","ebenso","2.9673"
"876","nachhaltig","anmelden","2.9401"
"877","nachhaltig","anstrengung","2.9401"
"878","nachhaltig","stephan","2.9401"
"879","nachhaltig","social","2.9401"
"880","nachhaltig","verstoß","2.9401"
"881","nachhaltig","verdanken","2.9401"
"882","nachhaltig","streben","2.9401"
"883","nachhaltig","eigentum","2.9401"
"884","nachhaltig","lebensqualität","2.9401"
"885","nachhaltig","hinten","2.9401"
"886","nachhaltig","argentinien","2.9401"
"887","nachhaltig","besetzung","2.9401"
"888","nachhaltig","religiös","2.9401"
"889","nachhaltig","palästinensisch","2.9401"
"890","nachhaltig","dieziger","2.9401"
"891","nachhaltig","vorstellung","2.9263"
"892","nachhaltig","demokratisch","2.9263"
"893","nachhaltig","technik","2.9263"
"894","nachhaltig","üblich","2.919"
"895","nachhaltig","park","2.919"
"896","nachhaltig","vorhanden","2.919"
"897","nachhaltig","gerät","2.919"
"898","nachhaltig","nutzen","2.875"
"899","nachhaltig","haushalt","2.8667"
"900","nachhaltig","digital","2.8667"
"901","nachhaltig","grund","2.8375"
"902","nachhaltig","plädieren","2.8183"
"903","nachhaltig","david","2.8183"
"904","nachhaltig","wahren","2.8183"
"905","nachhaltig","bekenntnis","2.8183"
"906","nachhaltig","einbinden","2.8183"
"907","nachhaltig","einheimisch","2.8183"
"908","nachhaltig","nürnberg","2.8183"
"909","nachhaltig","befassen","2.8183"
"910","nachhaltig","griff","2.8183"
"911","nachhaltig","beweis","2.8183"
"912","nachhaltig","verbrauch","2.8183"
"913","nachhaltig","indonesien","2.8183"
"914","nachhaltig","armut","2.8082"
"915","nachhaltig","bedrohen","2.8082"
"916","nachhaltig","je","2.8002"
"917","nachhaltig","häufig","2.7999"
"918","nachhaltig","organisation","2.7999"
"919","nachhaltig","bedingung","2.7789"
"920","nachhaltig","starke","2.7649"
"921","nachhaltig","offensichtlich","2.7649"
"922","nachhaltig","ändern","2.7642"
"923","nachhaltig","darauf","2.7637"
"924","nachhaltig","wasser","2.7489"
"925","nachhaltig","vernünftig","2.7024"
"926","nachhaltig","geflüchtete","2.7024"
"927","nachhaltig","übrigen","2.7024"
"928","nachhaltig","felix","2.7024"
"929","nachhaltig","skandal","2.7024"
"930","nachhaltig","ökostrom","2.7024"
"931","nachhaltig","rainer","2.7024"
"932","nachhaltig","permakultur","2.7024"
"933","nachhaltig","festlegen","2.7024"
"934","nachhaltig","reihe","2.6945"
"935","nachhaltig","hinaus","2.6945"
"936","nachhaltig","staatliche","2.6909"
"937","nachhaltig","vielmehr","2.6909"
"938","nachhaltig","widerspruch","2.6909"
"939","nachhaltig","ergebnis","2.6795"
"940","nachhaltig","aufgabe","2.6403"
"941","nachhaltig","transparenz","2.6189"
"942","nachhaltig","sicherlich","2.5921"
"943","nachhaltig","einigung","2.5921"
"944","nachhaltig","packen","2.5921"
"945","nachhaltig","mission","2.5921"
"946","nachhaltig","erleichtern","2.5921"
"947","nachhaltig","wunderbar","2.5921"
"948","nachhaltig","lieferkette","2.5921"
"949","nachhaltig","discounter","2.5921"
"950","nachhaltig","julia","2.5921"
"951","nachhaltig","bedeuten","2.5896"
"952","nachhaltig","eu","2.5878"
"953","nachhaltig","schnellen","2.5863"
"954","nachhaltig","deswegen","2.585"
"955","nachhaltig","all","2.582"
"956","nachhaltig","öffentlich","2.5634"
"957","nachhaltig","folge","2.5558"
"958","nachhaltig","beenden","2.5487"
"959","nachhaltig","bewusstsein","2.5487"
"960","nachhaltig","teilnehmer","2.5487"
"961","nachhaltig","spaß","2.5487"
"962","nachhaltig","osnabrück","2.5487"
"963","nachhaltig","plastik","2.5487"
"964","nachhaltig","verhindern","2.5075"
"965","nachhaltig","nennen","2.4998"
"966","nachhaltig","house","2.4868"
"967","nachhaltig","sportler","2.4868"
"968","nachhaltig","on","2.4868"
"969","nachhaltig","seither","2.4868"
"970","nachhaltig","individuell","2.4868"
"971","nachhaltig","befördern","2.4868"
"972","nachhaltig","senatsverwaltung","2.4868"
"973","nachhaltig","schiffe","2.4868"
"974","nachhaltig","lidl","2.4868"
"975","nachhaltig","aldi","2.4868"
"976","nachhaltig","göttingen","2.4868"
"977","nachhaltig","kreis","2.4804"
"978","nachhaltig","desto","2.4804"
"979","nachhaltig","bewohner","2.4804"
"980","nachhaltig","sicht","2.4645"
"981","nachhaltig","bringen","2.431"
"982","nachhaltig","interesse","2.4236"
"983","nachhaltig","umgehen","2.4138"
"984","nachhaltig","vertreter","2.4138"
"985","nachhaltig","attraktiv","2.3863"
"986","nachhaltig","rassistisch","2.3863"
"987","nachhaltig","einhaltung","2.3863"
"988","nachhaltig","beziehungsweise","2.3863"
"989","nachhaltig","christine","2.3863"
"990","nachhaltig","ngo","2.3863"
"991","nachhaltig","halbe","2.3863"
"992","nachhaltig","versorgung","2.3863"
"993","nachhaltig","elektroautos","2.3863"
"994","nachhaltig","stadion","2.3863"
"995","nachhaltig","werbung","2.3863"
"996","nachhaltig","kinderarbeit","2.3863"
"997","nachhaltig","aktiv","2.3775"
"998","nachhaltig","interessant","2.3489"
"999","nachhaltig","reisen","2.3489"
"1000","nachhaltig","lade","2.3489"
"1001","nachhaltig","ausbau","2.3489"
"1002","nachhaltig","zusammenhang","2.3489"
"1003","nachhaltig","bekannt","2.328"
"1004","nachhaltig","insbesondere","2.328"
"1005","nachhaltig","schleswig-holstein","2.328"
"1006","nachhaltig","anfang","2.3166"
"1007","nachhaltig","konzern","2.2984"
"1008","nachhaltig","modernisierung","2.2902"
"1009","nachhaltig","erwartung","2.2902"
"1010","nachhaltig","übertragen","2.2902"
"1011","nachhaltig","begründung","2.2902"
"1012","nachhaltig","elite","2.2902"
"1013","nachhaltig","überwinden","2.2902"
"1014","nachhaltig","bremerhaven","2.2902"
"1015","nachhaltig","städtisch","2.2902"
"1016","nachhaltig","kollektion","2.2902"
"1017","nachhaltig","masse","2.2902"
"1018","nachhaltig","birgit","2.2902"
"1019","nachhaltig","flüchtlingspolitik","2.2902"
"1020","nachhaltig","pflege","2.2902"
"1021","nachhaltig","orientieren","2.2857"
"1022","nachhaltig","beitrag","2.2316"
"1023","nachhaltig","sicherheit","2.2316"
"1024","nachhaltig","jahr","2.2259"
"1025","nachhaltig","kampagne","2.224"
"1026","nachhaltig","politische","2.2087"
"1027","nachhaltig","erweisen","2.1984"
"1028","nachhaltig","auslösen","2.1984"
"1029","nachhaltig","gewaltig","2.1984"
"1030","nachhaltig","verringern","2.1984"
"1031","nachhaltig","öko","2.1984"
"1032","nachhaltig","kölner","2.1984"
"1033","nachhaltig","baumwolle","2.1984"
"1034","nachhaltig","beschreiben","2.1846"
"1035","nachhaltig","vergleich","2.1846"
"1036","nachhaltig","bevor","2.1846"
"1037","nachhaltig","strom","2.1798"
"1038","nachhaltig","stoppen","2.1639"
"1039","nachhaltig","voll","2.1414"
"1040","nachhaltig","uni","2.1385"
"1041","nachhaltig","solch","2.1275"
"1042","nachhaltig","kommen","2.1198"
"1043","nachhaltig","strukturell","2.1104"
"1044","nachhaltig","richard","2.1104"
"1045","nachhaltig","anforderung","2.1104"
"1046","nachhaltig","gemeinnützig","2.1104"
"1047","nachhaltig","lauf","2.1104"
"1048","nachhaltig","niveau","2.1104"
"1049","nachhaltig","zurückkehren","2.1104"
"1050","nachhaltig","schau","2.1104"
"1051","nachhaltig","potenzial","2.1104"
"1052","nachhaltig","bezug","2.1053"
"1053","nachhaltig","einrichtung","2.1053"
"1054","nachhaltig","billig","2.1053"
"1055","nachhaltig","deutschen","2.1035"
"1056","nachhaltig","debatte","2.1035"
"1057","nachhaltig","meer","2.1035"
"1058","nachhaltig","donnerstag","2.0933"
"1059","nachhaltig","jedenfalls","2.0933"
"1060","nachhaltig","teil","2.0925"
"1061","nachhaltig","bau","2.0662"
"1062","nachhaltig","entsprechend","2.0488"
"1063","nachhaltig","rohstoff","2.0488"
"1064","nachhaltig","absolut","2.0481"
"1065","nachhaltig","vorsitzende","2.0481"
"1066","nachhaltig","greifen","2.0481"
"1067","nachhaltig","roman","2.0481"
"1068","nachhaltig","mehr","2.0322"
"1069","nachhaltig","demokratie","2.0294"
"1070","nachhaltig","gleichzeitig","2.0294"
"1071","nachhaltig","maßnahme","2.0294"
"1072","nachhaltig","tätigkeit","2.0261"
"1073","nachhaltig","impuls","2.0261"
"1074","nachhaltig","einkauf","2.0261"
"1075","nachhaltig","inklusive","2.0261"
"1076","nachhaltig","heinrich","2.0261"
"1077","nachhaltig","verschaffen","2.0261"
"1078","nachhaltig","ostsee","2.0261"
"1079","nachhaltig","iga","2.0261"
"1080","nachhaltig","reich","1.993"
"1081","nachhaltig","schritt","1.993"
"1082","nachhaltig","stets","1.9923"
"1083","nachhaltig","entwurf","1.9923"
"1084","nachhaltig","führen","1.991"
"1085","nachhaltig","mögen","1.98"
"1086","nachhaltig","durchaus","1.9572"
"1087","nachhaltig","seit","1.9516"
"1088","nachhaltig","allein","1.9465"
"1089","nachhaltig","aussicht","1.9453"
"1090","nachhaltig","abhängig","1.9453"
"1091","nachhaltig","jeweilig","1.9453"
"1092","nachhaltig","nummer","1.9453"
"1093","nachhaltig","vorliegen","1.9453"
"1094","nachhaltig","cafés","1.9453"
"1095","nachhaltig","frischen","1.9453"
"1096","nachhaltig","tunesien","1.9453"
"1097","nachhaltig","olaf","1.9453"
"1098","nachhaltig","lohnen","1.9453"
"1099","nachhaltig","zudem","1.9444"
"1100","nachhaltig","anteil","1.9219"
"1101","nachhaltig","zusammenarbeit","1.92"
"1102","nachhaltig","versuchen","1.9179"
"1103","nachhaltig","blick","1.9149"
"1104","nachhaltig","abkomme","1.8848"
"1105","nachhaltig","zwölf","1.8848"
"1106","nachhaltig","selbstverständlich","1.8848"
"1107","nachhaltig","paris","1.8786"
"1108","nachhaltig","kind","1.8717"
"1109","nachhaltig","summe","1.8677"
"1110","nachhaltig","aufbau","1.8677"
"1111","nachhaltig","zeitpunkt","1.8677"
"1112","nachhaltig","dick","1.8677"
"1113","nachhaltig","wirksam","1.8677"
"1114","nachhaltig","tür","1.8677"
"1115","nachhaltig","ansicht","1.8677"
"1116","nachhaltig","barcelona","1.8677"
"1117","nachhaltig","utopie","1.8677"
"1118","nachhaltig","sogar","1.8633"
"1119","nachhaltig","leute","1.8614"
"1120","nachhaltig","menge","1.8379"
"1121","nachhaltig","million","1.8243"
"1122","nachhaltig","reduzieren","1.7979"
"1123","nachhaltig","wein","1.7932"
"1124","nachhaltig","gerd","1.7932"
"1125","nachhaltig","quasi","1.7932"
"1126","nachhaltig","halte","1.7932"
"1127","nachhaltig","wagner","1.7932"
"1128","nachhaltig","wohnungsbau","1.7932"
"1129","nachhaltig","reichen","1.7856"
"1130","nachhaltig","zugang","1.7824"
"1131","nachhaltig","schulz","1.7824"
"1132","nachhaltig","motto","1.7824"
"1133","nachhaltig","sprechen","1.7671"
"1134","nachhaltig","zwei","1.7669"
"1135","nachhaltig","klar","1.7586"
"1136","nachhaltig","personal","1.7217"
"1137","nachhaltig","teilnehmen","1.7217"
"1138","nachhaltig","kommunikation","1.7217"
"1139","nachhaltig","umso","1.7217"
"1140","nachhaltig","echte","1.7217"
"1141","nachhaltig","erkennen","1.72"
"1142","nachhaltig","neben","1.7071"
"1143","nachhaltig","gelände","1.6848"
"1144","nachhaltig","holz","1.6848"
"1145","nachhaltig","entfernen","1.682"
"1146","nachhaltig","junge","1.6548"
"1147","nachhaltig","möglicherweise","1.6529"
"1148","nachhaltig","kreativ","1.6529"
"1149","nachhaltig","schwach","1.6529"
"1150","nachhaltig","rahmenbedingungen","1.6529"
"1151","nachhaltig","christoph","1.6529"
"1152","nachhaltig","forschen","1.6529"
"1153","nachhaltig","menschlich","1.6529"
"1154","nachhaltig","herz","1.6378"
"1155","nachhaltig","notwendig","1.6378"
"1156","nachhaltig","dennoch","1.6256"
"1157","nachhaltig","schreiben","1.5987"
"1158","nachhaltig","mittel","1.5949"
"1159","nachhaltig","weit","1.5932"
"1160","nachhaltig","grundlage","1.5918"
"1161","nachhaltig","dringen","1.5918"
"1162","nachhaltig","zwingen","1.5918"
"1163","nachhaltig","einführung","1.5868"
"1164","nachhaltig","ungefähr","1.5868"
"1165","nachhaltig","transport","1.5868"
"1166","nachhaltig","erläutern","1.5868"
"1167","nachhaltig","katastrophe","1.5868"
"1168","nachhaltig","kollektiv","1.5868"
"1169","nachhaltig","grundstück","1.5868"
"1170","nachhaltig","café","1.5868"
"1171","nachhaltig","senat","1.5741"
"1172","nachhaltig","handel","1.5647"
"1173","nachhaltig","verein","1.5478"
"1174","nachhaltig","extrem","1.5469"
"1175","nachhaltig","müsste","1.5368"
"1176","nachhaltig","michael","1.5368"
"1177","nachhaltig","braunschweig","1.5232"
"1178","nachhaltig","dutzend","1.5232"
"1179","nachhaltig","vorsitzender","1.5232"
"1180","nachhaltig","entziehen","1.5232"
"1181","nachhaltig","veranstalten","1.5232"
"1182","nachhaltig","verfügen","1.5232"
"1183","nachhaltig","el","1.5232"
"1184","nachhaltig","aktuell","1.5158"
"1185","nachhaltig","vertrag","1.5031"
"1186","nachhaltig","tief","1.5031"
"1187","nachhaltig","finanziell","1.5031"
"1188","nachhaltig","bedürfnis","1.5031"
"1189","nachhaltig","heiß","1.5031"
"1190","nachhaltig","darunter","1.5021"
"1191","nachhaltig","konkret","1.5021"
"1192","nachhaltig","gelten","1.4982"
"1193","nachhaltig","weiß","1.4637"
"1194","nachhaltig","zugunsten","1.4619"
"1195","nachhaltig","unterscheiden","1.4619"
"1196","nachhaltig","ursache","1.4619"
"1197","nachhaltig","kunststoff","1.4619"
"1198","nachhaltig","bett","1.4619"
"1199","nachhaltig","maria","1.4619"
"1200","nachhaltig","sprecherin","1.4619"
"1201","nachhaltig","wehren","1.4619"
"1202","nachhaltig","argument","1.4603"
"1203","nachhaltig","geschäftsführer","1.4603"
"1204","nachhaltig","zusammen","1.4425"
"1205","nachhaltig","immerhin","1.4344"
"1206","nachhaltig","scheitern","1.4344"
"1207","nachhaltig","vorteil","1.4186"
"1208","nachhaltig","firma","1.4033"
"1209","nachhaltig","ernsthaft","1.4029"
"1210","nachhaltig","auszeichnen","1.4029"
"1211","nachhaltig","bewerten","1.4029"
"1212","nachhaltig","himmel","1.4029"
"1213","nachhaltig","begegnen","1.4029"
"1214","nachhaltig","universität","1.392"
"1215","nachhaltig","allerdings","1.3917"
"1216","nachhaltig","gerade","1.3914"
"1217","nachhaltig","verfahren","1.3777"
"1218","nachhaltig","bereich","1.3726"
"1219","nachhaltig","zweit","1.3691"
"1220","nachhaltig","niedersachsen","1.3691"
"1221","nachhaltig","erreichen","1.3671"
"1222","nachhaltig","platz","1.3496"
"1223","nachhaltig","aufgeben","1.3461"
"1224","nachhaltig","beamte","1.3461"
"1225","nachhaltig","zunehmend","1.3461"
"1226","nachhaltig","intensiv","1.3461"
"1227","nachhaltig","gebrauchen","1.3461"
"1228","nachhaltig","krankheit","1.3461"
"1229","nachhaltig","vernetzen","1.3461"
"1230","nachhaltig","titel","1.3379"
"1231","nachhaltig","chance","1.3377"
"1232","nachhaltig","entsprechen","1.3373"
"1233","nachhaltig","zumindest","1.3111"
"1234","nachhaltig","betrieb","1.3111"
"1235","nachhaltig","bürgermeister","1.299"
"1236","nachhaltig","herrschen","1.299"
"1237","nachhaltig","sammeln","1.299"
"1238","nachhaltig","respekt","1.2914"
"1239","nachhaltig","blau","1.2914"
"1240","nachhaltig","entgegen","1.2914"
"1241","nachhaltig","antisemitismus","1.2914"
"1242","nachhaltig","veranstalter","1.2914"
"1243","nachhaltig","comic","1.2914"
"1244","nachhaltig","hoffen","1.2753"
"1245","nachhaltig","regel","1.2753"
"1246","nachhaltig","kraft","1.2753"
"1247","nachhaltig","bleiben","1.2731"
"1248","nachhaltig","kosten","1.2711"
"1249","nachhaltig","schwer","1.2556"
"1250","nachhaltig","innerhalb","1.2451"
"1251","nachhaltig","loben","1.2386"
"1252","nachhaltig","fc","1.2386"
"1253","nachhaltig","demonstration","1.2386"
"1254","nachhaltig","kunde","1.2335"
"1255","nachhaltig","leicht","1.2335"
"1256","nachhaltig","regierung","1.2312"
"1257","nachhaltig","helfen","1.2116"
"1258","nachhaltig","etwa","1.2002"
"1259","nachhaltig","dialog","1.1877"
"1260","nachhaltig","aussage","1.1877"
"1261","nachhaltig","ernähren","1.1877"
"1262","nachhaltig","hof","1.1877"
"1263","nachhaltig","fan","1.1877"
"1264","nachhaltig","planet","1.1877"
"1265","nachhaltig","risiko","1.1875"
"1266","nachhaltig","qualität","1.1875"
"1267","nachhaltig","erfüllen","1.1875"
"1268","nachhaltig","seitdem","1.1875"
"1269","nachhaltig","derzeit","1.1782"
"1270","nachhaltig","genauso","1.1578"
"1271","nachhaltig","türkei","1.1578"
"1272","nachhaltig","inhalt","1.152"
"1273","nachhaltig","stehen","1.1395"
"1274","nachhaltig","voraussetzung","1.1387"
"1275","nachhaltig","beraten","1.1387"
"1276","nachhaltig","drücken","1.1387"
"1277","nachhaltig","ausrichten","1.1387"
"1278","nachhaltig","planung","1.1387"
"1279","nachhaltig","brauchen","1.1381"
"1280","nachhaltig","mindestens","1.1297"
"1281","nachhaltig","unterstützung","1.1297"
"1282","nachhaltig","essen","1.1257"
"1283","nachhaltig","sitzen","1.1201"
"1284","nachhaltig","aussehen","1.1174"
"1285","nachhaltig","nächst","1.0924"
"1286","nachhaltig","un","1.0913"
"1287","nachhaltig","erklärung","1.0913"
"1288","nachhaltig","ausrechnen","1.0913"
"1289","nachhaltig","wandern","1.0913"
"1290","nachhaltig","wissenschaft","1.0836"
"1291","nachhaltig","auftrag","1.0836"
"1292","nachhaltig","studieren","1.0836"
"1293","nachhaltig","job","1.0749"
"1294","nachhaltig","schlagen","1.0749"
"1295","nachhaltig","frau","1.0685"
"1296","nachhaltig","engagement","1.0506"
"1297","nachhaltig","warnen","1.0506"
"1298","nachhaltig","finanzieren","1.0483"
"1299","nachhaltig","behörde","1.0483"
"1300","nachhaltig","zählen","1.0483"
"1301","nachhaltig","verletzen","1.0457"
"1302","nachhaltig","enorm","1.0457"
"1303","nachhaltig","jenseits","1.0457"
"1304","nachhaltig","spätestens","1.0457"
"1305","nachhaltig","gang","1.0457"
"1306","nachhaltig","bitte","1.0457"
"1307","nachhaltig","ansehen","1.0457"
"1308","nachhaltig","widmen","1.0457"
"1309","nachhaltig","teuer","1.0425"
"1310","nachhaltig","vielleicht","1.0257"
"1311","nachhaltig","bericht","1.0221"
"1312","nachhaltig","gegenteil","1.0183"
"1313","nachhaltig","partei","1.008"
"1314","nachhaltig","osten","1.0016"
"1315","nachhaltig","vermeintlich","1.0016"
"1316","nachhaltig","minister","1.0016"
"1317","nachhaltig","finke","1.0016"
"1318","nachhaltig","ziehen","0.9998"
"1319","nachhaltig","denken","0.9998"
"1320","nachhaltig","bislang","0.9982"
"1321","nachhaltig","revolution","0.9868"
"1322","nachhaltig","fragen","0.9745"
"1323","nachhaltig","gern","0.9712"
"1324","nachhaltig","militärisch","0.9591"
"1325","nachhaltig","ursprünglich","0.9591"
"1326","nachhaltig","van","0.9591"
"1327","nachhaltig","hunderte","0.9591"
"1328","nachhaltig","daraus","0.956"
"1329","nachhaltig","mussten","0.956"
"1330","nachhaltig","geschehen","0.956"
"1331","nachhaltig","unbedingt","0.956"
"1332","nachhaltig","tonne","0.9551"
"1333","nachhaltig","deshalb","0.9517"
"1334","nachhaltig","neu","0.9323"
"1335","nachhaltig","beim","0.9319"
"1336","nachhaltig","außerdem","0.929"
"1337","nachhaltig","geplant","0.9259"
"1338","nachhaltig","frankfurt","0.9181"
"1339","nachhaltig","zielen","0.9181"
"1340","nachhaltig","wahrheit","0.9181"
"1341","nachhaltig","auseinandersetzung","0.9181"
"1342","nachhaltig","übrigens","0.9181"
"1343","nachhaltig","pro","0.9144"
"1344","nachhaltig","mittlerweile","0.9134"
"1345","nachhaltig","einfach","0.9088"
"1346","nachhaltig","gar","0.9059"
"1347","nachhaltig","verlieren","0.9045"
"1348","nachhaltig","mitglied","0.8926"
"1349","nachhaltig","fond","0.8785"
"1350","nachhaltig","erneuerbaren","0.8785"
"1351","nachhaltig","city","0.8785"
"1352","nachhaltig","steigen","0.8747"
"1353","nachhaltig","kunst","0.8747"
"1354","nachhaltig","bund","0.8728"
"1355","nachhaltig","tragen","0.8727"
"1356","nachhaltig","fall","0.8706"
"1357","nachhaltig","beschränken","0.8402"
"1358","nachhaltig","aufmerksamkeit","0.8402"
"1359","nachhaltig","schleichen","0.8402"
"1360","nachhaltig","freiburg","0.8402"
"1361","nachhaltig","informieren","0.8402"
"1362","nachhaltig","biologisch","0.8402"
"1363","nachhaltig","günstig","0.8402"
"1364","nachhaltig","rest","0.8399"
"1365","nachhaltig","dauern","0.8399"
"1366","nachhaltig","gruppe","0.8397"
"1367","nachhaltig","bekämpfen","0.8033"
"1368","nachhaltig","schluss","0.8033"
"1369","nachhaltig","nachbar","0.8033"
"1370","nachhaltig","versorgen","0.8033"
"1371","nachhaltig","spd","0.7951"
"1372","nachhaltig","massiv","0.7858"
"1373","nachhaltig","krise","0.7858"
"1374","nachhaltig","dagegen","0.7725"
"1375","nachhaltig","erheblich","0.7677"
"1376","nachhaltig","a.","0.7677"
"1377","nachhaltig","verursachen","0.7677"
"1378","nachhaltig","kaffee","0.7677"
"1379","nachhaltig","modern","0.7637"
"1380","nachhaltig","donald","0.7597"
"1381","nachhaltig","komplett","0.7597"
"1382","nachhaltig","eigentlich","0.7444"
"1383","nachhaltig","siehe","0.7343"
"1384","nachhaltig","herausforderung","0.7343"
"1385","nachhaltig","klaus","0.7332"
"1386","nachhaltig","friede","0.7332"
"1387","nachhaltig","schneider","0.7332"
"1388","nachhaltig","daran","0.7244"
"1389","nachhaltig","wissen","0.7132"
"1390","nachhaltig","brief","0.7094"
"1391","nachhaltig","vergangen","0.7091"
"1392","nachhaltig","frei","0.7051"
"1393","nachhaltig","prozent","0.7007"
"1394","nachhaltig","abschaffen","0.7"
"1395","nachhaltig","tochter","0.7"
"1396","nachhaltig","aufstellen","0.7"
"1397","nachhaltig","stand","0.7"
"1398","nachhaltig","berg","0.7"
"1399","nachhaltig","vorstand","0.7"
"1400","nachhaltig","besonders","0.6952"
"1401","nachhaltig","eben","0.6934"
"1402","nachhaltig","boden","0.69"
"1403","nachhaltig","gewinnen","0.6879"
"1404","nachhaltig","ohnehin","0.6852"
"1405","nachhaltig","staat","0.6721"
"1406","nachhaltig","schön","0.671"
"1407","nachhaltig","niemand","0.671"
"1408","nachhaltig","ja","0.6689"
"1409","nachhaltig","untersuchen","0.668"
"1410","nachhaltig","flughafen","0.668"
"1411","nachhaltig","klaren","0.6677"
"1412","nachhaltig","bauen","0.6677"
"1413","nachhaltig","bekennen","0.6626"
"1414","nachhaltig","gesellschaftlich","0.6615"
"1415","nachhaltig","autor","0.6615"
"1416","nachhaltig","letzt","0.6604"
"1417","nachhaltig","bestehen","0.6543"
"1418","nachhaltig","bald","0.6435"
"1419","nachhaltig","ebenfalls","0.6435"
"1420","nachhaltig","problem","0.6422"
"1421","nachhaltig","eigene","0.6379"
"1422","nachhaltig","zahlreich","0.637"
"1423","nachhaltig","weisen","0.637"
"1424","nachhaltig","jan","0.637"
"1425","nachhaltig","subvention","0.637"
"1426","nachhaltig","sodass","0.637"
"1427","nachhaltig","fast","0.6275"
"1428","nachhaltig","rund","0.6221"
"1429","nachhaltig","hand","0.6218"
"1430","nachhaltig","international","0.6196"
"1431","nachhaltig","schule","0.618"
"1432","nachhaltig","festival","0.6159"
"1433","nachhaltig","dezember","0.6159"
"1434","nachhaltig","äußern","0.6159"
"1435","nachhaltig","oft","0.6147"
"1436","nachhaltig","praxis","0.6071"
"1437","nachhaltig","pariser","0.6071"
"1438","nachhaltig","teilen","0.5939"
"1439","nachhaltig","gesundheit","0.5783"
"1440","nachhaltig","sichtbar","0.5783"
"1441","nachhaltig","entscheidend","0.5783"
"1442","nachhaltig","initiative","0.5524"
"1443","nachhaltig","einkommen","0.5504"
"1444","nachhaltig","arbeitsbedingungen","0.5504"
"1445","nachhaltig","architekt","0.5504"
"1446","nachhaltig","ankommen","0.5504"
"1447","nachhaltig","song","0.5504"
"1448","nachhaltig","bewusst","0.5504"
"1449","nachhaltig","reform","0.5504"
"1450","nachhaltig","türkisch","0.5504"
"1451","nachhaltig","verbrauchen","0.5504"
"1452","nachhaltig","gemüse","0.5504"
"1453","nachhaltig","region","0.5378"
"1454","nachhaltig","gefahr","0.5311"
"1455","nachhaltig","peter","0.5311"
"1456","nachhaltig","dorf","0.5311"
"1457","nachhaltig","richtige","0.5236"
"1458","nachhaltig","kapital","0.5236"
"1459","nachhaltig","bio","0.5236"
"1460","nachhaltig","sehen","0.5197"
"1461","nachhaltig","paar","0.5196"
"1462","nachhaltig","gehen","0.514"
"1463","nachhaltig","gewalt","0.5112"
"1464","nachhaltig","zurück","0.5083"
"1465","nachhaltig","zweifel","0.4977"
"1466","nachhaltig","außen","0.4977"
"1467","nachhaltig","sicher","0.4977"
"1468","nachhaltig","trumps","0.4977"
"1469","nachhaltig","verhandlung","0.4977"
"1470","nachhaltig","wunsch","0.4977"
"1471","nachhaltig","gemeinde","0.4977"
"1472","nachhaltig","wahl","0.4881"
"1473","nachhaltig","funktionieren","0.4876"
"1474","nachhaltig","woche","0.4847"
"1475","nachhaltig","berliner","0.4847"
"1476","nachhaltig","usa","0.4774"
"1477","nachhaltig","vorschlag","0.473"
"1478","nachhaltig","dienen","0.473"
"1479","nachhaltig","august","0.473"
"1480","nachhaltig","wolle","0.473"
"1481","nachhaltig","angela","0.4727"
"1482","nachhaltig","klagen","0.4727"
"1483","nachhaltig","kritik","0.4581"
"1484","nachhaltig","eher","0.4579"
"1485","nachhaltig","wissenschaftlich","0.4486"
"1486","nachhaltig","wann","0.4486"
"1487","nachhaltig","fuß","0.4486"
"1488","nachhaltig","lässt","0.4388"
"1489","nachhaltig","rufen","0.4366"
"1490","nachhaltig","auto","0.4349"
"1491","nachhaltig","cdu","0.4331"
"1492","nachhaltig","längst","0.427"
"1493","nachhaltig","rad","0.4254"
"1494","nachhaltig","einhalten","0.4254"
"1495","nachhaltig","kurs","0.4254"
"1496","nachhaltig","wahrscheinlich","0.4254"
"1497","nachhaltig","brasilien","0.4254"
"1498","nachhaltig","beschließen","0.4191"
"1499","nachhaltig","fühlen","0.4126"
"1500","nachhaltig","national","0.4086"
"1501","nachhaltig","schmidt","0.403"
"1502","nachhaltig","glück","0.403"
"1503","nachhaltig","weiterhin","0.4021"
"1504","nachhaltig","liegen","0.3993"
"1505","nachhaltig","ganze","0.3985"
"1506","nachhaltig","meist","0.3876"
"1507","nachhaltig","richtung","0.3856"
"1508","nachhaltig","berichten","0.3847"
"1509","nachhaltig","verschieden","0.3847"
"1510","nachhaltig","hamburger","0.3847"
"1511","nachhaltig","verhandeln","0.3814"
"1512","nachhaltig","technisch","0.3814"
"1513","nachhaltig","belegen","0.3814"
"1514","nachhaltig","wer","0.3619"
"1515","nachhaltig","wünschen","0.3606"
"1516","nachhaltig","professor","0.3606"
"1517","nachhaltig","kommission","0.3606"
"1518","nachhaltig","eröffnen","0.3538"
"1519","nachhaltig","republik","0.3406"
"1520","nachhaltig","enthalten","0.3406"
"1521","nachhaltig","gründen","0.3397"
"1522","nachhaltig","erst","0.3372"
"1523","nachhaltig","obwohl","0.3326"
"1524","nachhaltig","verkaufen","0.3311"
"1525","nachhaltig","neue","0.3258"
"1526","nachhaltig","bewegen","0.3237"
"1527","nachhaltig","bezeichnen","0.3237"
"1528","nachhaltig","hälfte","0.3237"
"1529","nachhaltig","gering","0.3237"
"1530","nachhaltig","linie","0.3214"
"1531","nachhaltig","außer","0.3214"
"1532","nachhaltig","natur","0.3203"
"1533","nachhaltig","warum","0.3193"
"1534","nachhaltig","zahlen","0.3163"
"1535","nachhaltig","taz","0.3151"
"1536","nachhaltig","laut","0.3113"
"1537","nachhaltig","etablieren","0.3029"
"1538","nachhaltig","angst","0.2946"
"1539","nachhaltig","zeit","0.2939"
"1540","nachhaltig","betrachten","0.285"
"1541","nachhaltig","sinken","0.285"
"1542","nachhaltig","verabschieden","0.285"
"1543","nachhaltig","werk","0.285"
"1544","nachhaltig","eigen","0.2819"
"1545","nachhaltig","ab","0.2786"
"1546","nachhaltig","wohl","0.2772"
"1547","nachhaltig","zweite","0.2684"
"1548","nachhaltig","insel","0.2684"
"1549","nachhaltig","traditionell","0.2679"
"1550","nachhaltig","nein","0.2633"
"1551","nachhaltig","krieg","0.2633"
"1552","nachhaltig","tier","0.2628"
"1553","nachhaltig","angesichts","0.2556"
"1554","nachhaltig","the","0.2532"
"1555","nachhaltig","juni","0.2532"
"1556","nachhaltig","danach","0.2532"
"1557","nachhaltig","opfer","0.2515"
"1558","nachhaltig","zahl","0.25"
"1559","nachhaltig","deutsch","0.2479"
"1560","nachhaltig","ähnlich","0.2432"
"1561","nachhaltig","herr","0.2431"
"1562","nachhaltig","fest","0.2417"
"1563","nachhaltig","gegenüber","0.2416"
"1564","nachhaltig","verantwortlich","0.2357"
"1565","nachhaltig","senken","0.2357"
"1566","nachhaltig","digitalisierung","0.2357"
"1567","nachhaltig","ganz","0.228"
"1568","nachhaltig","übernehmen","0.2237"
"1569","nachhaltig","wert","0.2217"
"1570","nachhaltig","ding","0.2217"
"1571","nachhaltig","historisch","0.2206"
"1572","nachhaltig","echt","0.2206"
"1573","nachhaltig","szene","0.2206"
"1574","nachhaltig","geraten","0.2206"
"1575","nachhaltig","positiv","0.2193"
"1576","nachhaltig","milliarde","0.2118"
"1577","nachhaltig","tatsächlich","0.2118"
"1578","nachhaltig","gleichen","0.2091"
"1579","nachhaltig","neues","0.208"
"1580","nachhaltig","lang","0.2076"
"1581","nachhaltig","früh","0.2073"
"1582","nachhaltig","ebene","0.206"
"1583","nachhaltig","satz","0.206"
"1584","nachhaltig","nahe","0.206"
"1585","nachhaltig","anlage","0.206"
"1586","nachhaltig","kampf","0.2049"
"1587","nachhaltig","jahrhundert","0.2049"
"1588","nachhaltig","privat","0.1958"
"1589","nachhaltig","folgen","0.1935"
"1590","nachhaltig","kümmern","0.1921"
"1591","nachhaltig","fünf","0.1869"
"1592","nachhaltig","forderung","0.1864"
"1593","nachhaltig","kennen","0.1861"
"1594","nachhaltig","ort","0.1804"
"1595","nachhaltig","gutes","0.1788"
"1596","nachhaltig","thoma","0.1788"
"1597","nachhaltig","indien","0.1788"
"1598","nachhaltig","formulieren","0.1788"
"1599","nachhaltig","kommune","0.1788"
"1600","nachhaltig","link","0.1761"
"1601","nachhaltig","gleich","0.1761"
"1602","nachhaltig","jahrzehnt","0.1761"
"1603","nachhaltig","antwort","0.1761"
"1604","nachhaltig","stelle","0.1759"
"1605","nachhaltig","handeln","0.1739"
"1606","nachhaltig","halten","0.1734"
"1607","nachhaltig","einsatz","0.1661"
"1608","nachhaltig","bezahlen","0.1661"
"1609","nachhaltig","verdienen","0.1661"
"1610","nachhaltig","tisch","0.1661"
"1611","nachhaltig","besuchen","0.1661"
"1612","nachhaltig","bild","0.1593"
"1613","nachhaltig","breit","0.1565"
"1614","nachhaltig","zehn","0.155"
"1615","nachhaltig","perspektive","0.1539"
"1616","nachhaltig","erstmals","0.1539"
"1617","nachhaltig","egal","0.1539"
"1618","nachhaltig","fallen","0.1527"
"1619","nachhaltig","betr.","0.1527"
"1620","nachhaltig","groß","0.1499"
"1621","nachhaltig","union","0.1446"
"1622","nachhaltig","vorbei","0.1423"
"1623","nachhaltig","prozess","0.1423"
"1624","nachhaltig","drei","0.139"
"1625","nachhaltig","druck","0.1383"
"1626","nachhaltig","vorstellen","0.1383"
"1627","nachhaltig","widerstand","0.1312"
"1628","nachhaltig","branche","0.1312"
"1629","nachhaltig","martin","0.1312"
"1630","nachhaltig","hinzu","0.1312"
"1631","nachhaltig","besonder","0.1312"
"1632","nachhaltig","zuletzt","0.1297"
"1633","nachhaltig","wort","0.1214"
"1634","nachhaltig","of","0.1214"
"1635","nachhaltig","gesetz","0.1214"
"1636","nachhaltig","nötigen","0.1207"
"1637","nachhaltig","aufs","0.1207"
"1638","nachhaltig","aktion","0.1207"
"1639","nachhaltig","schließlich","0.1177"
"1640","nachhaltig","china","0.1153"
"1641","nachhaltig","europäisch","0.1138"
"1642","nachhaltig","bekommen","0.1134"
"1643","nachhaltig","drohen","0.1107"
"1644","nachhaltig","team","0.1107"
"1645","nachhaltig","rein","0.1107"
"1646","nachhaltig","institution","0.1107"
"1647","nachhaltig","chef","0.1107"
"1648","nachhaltig","stattdessen","0.1107"
"1649","nachhaltig","bestimmen","0.1083"
"1650","nachhaltig","falsch","0.107"
"1651","nachhaltig","institut","0.107"
"1652","nachhaltig","beteiligen","0.107"
"1653","nachhaltig","europäische","0.1057"
"1654","nachhaltig","märz","0.1057"
"1655","nachhaltig","insgesamt","0.1019"
"1656","nachhaltig","verfügung","0.1012"
"1657","nachhaltig","öffentlichkeit","0.1012"
"1658","nachhaltig","offiziell","0.1012"
"1659","nachhaltig","nehmen","0.0985"
"1660","nachhaltig","film","0.0958"
"1661","nachhaltig","bremen","0.0949"
"1662","nachhaltig","kleine","0.0943"
"1663","nachhaltig","knapp","0.0943"
"1664","nachhaltig","zusätzlich","0.0921"
"1665","nachhaltig","präsident","0.0916"
"1666","nachhaltig","spät","0.0901"
"1667","nachhaltig","entstehen","0.0901"
"1668","nachhaltig","verstehen","0.0888"
"1669","nachhaltig","geben","0.086"
"1670","nachhaltig","hören","0.0845"
"1671","nachhaltig","staatlich","0.0836"
"1672","nachhaltig","irgendwann","0.0836"
"1673","nachhaltig","februar","0.0836"
"1674","nachhaltig","global","0.081"
"1675","nachhaltig","planen","0.078"
"1676","nachhaltig","afd","0.078"
"1677","nachhaltig","bisher","0.0756"
"1678","nachhaltig","name","0.0732"
"1679","nachhaltig","frankreich","0.0718"
"1680","nachhaltig","medium","0.0718"
"1681","nachhaltig","nachfrage","0.0679"
"1682","nachhaltig","ständig","0.0679"
"1683","nachhaltig","fortschritt","0.0679"
"1684","nachhaltig","sechs","0.0659"
"1685","nachhaltig","bezirk","0.0628"
"1686","nachhaltig","bereits","0.0618"
"1687","nachhaltig","euro","0.0613"
"1688","nachhaltig","werfen","0.0608"
"1689","nachhaltig","her","0.0608"
"1690","nachhaltig","leider","0.0608"
"1691","nachhaltig","linke","0.0589"
"1692","nachhaltig","leisten","0.0573"
"1693","nachhaltig","schon","0.057"
"1694","nachhaltig","grüner","0.0549"
"1695","nachhaltig","jen","0.0549"
"1696","nachhaltig","bremer","0.0549"
"1697","nachhaltig","ende","0.0542"
"1698","nachhaltig","ernst","0.0541"
"1699","nachhaltig","wald","0.0539"
"1700","nachhaltig","nämlich","0.0521"
"1701","nachhaltig","laufen","0.0512"
"1702","nachhaltig","buch","0.0502"
"1703","nachhaltig","koalition","0.0498"
"1704","nachhaltig","hamburg","0.0494"
"1705","nachhaltig","besucher","0.0478"
"1706","nachhaltig","freiheit","0.0478"
"1707","nachhaltig","nie","0.0476"
"1708","nachhaltig","reden","0.0471"
"1709","nachhaltig","sache","0.0461"
"1710","nachhaltig","treffen","0.044"
"1711","nachhaltig","kurz","0.0436"
"1712","nachhaltig","darin","0.0423"
"1713","nachhaltig","hart","0.042"
"1714","nachhaltig","russland","0.042"
"1715","nachhaltig","mittwoch","0.042"
"1716","nachhaltig","interview","0.0384"
"1717","nachhaltig","netz","0.0365"
"1718","nachhaltig","erscheinen","0.0361"
"1719","nachhaltig","offen","0.0342"
"1720","nachhaltig","straße","0.0341"
"1721","nachhaltig","freund","0.0335"
"1722","nachhaltig","hoch","0.0331"
"1723","nachhaltig","sommer","0.0321"
"1724","nachhaltig","bauer","0.0321"
"1725","nachhaltig","position","0.0315"
"1726","nachhaltig","gericht","0.0315"
"1727","nachhaltig","kommend","0.0315"
"1728","nachhaltig","verlassen","0.0315"
"1729","nachhaltig","raum","0.0308"
"1730","nachhaltig","dabei","0.0293"
"1731","nachhaltig","fläche","0.0283"
"1732","nachhaltig","profitieren","0.0269"
"1733","nachhaltig","theater","0.0269"
"1734","nachhaltig","stück","0.0256"
"1735","nachhaltig","persönlich","0.0256"
"1736","nachhaltig","beispielsweise","0.0256"
"1737","nachhaltig","richtig","0.0252"
"1738","nachhaltig","beginnen","0.0227"
"1739","nachhaltig","feld","0.0227"
"1740","nachhaltig","nachdem","0.0227"
"1741","nachhaltig","überzeugen","0.022"
"1742","nachhaltig","zuvor","0.022"
"1743","nachhaltig","mehrer","0.022"
"1744","nachhaltig","november","0.0188"
"1745","nachhaltig","mehrheit","0.0188"
"1746","nachhaltig","kultur","0.0187"
"1747","nachhaltig","erleben","0.0187"
"1748","nachhaltig","direkt","0.0167"
"1749","nachhaltig","mitte","0.0166"
"1750","nachhaltig","heute","0.0163"
"1751","nachhaltig","kohle","0.0156"
"1752","nachhaltig","holen","0.0154"
"1753","nachhaltig","verwenden","0.0154"
"1754","nachhaltig","arm","0.0154"
"1755","nachhaltig","rolle","0.0144"
"1756","nachhaltig","lieb","0.0142"
"1757","nachhaltig","person","0.0128"
"1758","nachhaltig","schwierig","0.0128"
"1759","nachhaltig","bilden","0.0123"
"1760","nachhaltig","oben","0.0123"
"1761","nachhaltig","land","0.0117"
"1762","nachhaltig","alt","0.0111"
"1763","nachhaltig","erwarten","0.0108"
"1764","nachhaltig","meinung","0.0103"
"1765","nachhaltig","bundestag","0.0096"
"1766","nachhaltig","monat","0.0087"
"1767","nachhaltig","davon","0.0086"
"1768","nachhaltig","langen","0.0086"
"1769","nachhaltig","studie","0.0081"
"1770","nachhaltig","schützen","0.008"
"1771","nachhaltig","erste","0.0078"
"1772","nachhaltig","stellen","0.0076"
"1773","nachhaltig","lesen","0.0072"
"1774","nachhaltig","entscheiden","0.007"
"1775","nachhaltig","überhaupt","0.0057"
"1776","nachhaltig","dürfen","0.0054"
"1777","nachhaltig","vier","0.0053"
"1778","nachhaltig","industrie","0.0052"
"1779","nachhaltig","wachsen","0.0043"
"1780","nachhaltig","grüne","0.0041"
"1781","nachhaltig","macht","0.0035"
"1782","nachhaltig","fischer","0.0035"
"1783","nachhaltig","baum","0.0035"
"1784","nachhaltig","nachhaltigkeit","0.0033"
"1785","nachhaltig","zuständig","0.0028"
"1786","nachhaltig","jung","0.0024"
"1787","nachhaltig","unabhängig","0.0017"
"1788","nachhaltig","beid","0.0014"
"1789","nachhaltig","sowohl","0.0008"
"1790","nachhaltig","ziemlich","0.0008"
"1791","nachhaltig","musik","0.0004"
"1792","nachhaltig","politiker","0.0004"
"1793","nachhaltig","hektar","0.0004"
"1794","nachhaltig","entscheidung","0.0004"
"1795","nachhaltig","flüchtling","0.0004"
"1796","nachhaltig","modell","0.0003"
"1797","nachhaltig","hilfe","0.0003"
"1798","nachhaltig","uhr","0.0001"
"1799","nachhaltig","passieren","0.0001"
"1800","nachhaltig","trump","0"
"1801","nachhaltig","kaufen","0"
"1802","nachhaltig","museum","0"
"1803","nachhaltig","dollar","0"
"1804","nachhaltig","stecken","0"
"1805","nachhaltig","bevölkerung","0"
