"","V1","V2","V3"
"1","nachhaltig","entwicklung","0.1202"
"2","nachhaltig","wirtschaft","0.0667"
"3","nachhaltig","ökologisch","0.0512"
"4","nachhaltig","dass","0.0474"
"5","nachhaltig","ziel","0.045"
"6","nachhaltig","montags","0.0418"
"7","nachhaltig","seite","0.0407"
"8","nachhaltig","geschichte","0.039"
"9","nachhaltig","finden","0.0387"
"10","nachhaltig","taz.ökobiz","0.0375"
"11","nachhaltig","deutschland","0.0368"
"12","nachhaltig","produzieren","0.0365"
"13","nachhaltig","sagen","0.0354"
"14","nachhaltig","konsum","0.0345"
"15","nachhaltig","landwirtschaft","0.0342"
"16","nachhaltig","sollen","0.0327"
"17","nachhaltig","unternehmen","0.0308"
"18","nachhaltig","tourismus","0.0306"
"19","nachhaltig","lösung","0.0301"
"20","nachhaltig","gut","0.0299"
"21","nachhaltig","mensch","0.0288"
"22","nachhaltig","jahr","0.0285"
"23","nachhaltig","sozial","0.0277"
"24","nachhaltig","verändern","0.0274"
"25","nachhaltig","fördern","0.0271"
"26","nachhaltig","mehr","0.0269"
"27","nachhaltig","mobilität","0.0253"
"28","nachhaltig","wenig","0.0247"
"29","nachhaltig","produkt","0.0242"
"30","nachhaltig","berlin","0.0239"
"31","nachhaltig","immer","0.0238"
"32","nachhaltig","stadt","0.0237"
"33","nachhaltig","arbeiten","0.0236"
"34","nachhaltig","fair","0.0235"
"35","nachhaltig","all","0.0235"
"36","nachhaltig","umgang","0.0234"
"37","nachhaltig","leben","0.0232"
"38","nachhaltig","thema","0.0232"
"39","nachhaltig","politik","0.0232"
"40","nachhaltig","wachstum","0.0231"
"41","nachhaltig","gehen","0.0223"
"42","nachhaltig","einsetzen","0.0221"
"43","nachhaltig","projekt","0.0219"
"44","nachhaltig","konzept","0.0217"
"45","nachhaltig","geben","0.0217"
"46","nachhaltig","müssen","0.0216"
"47","nachhaltig","fischerei","0.0215"
"48","nachhaltig","sowie","0.0213"
"49","nachhaltig","schaffen","0.021"
"50","nachhaltig","wichtig","0.021"
"51","nachhaltig","weit","0.0207"
"52","nachhaltig","seit","0.0206"
"53","nachhaltig","groß","0.0206"
"54","nachhaltig","suchen","0.0205"
"55","nachhaltig","welt","0.0204"
"56","nachhaltig","frage","0.0204"
"57","nachhaltig","ressource","0.0203"
"58","nachhaltig","heißen","0.02"
"59","nachhaltig","jed","0.0199"
"60","nachhaltig","dafür","0.0198"
"61","nachhaltig","natürlich","0.0197"
"62","nachhaltig","stehen","0.0195"
"63","nachhaltig","arbeit","0.0195"
"64","nachhaltig","zeigen","0.019"
"65","nachhaltig","langfristig","0.019"
"66","nachhaltig","erklären","0.019"
"67","nachhaltig","geld","0.0189"
"68","nachhaltig","gesellschaft","0.0188"
"69","nachhaltig","investition","0.0188"
"70","nachhaltig","entwickeln","0.0182"
"71","nachhaltig","prägen","0.0181"
"72","nachhaltig","möglich","0.018"
"73","nachhaltig","lassen","0.0179"
"74","nachhaltig","gestalten","0.0178"
"75","nachhaltig","erst","0.0178"
"76","nachhaltig","etwa","0.0178"
"77","nachhaltig","ökonomisch","0.0178"
"78","nachhaltig","unterstützen","0.0177"
"79","nachhaltig","neu","0.0176"
"80","nachhaltig","politisch","0.0176"
"81","nachhaltig","produktion","0.0172"
"82","nachhaltig","setzen","0.0171"
"83","nachhaltig","schon","0.0171"
"84","nachhaltig","beispiel","0.017"
"85","nachhaltig","jedoch","0.0169"
"86","nachhaltig","europa","0.0166"
"87","nachhaltig","klein","0.0165"
"88","nachhaltig","preis","0.0163"
"89","nachhaltig","bleiben","0.0162"
"90","nachhaltig","umwelt","0.0162"
"91","nachhaltig","sichern","0.0161"
"92","nachhaltig","bieten","0.016"
"93","nachhaltig","million","0.016"
"94","nachhaltig","weltweit","0.0159"
"95","nachhaltig","stark","0.0159"
"96","nachhaltig","wirklich","0.0158"
"97","nachhaltig","stadtentwicklung","0.0157"
"98","nachhaltig","land","0.0157"
"99","nachhaltig","eindruck","0.0155"
"100","nachhaltig","wirkung","0.0154"
"101","nachhaltig","internationale","0.0154"
"102","nachhaltig","vertrauen","0.0153"
"103","nachhaltig","tun","0.0152"
"104","nachhaltig","darum","0.0152"
"105","nachhaltig","schaden","0.0151"
"106","nachhaltig","herstellen","0.0151"
"107","nachhaltig","kaum","0.015"
"108","nachhaltig","haus","0.0148"
"109","nachhaltig","recht","0.0147"
"110","nachhaltig","gelingen","0.0146"
"111","nachhaltig","versprechen","0.0145"
"112","nachhaltig","textilien","0.0145"
"113","nachhaltig","kommen","0.0145"
"114","nachhaltig","welch","0.0144"
"115","nachhaltig","kritisieren","0.0144"
"116","nachhaltig","soziale","0.0144"
"117","nachhaltig","gemeinsam","0.0143"
"118","nachhaltig","bringen","0.0142"
"119","nachhaltig","teil","0.0141"
"120","nachhaltig","umweltschutz","0.0141"
"121","nachhaltig","fordern","0.014"
"122","nachhaltig","zukunft","0.014"
"123","nachhaltig","gerecht","0.014"
"124","nachhaltig","mode","0.0139"
"125","nachhaltig","infrastruktur","0.0139"
"126","nachhaltig","euro","0.0139"
"127","nachhaltig","zentral","0.0138"
"128","nachhaltig","idee","0.0138"
"129","nachhaltig","gerade","0.0138"
"130","nachhaltig","beitragen","0.0138"
"131","nachhaltig","darüber","0.0137"
"132","nachhaltig","ermöglichen","0.0136"
"133","nachhaltig","stammen","0.0136"
"134","nachhaltig","verbessern","0.0134"
"135","nachhaltig","wirken","0.0133"
"136","nachhaltig","deutlich","0.0133"
"137","nachhaltig","entwicklungsziele","0.0131"
"138","nachhaltig","allerdings","0.013"
"139","nachhaltig","fahren","0.013"
"140","nachhaltig","genau","0.0129"
"141","nachhaltig","statt","0.0128"
"142","nachhaltig","heute","0.0128"
"143","nachhaltig","stören","0.0128"
"144","nachhaltig","trotzdem","0.0127"
"145","nachhaltig","eu","0.0127"
"146","nachhaltig","öffentlich","0.0127"
"147","nachhaltig","bedarf","0.0126"
"148","nachhaltig","grün","0.0126"
"149","nachhaltig","dabei","0.0126"
"150","nachhaltig","agenda","0.0125"
"151","nachhaltig","erhalten","0.0125"
"152","nachhaltig","scheinen","0.0125"
"153","nachhaltig","sogar","0.0125"
"154","nachhaltig","sprechen","0.0124"
"155","nachhaltig","regional","0.0124"
"156","nachhaltig","ganz","0.0124"
"157","nachhaltig","veränderung","0.0123"
"158","nachhaltig","strategie","0.0123"
"159","nachhaltig","gelten","0.0123"
"160","nachhaltig","deutsch","0.0123"
"161","nachhaltig","art","0.0123"
"162","nachhaltig","engagieren","0.0123"
"163","nachhaltig","verbraucher","0.0122"
"164","nachhaltig","wegen","0.0121"
"165","nachhaltig","sehen","0.0121"
"166","nachhaltig","umsetzen","0.012"
"167","nachhaltig","hoch","0.0119"
"168","nachhaltig","nutzen","0.0119"
"169","nachhaltig","prozent","0.0119"
"170","nachhaltig","problem","0.0119"
"171","nachhaltig","darauf","0.0119"
"172","nachhaltig","diskutieren","0.0118"
"173","nachhaltig","wirtschaftlich","0.0118"
"174","nachhaltig","alternative","0.0118"
"175","nachhaltig","lebensmittel","0.0117"
"176","nachhaltig","bundesregierung","0.0117"
"177","nachhaltig","mögen","0.0117"
"178","nachhaltig","erfolg","0.0117"
"179","nachhaltig","lernen","0.0117"
"180","nachhaltig","merkel","0.0116"
"181","nachhaltig","beeinflusst","0.0116"
"182","nachhaltig","wirtschaften","0.0116"
"183","nachhaltig","bewegung","0.0116"
"184","nachhaltig","lang","0.0115"
"185","nachhaltig","hinterlassen","0.0114"
"186","nachhaltig","regierung","0.0114"
"187","nachhaltig","energie","0.0114"
"188","nachhaltig","fehlen","0.0114"
"189","nachhaltig","brauchen","0.0114"
"190","nachhaltig","anbau","0.0113"
"191","nachhaltig","glauben","0.0113"
"192","nachhaltig","ende","0.0113"
"193","nachhaltig","deshalb","0.0113"
"194","nachhaltig","naturschutz","0.0112"
"195","nachhaltig","dürfen","0.0111"
"196","nachhaltig","markt","0.0111"
"197","nachhaltig","fast","0.0111"
"198","nachhaltig","taz","0.0111"
"199","nachhaltig","kleidung","0.011"
"200","nachhaltig","anbieten","0.011"
"201","nachhaltig","aufbauen","0.011"
"202","nachhaltig","meist","0.0109"
"203","nachhaltig","ware","0.0109"
"204","nachhaltig","bündnis","0.0109"
"205","nachhaltig","nennen","0.0109"
"206","nachhaltig","standard","0.0109"
"207","nachhaltig","schutz","0.0109"
"208","nachhaltig","liefern","0.0109"
"209","nachhaltig","hoffnung","0.0108"
"210","nachhaltig","hochschule","0.0108"
"211","nachhaltig","ja","0.0108"
"212","nachhaltig","führen","0.0108"
"213","nachhaltig","zudem","0.0108"
"214","nachhaltig","halten","0.0108"
"215","nachhaltig","nation","0.0107"
"216","nachhaltig","schreiben","0.0107"
"217","nachhaltig","nehmen","0.0107"
"218","nachhaltig","investieren","0.0106"
"219","nachhaltig","zusammen","0.0106"
"220","nachhaltig","weise","0.0106"
"221","nachhaltig","bereits","0.0106"
"222","nachhaltig","künftig","0.0105"
"223","nachhaltig","neue","0.0105"
"224","nachhaltig","deutsche","0.0104"
"225","nachhaltig","sogenannt","0.0104"
"226","nachhaltig","spd","0.0104"
"227","nachhaltig","sorgen","0.0103"
"228","nachhaltig","eigentlich","0.0103"
"229","nachhaltig","afrika","0.0103"
"230","nachhaltig","staat","0.0103"
"231","nachhaltig","letzt","0.0103"
"232","nachhaltig","erschüttern","0.0101"
"233","nachhaltig","eigen","0.0101"
"234","nachhaltig","transformation","0.01"
"235","nachhaltig","gesund","0.01"
"236","nachhaltig","schnellen","0.01"
"237","nachhaltig","zukünftig","0.0099"
"238","nachhaltig","politische","0.0099"
"239","nachhaltig","solch","0.0099"
"240","nachhaltig","anlegen","0.0098"
"241","nachhaltig","zeit","0.0098"
"242","nachhaltig","allein","0.0098"
"243","nachhaltig","rat","0.0098"
"244","nachhaltig","sauber","0.0098"
"245","nachhaltig","akteur","0.0098"
"246","nachhaltig","gedanke","0.0098"
"247","nachhaltig","nutzung","0.0098"
"248","nachhaltig","neben","0.0098"
"249","nachhaltig","vereinte","0.0097"
"250","nachhaltig","banken","0.0097"
"251","nachhaltig","sinnvoll","0.0097"
"252","nachhaltig","energiewende","0.0097"
"253","nachhaltig","umsetzung","0.0097"
"254","nachhaltig","erreichen","0.0097"
"255","nachhaltig","ansatz","0.0097"
"256","nachhaltig","erzeugen","0.0096"
"257","nachhaltig","grundsätzlich","0.0096"
"258","nachhaltig","begriff","0.0096"
"259","nachhaltig","stärken","0.0096"
"260","nachhaltig","nächst","0.0096"
"261","nachhaltig","vielleicht","0.0096"
"262","nachhaltig","bildung","0.0095"
"263","nachhaltig","stellen","0.0095"
"264","nachhaltig","fall","0.0095"
"265","nachhaltig","möglichst","0.0095"
"266","nachhaltig","beim","0.0094"
"267","nachhaltig","schule","0.0094"
"268","nachhaltig","weder","0.0094"
"269","nachhaltig","erfahrung","0.0094"
"270","nachhaltig","beschäftigen","0.0094"
"271","nachhaltig","klimawandel","0.0094"
"272","nachhaltig","woche","0.0093"
"273","nachhaltig","berliner","0.0093"
"274","nachhaltig","konflikt","0.0093"
"275","nachhaltig","endlich","0.0093"
"276","nachhaltig","drei","0.0093"
"277","nachhaltig","müller","0.0093"
"278","nachhaltig","form","0.0092"
"279","nachhaltig","warum","0.0092"
"280","nachhaltig","möglichkeit","0.0092"
"281","nachhaltig","laut","0.0092"
"282","nachhaltig","genug","0.0092"
"283","nachhaltig","sinn","0.0092"
"284","nachhaltig","angebot","0.0092"
"285","nachhaltig","daher","0.0092"
"286","nachhaltig","programm","0.0092"
"287","nachhaltig","ab","0.0091"
"288","nachhaltig","organisieren","0.0091"
"289","nachhaltig","legen","0.0091"
"290","nachhaltig","einzig","0.0091"
"291","nachhaltig","liegen","0.009"
"292","nachhaltig","gehören","0.009"
"293","nachhaltig","je","0.009"
"294","nachhaltig","ändern","0.009"
"295","nachhaltig","hamburg","0.009"
"296","nachhaltig","bedeuten","0.009"
"297","nachhaltig","folge","0.0089"
"298","nachhaltig","interesse","0.0089"
"299","nachhaltig","alt","0.0089"
"300","nachhaltig","davon","0.0089"
"301","nachhaltig","versuchen","0.0088"
"302","nachhaltig","grüne","0.0088"
"303","nachhaltig","forstwirtschaft","0.0088"
"304","nachhaltig","firma","0.0087"
"305","nachhaltig","voranbringen","0.0087"
"306","nachhaltig","schwer","0.0087"
"307","nachhaltig","effektiv","0.0087"
"308","nachhaltig","öko-institut","0.0086"
"309","nachhaltig","fragen","0.0086"
"310","nachhaltig","vergangen","0.0085"
"311","nachhaltig","besonders","0.0085"
"312","nachhaltig","urban","0.0085"
"313","nachhaltig","klaren","0.0085"
"314","nachhaltig","bauen","0.0085"
"315","nachhaltig","initiative","0.0084"
"316","nachhaltig","zwei","0.0084"
"317","nachhaltig","menschenrechte","0.0084"
"318","nachhaltig","brüssel","0.0084"
"319","nachhaltig","bisherig","0.0083"
"320","nachhaltig","ernährung","0.0083"
"321","nachhaltig","wer","0.0083"
"322","nachhaltig","trend","0.0083"
"323","nachhaltig","werben","0.0083"
"324","nachhaltig","material","0.0083"
"325","nachhaltig","kriterium","0.0083"
"326","nachhaltig","langsam","0.0083"
"327","nachhaltig","generation","0.0082"
"328","nachhaltig","offenbaren","0.0082"
"329","nachhaltig","veranstaltung","0.0082"
"330","nachhaltig","rund","0.0082"
"331","nachhaltig","struktur","0.0082"
"332","nachhaltig","betonen","0.0082"
"333","nachhaltig","fällen","0.0082"
"334","nachhaltig","experte","0.0082"
"335","nachhaltig","gebäude","0.0081"
"336","nachhaltig","erde","0.0081"
"337","nachhaltig","kämpfen","0.0081"
"338","nachhaltig","bank","0.0081"
"339","nachhaltig","christian","0.0081"
"340","nachhaltig","punkt","0.0081"
"341","nachhaltig","zugleich","0.0081"
"342","nachhaltig","künstler","0.0081"
"343","nachhaltig","dadurch","0.0081"
"344","nachhaltig","lösen","0.0081"
"345","nachhaltig","gesamt","0.008"
"346","nachhaltig","fisch","0.008"
"347","nachhaltig","verantwortung","0.008"
"348","nachhaltig","erfolgreich","0.008"
"349","nachhaltig","situation","0.008"
"350","nachhaltig","wohnen","0.008"
"351","nachhaltig","system","0.008"
"352","nachhaltig","müssten","0.008"
"353","nachhaltig","jemand","0.008"
"354","nachhaltig","spiel","0.008"
"355","nachhaltig","polizei","0.0079"
"356","nachhaltig","beid","0.0079"
"357","nachhaltig","ebenso","0.0079"
"358","nachhaltig","häufig","0.0079"
"359","nachhaltig","organisation","0.0079"
"360","nachhaltig","ergebnis","0.0079"
"361","nachhaltig","blick","0.0078"
"362","nachhaltig","junge","0.0077"
"363","nachhaltig","bekommen","0.0077"
"364","nachhaltig","senat","0.0077"
"365","nachhaltig","verein","0.0077"
"366","nachhaltig","bereich","0.0077"
"367","nachhaltig","helfen","0.0076"
"368","nachhaltig","essen","0.0076"
"369","nachhaltig","außerdem","0.0076"
"370","nachhaltig","mitglied","0.0076"
"371","nachhaltig","steigen","0.0076"
"372","nachhaltig","gruppe","0.0075"
"373","nachhaltig","dagegen","0.0075"
"374","nachhaltig","daran","0.0075"
"375","nachhaltig","eben","0.0075"
"376","nachhaltig","international","0.0075"
"377","nachhaltig","region","0.0075"
"378","nachhaltig","wohl","0.0073"
"379","nachhaltig","eberswalde","0.0073"
"380","nachhaltig","msc-siegel","0.0073"
"381","nachhaltig","milliarde","0.0073"
"382","nachhaltig","tatsächlich","0.0073"
"383","nachhaltig","ausgewogen","0.0073"
"384","nachhaltig","schädigen","0.0072"
"385","nachhaltig","china","0.0072"
"386","nachhaltig","beeindrucken","0.0072"
"387","nachhaltig","geldanlagen","0.0072"
"388","nachhaltig","frau","0.0072"
"389","nachhaltig","vorreiter","0.0072"
"390","nachhaltig","fang","0.0072"
"391","nachhaltig","bremen","0.0072"
"392","nachhaltig","spät","0.0072"
"393","nachhaltig","entstehen","0.0072"
"394","nachhaltig","hinsicht","0.0072"
"395","nachhaltig","lebensweise","0.0072"
"396","nachhaltig","global","0.0072"
"397","nachhaltig","verankern","0.0072"
"398","nachhaltig","straße","0.0072"
"399","nachhaltig","voran","0.0072"
"400","nachhaltig","womöglich","0.0071"
"401","nachhaltig","umweltfreundlich","0.0071"
"402","nachhaltig","nötig","0.0071"
"403","nachhaltig","klub","0.0071"
"404","nachhaltig","prozeß","0.0071"
"405","nachhaltig","aspekt","0.0071"
"406","nachhaltig","anbieter","0.0071"
"407","nachhaltig","innovation","0.0071"
"408","nachhaltig","verbesserung","0.0071"
"409","nachhaltig","siegel","0.0071"
"410","nachhaltig","befürchten","0.0071"
"411","nachhaltig","ethisch","0.0071"
"412","nachhaltig","belasten","0.0071"
"413","nachhaltig","öl","0.0071"
"414","nachhaltig","zeichen","0.0071"
"415","nachhaltig","methode","0.0071"
"416","nachhaltig","kooperation","0.0071"
"417","nachhaltig","internet","0.007"
"418","nachhaltig","finanzierung","0.007"
"419","nachhaltig","konferenz","0.007"
"420","nachhaltig","nachhaltigkeit","0.007"
"421","nachhaltig","basis","0.007"
"422","nachhaltig","csu","0.007"
"423","nachhaltig","messe","0.007"
"424","nachhaltig","produzent","0.007"
"425","nachhaltig","achten","0.007"
"426","nachhaltig","niederlande","0.007"
"427","nachhaltig","see","0.007"
"428","nachhaltig","erlauben","0.007"
"429","nachhaltig","wachsend","0.007"
"430","nachhaltig","zerstören","0.0069"
"431","nachhaltig","norden","0.0069"
"432","nachhaltig","anspruch","0.0069"
"433","nachhaltig","verhalten","0.0069"
"434","nachhaltig","beziehung","0.0069"
"435","nachhaltig","betreiben","0.0069"
"436","nachhaltig","lieben","0.0069"
"437","nachhaltig","wissenschaftler","0.0069"
"438","nachhaltig","sprecher","0.0069"
"439","nachhaltig","dritt","0.0069"
"440","nachhaltig","hören","0.0069"
"441","nachhaltig","schnell","0.0069"
"442","nachhaltig","verpflichten","0.0069"
"443","nachhaltig","reise","0.0069"
"444","nachhaltig","erhöhen","0.0068"
"445","nachhaltig","klimaschutz","0.0068"
"446","nachhaltig","betreffen","0.0068"
"447","nachhaltig","rahmen","0.0068"
"448","nachhaltig","fleisch","0.0068"
"449","nachhaltig","interessieren","0.0068"
"450","nachhaltig","verbinden","0.0068"
"451","nachhaltig","lokal","0.0068"
"452","nachhaltig","präsentieren","0.0068"
"453","nachhaltig","stiftung","0.0068"
"454","nachhaltig","bedingung","0.0067"
"455","nachhaltig","aufgabe","0.0067"
"456","nachhaltig","verhindern","0.0067"
"457","nachhaltig","sicht","0.0067"
"458","nachhaltig","konzern","0.0067"
"459","nachhaltig","strom","0.0067"
"460","nachhaltig","voll","0.0067"
"461","nachhaltig","deutschen","0.0067"
"462","nachhaltig","debatte","0.0067"
"463","nachhaltig","meer","0.0067"
"464","nachhaltig","bau","0.0067"
"465","nachhaltig","demokratie","0.0067"
"466","nachhaltig","gleichzeitig","0.0067"
"467","nachhaltig","maßnahme","0.0067"
"468","nachhaltig","reich","0.0067"
"469","nachhaltig","schritt","0.0067"
"470","nachhaltig","durchaus","0.0067"
"471","nachhaltig","anteil","0.0067"
"472","nachhaltig","reichen","0.0066"
"473","nachhaltig","dennoch","0.0066"
"474","nachhaltig","mittel","0.0066"
"475","nachhaltig","handel","0.0066"
"476","nachhaltig","universität","0.0066"
"477","nachhaltig","chance","0.0066"
"478","nachhaltig","zumindest","0.0066"
"479","nachhaltig","betrieb","0.0066"
"480","nachhaltig","kunde","0.0066"
"481","nachhaltig","leicht","0.0066"
"482","nachhaltig","teuer","0.0065"
"483","nachhaltig","bislang","0.0065"
"484","nachhaltig","tonne","0.0065"
"485","nachhaltig","mittlerweile","0.0065"
"486","nachhaltig","bund","0.0065"
"487","nachhaltig","einfach","0.0065"
"488","nachhaltig","frei","0.0064"
"489","nachhaltig","gewinnen","0.0064"
"490","nachhaltig","schön","0.0064"
"491","nachhaltig","niemand","0.0064"
"492","nachhaltig","bestehen","0.0064"
"493","nachhaltig","eigene","0.0064"
"494","nachhaltig","hand","0.0064"
"495","nachhaltig","wahl","0.0064"
"496","nachhaltig","auto","0.0064"
"497","nachhaltig","gründen","0.0063"
"498","nachhaltig","handeln","0.0063"
"499","nachhaltig","europäisch","0.0062"
"500","nachhaltig","präsident","0.0062"
"501","nachhaltig","kurz","0.0062"
"502","nachhaltig","raum","0.0062"
"503","nachhaltig","richtig","0.0062"
"504","nachhaltig","beginnen","0.0062"
"505","nachhaltig","monat","0.0061"
"506","nachhaltig","vier","0.006"
"507","nachhaltig","erste","0.006"
"508","nachhaltig","ort","0.0059"
"509","nachhaltig","bewirtschaftung","0.0059"
"510","nachhaltig","gefangen","0.0059"
"511","nachhaltig","stadtplanung","0.0058"
"512","nachhaltig","ausschuss","0.0058"
"513","nachhaltig","sdg","0.0058"
"514","nachhaltig","definition","0.0058"
"515","nachhaltig","beeinträchtigen","0.0058"
"516","nachhaltig","lebensstil","0.0058"
"517","nachhaltig","verkehrswende","0.0058"
"518","nachhaltig","sicherstellen","0.0058"
"519","nachhaltig","schonen","0.0058"
"520","nachhaltig","green","0.0058"
"521","nachhaltig","banane","0.0058"
"522","nachhaltig","bezahlbar","0.0058"
"523","nachhaltig","grundsatz","0.0058"
"524","nachhaltig","speziell","0.0058"
"525","nachhaltig","propagieren","0.0058"
"526","nachhaltig","austauschen","0.0058"
"527","nachhaltig","zertifikat","0.0058"
"528","nachhaltig","innovativ","0.0057"
"529","nachhaltig","tat","0.0057"
"530","nachhaltig","eintreten","0.0057"
"531","nachhaltig","verständnis","0.0057"
"532","nachhaltig","konsumieren","0.0057"
"533","nachhaltig","verbindlich","0.0057"
"534","nachhaltig","to","0.0057"
"535","nachhaltig","schwerpunkt","0.0057"
"536","nachhaltig","erfolgen","0.0057"
"537","nachhaltig","transparent","0.0057"
"538","nachhaltig","export","0.0057"
"539","nachhaltig","pflicht","0.0057"
"540","nachhaltig","heike","0.0057"
"541","nachhaltig","regionale","0.0057"
"542","nachhaltig","oft","0.0057"
"543","nachhaltig","erzielen","0.0057"
"544","nachhaltig","faire","0.0057"
"545","nachhaltig","food","0.0057"
"546","nachhaltig","heimisch","0.0057"
"547","nachhaltig","begeistern","0.0057"
"548","nachhaltig","anbauen","0.0057"
"549","nachhaltig","somit","0.0057"
"550","nachhaltig","ereignis","0.0057"
"551","nachhaltig","integration","0.0057"
"552","nachhaltig","relativ","0.0057"
"553","nachhaltig","technologie","0.0056"
"554","nachhaltig","leistung","0.0056"
"555","nachhaltig","wandel","0.0056"
"556","nachhaltig","konkrete","0.0056"
"557","nachhaltig","wenigstens","0.0056"
"558","nachhaltig","instrument","0.0056"
"559","nachhaltig","information","0.0056"
"560","nachhaltig","gar","0.0056"
"561","nachhaltig","heutig","0.0056"
"562","nachhaltig","bestand","0.0056"
"563","nachhaltig","vergeben","0.0056"
"564","nachhaltig","klasse","0.0056"
"565","nachhaltig","letztlich","0.0056"
"566","nachhaltig","wochenend","0.0056"
"567","nachhaltig","forum","0.0056"
"568","nachhaltig","lediglich","0.0056"
"569","nachhaltig","verweisen","0.0056"
"570","nachhaltig","ersetzen","0.0056"
"571","nachhaltig","dienstag","0.0056"
"572","nachhaltig","bedeutung","0.0056"
"573","nachhaltig","derjenige","0.0056"
"574","nachhaltig","greenpeace","0.0056"
"575","nachhaltig","förderung","0.0056"
"576","nachhaltig","verfolgen","0.0056"
"577","nachhaltig","verkehr","0.0056"
"578","nachhaltig","papier","0.0056"
"579","nachhaltig","zentrale","0.0056"
"580","nachhaltig","empfehlen","0.0056"
"581","nachhaltig","süden","0.0056"
"582","nachhaltig","verstärken","0.0056"
"583","nachhaltig","lauten","0.0056"
"584","nachhaltig","verband","0.0055"
"585","nachhaltig","hersteller","0.0055"
"586","nachhaltig","verhältnis","0.0055"
"587","nachhaltig","vorstellung","0.0055"
"588","nachhaltig","demokratisch","0.0055"
"589","nachhaltig","technik","0.0055"
"590","nachhaltig","haushalt","0.0055"
"591","nachhaltig","digital","0.0055"
"592","nachhaltig","armut","0.0055"
"593","nachhaltig","bedrohen","0.0055"
"594","nachhaltig","reihe","0.0055"
"595","nachhaltig","hinaus","0.0055"
"596","nachhaltig","deswegen","0.0055"
"597","nachhaltig","mal","0.0055"
"598","nachhaltig","aktiv","0.0055"
"599","nachhaltig","bekannt","0.0055"
"600","nachhaltig","insbesondere","0.0055"
"601","nachhaltig","schleswig-holstein","0.0055"
"602","nachhaltig","beitrag","0.0055"
"603","nachhaltig","sicherheit","0.0055"
"604","nachhaltig","beschreiben","0.0055"
"605","nachhaltig","vergleich","0.0055"
"606","nachhaltig","bevor","0.0055"
"607","nachhaltig","uni","0.0055"
"608","nachhaltig","donnerstag","0.0055"
"609","nachhaltig","jedenfalls","0.0055"
"610","nachhaltig","entsprechend","0.0055"
"611","nachhaltig","rohstoff","0.0055"
"612","nachhaltig","zusammenarbeit","0.0055"
"613","nachhaltig","paris","0.0055"
"614","nachhaltig","menge","0.0055"
"615","nachhaltig","reduzieren","0.0055"
"616","nachhaltig","klar","0.0054"
"617","nachhaltig","erkennen","0.0054"
"618","nachhaltig","entfernen","0.0054"
"619","nachhaltig","müsste","0.0054"
"620","nachhaltig","michael","0.0054"
"621","nachhaltig","darunter","0.0054"
"622","nachhaltig","konkret","0.0054"
"623","nachhaltig","immerhin","0.0054"
"624","nachhaltig","scheitern","0.0054"
"625","nachhaltig","zweit","0.0054"
"626","nachhaltig","niedersachsen","0.0054"
"627","nachhaltig","entsprechen","0.0054"
"628","nachhaltig","hoffen","0.0054"
"629","nachhaltig","regel","0.0054"
"630","nachhaltig","kraft","0.0054"
"631","nachhaltig","innerhalb","0.0054"
"632","nachhaltig","kind","0.0054"
"633","nachhaltig","genauso","0.0054"
"634","nachhaltig","türkei","0.0054"
"635","nachhaltig","mindestens","0.0054"
"636","nachhaltig","unterstützung","0.0054"
"637","nachhaltig","job","0.0054"
"638","nachhaltig","schlagen","0.0054"
"639","nachhaltig","finanzieren","0.0054"
"640","nachhaltig","behörde","0.0054"
"641","nachhaltig","zählen","0.0054"
"642","nachhaltig","bericht","0.0054"
"643","nachhaltig","gern","0.0054"
"644","nachhaltig","kunst","0.0053"
"645","nachhaltig","modern","0.0053"
"646","nachhaltig","bekennen","0.0053"
"647","nachhaltig","bald","0.0053"
"648","nachhaltig","ebenfalls","0.0053"
"649","nachhaltig","funktionieren","0.0053"
"650","nachhaltig","längst","0.0053"
"651","nachhaltig","fühlen","0.0053"
"652","nachhaltig","ganze","0.0053"
"653","nachhaltig","berichten","0.0052"
"654","nachhaltig","obwohl","0.0052"
"655","nachhaltig","natur","0.0052"
"656","nachhaltig","tier","0.0052"
"657","nachhaltig","fest","0.0052"
"658","nachhaltig","wert","0.0052"
"659","nachhaltig","ding","0.0052"
"660","nachhaltig","folgen","0.0052"
"661","nachhaltig","stelle","0.0052"
"662","nachhaltig","bild","0.0052"
"663","nachhaltig","bestimmen","0.0052"
"664","nachhaltig","insgesamt","0.0052"
"665","nachhaltig","film","0.0051"
"666","nachhaltig","name","0.0051"
"667","nachhaltig","wald","0.0051"
"668","nachhaltig","direkt","0.0051"
"669","nachhaltig","rolle","0.0051"
"670","nachhaltig","langen","0.0051"
"671","nachhaltig","entscheiden","0.0051"
"672","nachhaltig","wachsen","0.0051"
"673","nachhaltig","uhr","0.005"
"674","nachhaltig","trump","0.005"
"675","nachhaltig","kaufen","0.005"
"676","nachhaltig","jung","0.005"
"677","nachhaltig","überhaupt","0.005"
"678","nachhaltig","offen","0.005"
"679","nachhaltig","treffen","0.005"
"680","nachhaltig","nie","0.005"
"681","nachhaltig","laufen","0.005"
"682","nachhaltig","bisher","0.0049"
"683","nachhaltig","zehn","0.0049"
"684","nachhaltig","fünf","0.0049"
"685","nachhaltig","früh","0.0049"
"686","nachhaltig","lässt","0.0048"
"687","nachhaltig","eher","0.0048"
"688","nachhaltig","usa","0.0048"
"689","nachhaltig","partei","0.0046"
"690","nachhaltig","leute","0.0045"
"691","nachhaltig","un-zielen","0.0044"
"692","nachhaltig","mietvertraglichen","0.0044"
"693","nachhaltig","journalistischen","0.0044"
"694","nachhaltig","reaktorsicherheit","0.0044"
"695","nachhaltig","wildfisch","0.0044"
"696","nachhaltig","sdsn","0.0044"
"697","nachhaltig","rohstoffwirtschaft","0.0044"
"698","nachhaltig","inklusives","0.0044"
"699","nachhaltig","kulturaustausch","0.0044"
"700","nachhaltig","finanzprodukte","0.0044"
"701","nachhaltig","germany","0.0044"
"702","nachhaltig","unesco","0.0044"
"703","nachhaltig","lies","0.0044"
"704","nachhaltig","verstört","0.0044"
"705","nachhaltig","referentin","0.0044"
"706","nachhaltig","exemplarisch","0.0044"
"707","nachhaltig","geografie","0.0044"
"708","nachhaltig","pedelecs","0.0044"
"709","nachhaltig","implizieren","0.0044"
"710","nachhaltig","armutsbekämpfung","0.0044"
"711","nachhaltig","energieeffizienz","0.0044"
"712","nachhaltig","vertreter*innen","0.0044"
"713","nachhaltig","selbstverständnis","0.0044"
"714","nachhaltig","zukunftsfähige","0.0044"
"715","nachhaltig","wertschöpfungskette","0.0044"
"716","nachhaltig","einklang","0.0044"
"717","nachhaltig","sustainable","0.0044"
"718","nachhaltig","fairphone","0.0044"
"719","nachhaltig","erzeuger","0.0044"
"720","nachhaltig","touristische","0.0044"
"721","nachhaltig","friedliche","0.0044"
"722","nachhaltig","labels","0.0044"
"723","nachhaltig","arbeitswelt","0.0044"
"724","nachhaltig","energieversorgung","0.0044"
"725","nachhaltig","anspruchsvoll","0.0044"
"726","nachhaltig","lebensräume","0.0044"
"727","nachhaltig","anreiz","0.0044"
"728","nachhaltig","bioökonomie","0.0044"
"729","nachhaltig","weltwirtschaft","0.0044"
"730","nachhaltig","lieferketten","0.0044"
"731","nachhaltig","beirat","0.0044"
"732","nachhaltig","ganzheitlich","0.0044"
"733","nachhaltig","verletzung","0.0044"
"734","nachhaltig","eingesetzt","0.0044"
"735","nachhaltig","bereitschaft","0.0044"
"736","nachhaltig","e-mobilität","0.0044"
"737","nachhaltig","bemühung","0.0044"
"738","nachhaltig","vfl","0.0044"
"739","nachhaltig","beschädigen","0.0044"
"740","nachhaltig","erbringen","0.0043"
"741","nachhaltig","zusammenleben","0.0043"
"742","nachhaltig","kombinieren","0.0043"
"743","nachhaltig","ansässig","0.0043"
"744","nachhaltig","solidarische","0.0043"
"745","nachhaltig","kreislaufwirtschaft","0.0043"
"746","nachhaltig","tour","0.0043"
"747","nachhaltig","schaffung","0.0043"
"748","nachhaltig","gesunden","0.0043"
"749","nachhaltig","bewirtschaften","0.0043"
"750","nachhaltig","ökosystem","0.0043"
"751","nachhaltig","finanz","0.0043"
"752","nachhaltig","anerkannt","0.0043"
"753","nachhaltig","dänemark","0.0043"
"754","nachhaltig","show","0.0043"
"755","nachhaltig","intelligent","0.0043"
"756","nachhaltig","beeinflussen","0.0043"
"757","nachhaltig","hinweisen","0.0043"
"758","nachhaltig","holdinghausen","0.0043"
"759","nachhaltig","vegan","0.0043"
"760","nachhaltig","plastikmüll","0.0043"
"761","nachhaltig","finanzmärkte","0.0043"
"762","nachhaltig","diesjährig","0.0043"
"763","nachhaltig","erfinden","0.0043"
"764","nachhaltig","phase","0.0043"
"765","nachhaltig","ertrag","0.0043"
"766","nachhaltig","diskurs","0.0043"
"767","nachhaltig","kauf","0.0043"
"768","nachhaltig","erkennbar","0.0043"
"769","nachhaltig","entwerfen","0.0043"
"770","nachhaltig","bemühen","0.0043"
"771","nachhaltig","konsequent","0.0043"
"772","nachhaltig","indes","0.0043"
"773","nachhaltig","brot","0.0043"
"774","nachhaltig","effizient","0.0043"
"775","nachhaltig","bewirken","0.0043"
"776","nachhaltig","artenvielfalt","0.0043"
"777","nachhaltig","inszenieren","0.0043"
"778","nachhaltig","effekt","0.0043"
"779","nachhaltig","ozean","0.0043"
"780","nachhaltig","rückkehr","0.0043"
"781","nachhaltig","umbau","0.0043"
"782","nachhaltig","beratung","0.0043"
"783","nachhaltig","abbauen","0.0043"
"784","nachhaltig","negativ","0.0043"
"785","nachhaltig","ruf","0.0043"
"786","nachhaltig","heben","0.0043"
"787","nachhaltig","atmosphäre","0.0043"
"788","nachhaltig","dauerhaft","0.0043"
"789","nachhaltig","image","0.0043"
"790","nachhaltig","eignen","0.0043"
"791","nachhaltig","kurzfristig","0.0043"
"792","nachhaltig","angriff","0.0043"
"793","nachhaltig","ökonomie","0.0043"
"794","nachhaltig","fashion","0.0043"
"795","nachhaltig","plattform","0.0043"
"796","nachhaltig","konsument","0.0043"
"797","nachhaltig","antreten","0.0043"
"798","nachhaltig","schülerinnen","0.0043"
"799","nachhaltig","herstellung","0.0043"
"800","nachhaltig","streng","0.0043"
"801","nachhaltig","vollständig","0.0043"
"802","nachhaltig","label","0.0043"
"803","nachhaltig","nordsee","0.0043"
"804","nachhaltig","steigend","0.0043"
"805","nachhaltig","ausgeben","0.0043"
"806","nachhaltig","umwelt-","0.0043"
"807","nachhaltig","globalisierung","0.0043"
"808","nachhaltig","kredit","0.0043"
"809","nachhaltig","definieren","0.0043"
"810","nachhaltig","susanne","0.0043"
"811","nachhaltig","jahrelang","0.0043"
"812","nachhaltig","workshop","0.0043"
"813","nachhaltig","kostenlos","0.0043"
"814","nachhaltig","bestehend","0.0043"
"815","nachhaltig","argumentieren","0.0043"
"816","nachhaltig","angeboten","0.0043"
"817","nachhaltig","architektur","0.0043"
"818","nachhaltig","üblich","0.0042"
"819","nachhaltig","park","0.0042"
"820","nachhaltig","vorhanden","0.0042"
"821","nachhaltig","gerät","0.0042"
"822","nachhaltig","starke","0.0042"
"823","nachhaltig","offensichtlich","0.0042"
"824","nachhaltig","staatliche","0.0042"
"825","nachhaltig","vielmehr","0.0042"
"826","nachhaltig","widerspruch","0.0042"
"827","nachhaltig","transparenz","0.0042"
"828","nachhaltig","beenden","0.0042"
"829","nachhaltig","bewusstsein","0.0042"
"830","nachhaltig","teilnehmer","0.0042"
"831","nachhaltig","spaß","0.0042"
"832","nachhaltig","osnabrück","0.0042"
"833","nachhaltig","plastik","0.0042"
"834","nachhaltig","kreis","0.0042"
"835","nachhaltig","desto","0.0042"
"836","nachhaltig","bewohner","0.0042"
"837","nachhaltig","umgehen","0.0042"
"838","nachhaltig","vertreter","0.0042"
"839","nachhaltig","interessant","0.0042"
"840","nachhaltig","reisen","0.0042"
"841","nachhaltig","lade","0.0042"
"842","nachhaltig","ausbau","0.0042"
"843","nachhaltig","zusammenhang","0.0042"
"844","nachhaltig","orientieren","0.0042"
"845","nachhaltig","kampagne","0.0042"
"846","nachhaltig","tag","0.0042"
"847","nachhaltig","stoppen","0.0042"
"848","nachhaltig","bezug","0.0042"
"849","nachhaltig","einrichtung","0.0042"
"850","nachhaltig","billig","0.0042"
"851","nachhaltig","absolut","0.0042"
"852","nachhaltig","vorsitzende","0.0042"
"853","nachhaltig","greifen","0.0042"
"854","nachhaltig","roman","0.0042"
"855","nachhaltig","stets","0.0042"
"856","nachhaltig","entwurf","0.0042"
"857","nachhaltig","abkomme","0.0042"
"858","nachhaltig","zwölf","0.0042"
"859","nachhaltig","selbstverständlich","0.0042"
"860","nachhaltig","zugang","0.0042"
"861","nachhaltig","schulz","0.0042"
"862","nachhaltig","motto","0.0042"
"863","nachhaltig","gelände","0.0042"
"864","nachhaltig","holz","0.0042"
"865","nachhaltig","herz","0.0042"
"866","nachhaltig","notwendig","0.0042"
"867","nachhaltig","grundlage","0.0042"
"868","nachhaltig","dringen","0.0042"
"869","nachhaltig","zwingen","0.0042"
"870","nachhaltig","extrem","0.0042"
"871","nachhaltig","vertrag","0.0042"
"872","nachhaltig","tief","0.0042"
"873","nachhaltig","finanziell","0.0042"
"874","nachhaltig","bedürfnis","0.0042"
"875","nachhaltig","heiß","0.0042"
"876","nachhaltig","argument","0.0042"
"877","nachhaltig","geschäftsführer","0.0042"
"878","nachhaltig","vorteil","0.0042"
"879","nachhaltig","verfahren","0.0042"
"880","nachhaltig","titel","0.0042"
"881","nachhaltig","bürgermeister","0.0042"
"882","nachhaltig","herrschen","0.0042"
"883","nachhaltig","sammeln","0.0042"
"884","nachhaltig","risiko","0.0042"
"885","nachhaltig","qualität","0.0042"
"886","nachhaltig","erfüllen","0.0042"
"887","nachhaltig","seitdem","0.0042"
"888","nachhaltig","inhalt","0.0042"
"889","nachhaltig","aussehen","0.0041"
"890","nachhaltig","wissenschaft","0.0041"
"891","nachhaltig","auftrag","0.0041"
"892","nachhaltig","studieren","0.0041"
"893","nachhaltig","engagement","0.0041"
"894","nachhaltig","warnen","0.0041"
"895","nachhaltig","gegenteil","0.0041"
"896","nachhaltig","revolution","0.0041"
"897","nachhaltig","daraus","0.0041"
"898","nachhaltig","mussten","0.0041"
"899","nachhaltig","geschehen","0.0041"
"900","nachhaltig","unbedingt","0.0041"
"901","nachhaltig","geplant","0.0041"
"902","nachhaltig","rest","0.0041"
"903","nachhaltig","dauern","0.0041"
"904","nachhaltig","massiv","0.0041"
"905","nachhaltig","krise","0.0041"
"906","nachhaltig","donald","0.0041"
"907","nachhaltig","komplett","0.0041"
"908","nachhaltig","siehe","0.0041"
"909","nachhaltig","herausforderung","0.0041"
"910","nachhaltig","brief","0.0041"
"911","nachhaltig","ohnehin","0.0041"
"912","nachhaltig","gesellschaftlich","0.0041"
"913","nachhaltig","autor","0.0041"
"914","nachhaltig","festival","0.0041"
"915","nachhaltig","dezember","0.0041"
"916","nachhaltig","äußern","0.0041"
"917","nachhaltig","teilen","0.0041"
"918","nachhaltig","gefahr","0.0041"
"919","nachhaltig","peter","0.0041"
"920","nachhaltig","dorf","0.0041"
"921","nachhaltig","gewalt","0.0041"
"922","nachhaltig","vorschlag","0.0041"
"923","nachhaltig","dienen","0.0041"
"924","nachhaltig","august","0.0041"
"925","nachhaltig","wolle","0.0041"
"926","nachhaltig","rufen","0.0041"
"927","nachhaltig","beschließen","0.0041"
"928","nachhaltig","weiterhin","0.0041"
"929","nachhaltig","richtung","0.0041"
"930","nachhaltig","eröffnen","0.0041"
"931","nachhaltig","bewegen","0.0041"
"932","nachhaltig","bezeichnen","0.0041"
"933","nachhaltig","hälfte","0.0041"
"934","nachhaltig","gering","0.0041"
"935","nachhaltig","zweite","0.004"
"936","nachhaltig","insel","0.004"
"937","nachhaltig","angesichts","0.004"
"938","nachhaltig","herr","0.004"
"939","nachhaltig","positiv","0.004"
"940","nachhaltig","neues","0.004"
"941","nachhaltig","forderung","0.004"
"942","nachhaltig","link","0.004"
"943","nachhaltig","gleich","0.004"
"944","nachhaltig","jahrzehnt","0.004"
"945","nachhaltig","antwort","0.004"
"946","nachhaltig","einsatz","0.004"
"947","nachhaltig","bezahlen","0.004"
"948","nachhaltig","verdienen","0.004"
"949","nachhaltig","breit","0.004"
"950","nachhaltig","druck","0.004"
"951","nachhaltig","vorstellen","0.004"
"952","nachhaltig","zuletzt","0.004"
"953","nachhaltig","wort","0.004"
"954","nachhaltig","of","0.004"
"955","nachhaltig","gesetz","0.004"
"956","nachhaltig","europäische","0.004"
"957","nachhaltig","märz","0.004"
"958","nachhaltig","planen","0.004"
"959","nachhaltig","afd","0.004"
"960","nachhaltig","frankreich","0.004"
"961","nachhaltig","medium","0.004"
"962","nachhaltig","sechs","0.004"
"963","nachhaltig","grüner","0.004"
"964","nachhaltig","jen","0.004"
"965","nachhaltig","bremer","0.004"
"966","nachhaltig","koalition","0.004"
"967","nachhaltig","erscheinen","0.004"
"968","nachhaltig","sommer","0.004"
"969","nachhaltig","bauer","0.004"
"970","nachhaltig","fläche","0.004"
"971","nachhaltig","erwarten","0.0039"
"972","nachhaltig","entscheidung","0.0039"
"973","nachhaltig","flüchtling","0.0039"
"974","nachhaltig","passieren","0.0039"
"975","nachhaltig","bevölkerung","0.0039"
"976","nachhaltig","studie","0.0039"
"977","nachhaltig","lieb","0.0039"
"978","nachhaltig","mitte","0.0039"
"979","nachhaltig","mehrer","0.0039"
"980","nachhaltig","interview","0.0039"
"981","nachhaltig","sache","0.0039"
"982","nachhaltig","buch","0.0039"
"983","nachhaltig","linke","0.0039"
"984","nachhaltig","verstehen","0.0038"
"985","nachhaltig","kleine","0.0038"
"986","nachhaltig","knapp","0.0038"
"987","nachhaltig","schließlich","0.0038"
"988","nachhaltig","kennen","0.0038"
"989","nachhaltig","gleichen","0.0038"
"990","nachhaltig","gegenüber","0.0038"
"991","nachhaltig","zahl","0.0038"
"992","nachhaltig","verkaufen","0.0038"
"993","nachhaltig","zurück","0.0037"
"994","nachhaltig","paar","0.0037"
"995","nachhaltig","wissen","0.0037"
"996","nachhaltig","tragen","0.0037"
"997","nachhaltig","pro","0.0037"
"998","nachhaltig","ziehen","0.0036"
"999","nachhaltig","denken","0.0036"
"1000","nachhaltig","derzeit","0.0036"
"1001","nachhaltig","kosten","0.0036"
"1002","nachhaltig","weiß","0.0036"
"1003","nachhaltig","fischbeständen","0.0029"
"1004","nachhaltig","vertrauensverhältnis","0.0029"
"1005","nachhaltig","obfrau","0.0029"
"1006","nachhaltig","fischfangs","0.0029"
"1007","nachhaltig","europaletten","0.0029"
"1008","nachhaltig","sozialunion","0.0029"
"1009","nachhaltig","futternapf","0.0029"
"1010","nachhaltig","modeläden","0.0029"
"1011","nachhaltig","wildwuchs","0.0029"
"1012","nachhaltig","kleiderlinie","0.0029"
"1013","nachhaltig","gedeihliche","0.0029"
"1014","nachhaltig","krabbenfischern","0.0029"
"1015","nachhaltig","gewissenhaft","0.0029"
"1016","nachhaltig","identitätssicherung","0.0029"
"1017","nachhaltig","wagenleben","0.0029"
"1018","nachhaltig","kleinanleger","0.0029"
"1019","nachhaltig","namensrechte","0.0029"
"1020","nachhaltig","glotz-richter","0.0029"
"1021","nachhaltig","speck","0.0029"
"1022","nachhaltig","erdbär","0.0029"
"1023","nachhaltig","integrativ","0.0029"
"1024","nachhaltig","thünen-institut","0.0029"
"1025","nachhaltig","bundesprogramm","0.0029"
"1026","nachhaltig","staatengemeinschaft","0.0029"
"1027","nachhaltig","aktionsbündnis","0.0029"
"1028","nachhaltig","greening","0.0029"
"1029","nachhaltig","sonstwie","0.0029"
"1030","nachhaltig","destabilisiert","0.0029"
"1031","nachhaltig","witt","0.0029"
"1032","nachhaltig","überschaubaren","0.0029"
"1033","nachhaltig","modellregion","0.0029"
"1034","nachhaltig","dreifach","0.0029"
"1035","nachhaltig","rohstoffabbau","0.0029"
"1036","nachhaltig","geldanlage","0.0029"
"1037","nachhaltig","verfassungsrichter","0.0029"
"1038","nachhaltig","produktionsweise","0.0029"
"1039","nachhaltig","naturverträglich","0.0029"
"1040","nachhaltig","aktualität","0.0029"
"1041","nachhaltig","nahrungsproduktion","0.0029"
"1042","nachhaltig","lebensstile","0.0029"
"1043","nachhaltig","erfasste","0.0029"
"1044","nachhaltig","bne","0.0029"
"1045","nachhaltig","unternehmensführung","0.0029"
"1046","nachhaltig","fischernetzen","0.0029"
"1047","nachhaltig","strumpfhosen","0.0029"
"1048","nachhaltig","zielvorgaben","0.0029"
"1049","nachhaltig","bauernregeln","0.0029"
"1050","nachhaltig","auseinanderzusetzen","0.0029"
"1051","nachhaltig","kreieren","0.0029"
"1052","nachhaltig","hausordnung","0.0029"
"1053","nachhaltig","naturfasern","0.0029"
"1054","nachhaltig","energieeffizient","0.0029"
"1055","nachhaltig","fangmethoden","0.0029"
"1056","nachhaltig","konkretisieren","0.0029"
"1057","nachhaltig","zivilgesellschaftlicher","0.0029"
"1058","nachhaltig","goy","0.0029"
"1059","nachhaltig","meerestiere","0.0029"
"1060","nachhaltig","unternehmerinnen","0.0029"
"1061","nachhaltig","-verteilung","0.0029"
"1062","nachhaltig","verschrecken","0.0029"
"1063","nachhaltig","kaufverhalten","0.0029"
"1064","nachhaltig","waldwirtschaft","0.0029"
"1065","nachhaltig","mobilpunkt","0.0029"
"1066","nachhaltig","strittig","0.0029"
"1067","nachhaltig","elle","0.0029"
"1068","nachhaltig","designerin","0.0029"
"1069","nachhaltig","schocken","0.0029"
"1070","nachhaltig","unternehmensgrün","0.0029"
"1071","nachhaltig","rne","0.0029"
"1072","nachhaltig","alleinige","0.0029"
"1073","nachhaltig","pfriem","0.0029"
"1074","nachhaltig","bambus","0.0029"
"1075","nachhaltig","landnutzung","0.0029"
"1076","nachhaltig","kohlelobby","0.0029"
"1077","nachhaltig","level","0.0029"
"1078","nachhaltig","produktions-","0.0029"
"1079","nachhaltig","thimann","0.0029"
"1080","nachhaltig","flüchtig","0.0029"
"1081","nachhaltig","übergreifend","0.0029"
"1082","nachhaltig","rampenlicht","0.0029"
"1083","nachhaltig","umkrempeln","0.0029"
"1084","nachhaltig","moratorium","0.0029"
"1085","nachhaltig","daseinsvorsorge","0.0029"
"1086","nachhaltig","waschmittel","0.0029"
"1087","nachhaltig","bau-","0.0029"
"1088","nachhaltig","dienstleistung","0.0029"
"1089","nachhaltig","legalisierung","0.0029"
"1090","nachhaltig","bali","0.0029"
"1091","nachhaltig","modewelt","0.0029"
"1092","nachhaltig","jack","0.0029"
"1093","nachhaltig","gräff","0.0029"
"1094","nachhaltig","inklusiven","0.0029"
"1095","nachhaltig","cornelia","0.0029"
"1096","nachhaltig","sozial-ökologische","0.0029"
"1097","nachhaltig","globales","0.0029"
"1098","nachhaltig","unternehmensverantwortung","0.0029"
"1099","nachhaltig","stadtentwicklungspolitik","0.0029"
"1100","nachhaltig","überzogen","0.0029"
"1101","nachhaltig","unterstützt","0.0029"
"1102","nachhaltig","expertinnen","0.0029"
"1103","nachhaltig","versäumen","0.0029"
"1104","nachhaltig","evangelisch","0.0029"
"1105","nachhaltig","wirtschaftsweise","0.0029"
"1106","nachhaltig","weiche","0.0029"
"1107","nachhaltig","kurdenpolitik","0.0029"
"1108","nachhaltig","auftraggeber","0.0029"
"1109","nachhaltig","anleitung","0.0029"
"1110","nachhaltig","energiequellen","0.0029"
"1111","nachhaltig","bewahrung","0.0029"
"1112","nachhaltig","referent","0.0029"
"1113","nachhaltig","tours","0.0029"
"1114","nachhaltig","hierzu","0.0029"
"1115","nachhaltig","repertoire","0.0029"
"1116","nachhaltig","neoliberaler","0.0029"
"1117","nachhaltig","strategische","0.0029"
"1118","nachhaltig","permanente","0.0029"
"1119","nachhaltig","traumatisiert","0.0029"
"1120","nachhaltig","voranzutreiben","0.0029"
"1121","nachhaltig","umweltschutzorganisation","0.0029"
"1122","nachhaltig","future","0.0029"
"1123","nachhaltig","vermindern","0.0029"
"1124","nachhaltig","tourismusbörse","0.0029"
"1125","nachhaltig","eigenständige","0.0029"
"1126","nachhaltig","schaubühne","0.0029"
"1127","nachhaltig","lebensmittelproduktion","0.0029"
"1128","nachhaltig","unterwerfen","0.0029"
"1129","nachhaltig","popkultur","0.0029"
"1130","nachhaltig","mehrwert","0.0029"
"1131","nachhaltig","germanwatch","0.0029"
"1132","nachhaltig","verwurzeln","0.0029"
"1133","nachhaltig","gefragt","0.0029"
"1134","nachhaltig","verbund","0.0029"
"1135","nachhaltig","objektiv","0.0029"
"1136","nachhaltig","fischbestände","0.0029"
"1137","nachhaltig","eu-weit","0.0029"
"1138","nachhaltig","steuerungskreis","0.0029"
"1139","nachhaltig","profitabel","0.0029"
"1140","nachhaltig","kekeritz","0.0029"
"1141","nachhaltig","schwerwiegend","0.0029"
"1142","nachhaltig","bauvorhaben","0.0029"
"1143","nachhaltig","verzehren","0.0029"
"1144","nachhaltig","leihen","0.0029"
"1145","nachhaltig","wirtschaftssystem","0.0029"
"1146","nachhaltig","roboter","0.0029"
"1147","nachhaltig","erwecken","0.0029"
"1148","nachhaltig","unwto","0.0029"
"1149","nachhaltig","schade","0.0029"
"1150","nachhaltig","anbindung","0.0029"
"1151","nachhaltig","jahrtausend","0.0029"
"1152","nachhaltig","abfallwirtschaft","0.0029"
"1153","nachhaltig","earth","0.0029"
"1154","nachhaltig","betrachtet","0.0029"
"1155","nachhaltig","lebens-","0.0029"
"1156","nachhaltig","komitee","0.0029"
"1157","nachhaltig","vielerorts","0.0029"
"1158","nachhaltig","mietwohnung","0.0029"
"1159","nachhaltig","schmerzhaft","0.0029"
"1160","nachhaltig","sg","0.0029"
"1161","nachhaltig","unterordnen","0.0029"
"1162","nachhaltig","praktik","0.0029"
"1163","nachhaltig","konsumverhalten","0.0029"
"1164","nachhaltig","irritieren","0.0029"
"1165","nachhaltig","zimmermann","0.0029"
"1166","nachhaltig","ausbreitung","0.0029"
"1167","nachhaltig","janzing","0.0029"
"1168","nachhaltig","council","0.0029"
"1169","nachhaltig","jahrzehntelang","0.0029"
"1170","nachhaltig","bock","0.0029"
"1171","nachhaltig","störung","0.0029"
"1172","nachhaltig","anthroposophischen","0.0029"
"1173","nachhaltig","vornehmlich","0.0029"
"1174","nachhaltig","begrenzung","0.0029"
"1175","nachhaltig","gehandelt","0.0029"
"1176","nachhaltig","msc","0.0029"
"1177","nachhaltig","klöckner","0.0029"
"1178","nachhaltig","ausgezeichnet","0.0029"
"1179","nachhaltig","umfassen","0.0029"
"1180","nachhaltig","höchst","0.0029"
"1181","nachhaltig","grundsätzliche","0.0029"
"1182","nachhaltig","vermittlung","0.0029"
"1183","nachhaltig","lebensraum","0.0029"
"1184","nachhaltig","beurteilen","0.0029"
"1185","nachhaltig","rot-grünen","0.0029"
"1186","nachhaltig","hinterlässt","0.0029"
"1187","nachhaltig","verbreitung","0.0029"
"1188","nachhaltig","bernward","0.0029"
"1189","nachhaltig","verhelfen","0.0029"
"1190","nachhaltig","öl-","0.0029"
"1191","nachhaltig","beseitigung","0.0029"
"1192","nachhaltig","gutachter","0.0029"
"1193","nachhaltig","umweltbewusstsein","0.0029"
"1194","nachhaltig","überschuss","0.0029"
"1195","nachhaltig","zweifelhaft","0.0029"
"1196","nachhaltig","norm","0.0029"
"1197","nachhaltig","antrieb","0.0029"
"1198","nachhaltig","einzelner","0.0029"
"1199","nachhaltig","anregen","0.0029"
"1200","nachhaltig","sexy","0.0029"
"1201","nachhaltig","friederike","0.0029"
"1202","nachhaltig","einladung","0.0029"
"1203","nachhaltig","übergang","0.0029"
"1204","nachhaltig","dringend","0.0029"
"1205","nachhaltig","verkehrspolitik","0.0029"
"1206","nachhaltig","dichter","0.0029"
"1207","nachhaltig","vizepräsident","0.0029"
"1208","nachhaltig","verbraucherinnen","0.0029"
"1209","nachhaltig","krabbenfischer","0.0029"
"1210","nachhaltig","manuel","0.0029"
"1211","nachhaltig","besprechen","0.0029"
"1212","nachhaltig","gemeinwohl","0.0029"
"1213","nachhaltig","steigerung","0.0029"
"1214","nachhaltig","echo","0.0029"
"1215","nachhaltig","vorangehen","0.0029"
"1216","nachhaltig","dynamisch","0.0029"
"1217","nachhaltig","geschäftsmodell","0.0029"
"1218","nachhaltig","neoliberalen","0.0029"
"1219","nachhaltig","konzipieren","0.0029"
"1220","nachhaltig","edel","0.0029"
"1221","nachhaltig","rewe","0.0029"
"1222","nachhaltig","verpacken","0.0029"
"1223","nachhaltig","einheitlich","0.0029"
"1224","nachhaltig","freiburger","0.0029"
"1225","nachhaltig","atomkraft","0.0029"
"1226","nachhaltig","kantine","0.0029"
"1227","nachhaltig","renommiert","0.0029"
"1228","nachhaltig","außen-","0.0029"
"1229","nachhaltig","appellieren","0.0029"
"1230","nachhaltig","parlamentarische","0.0029"
"1231","nachhaltig","sofa","0.0029"
"1232","nachhaltig","bundesliga","0.0029"
"1233","nachhaltig","qualitativ","0.0029"
"1234","nachhaltig","christopher","0.0029"
"1235","nachhaltig","heran","0.0029"
"1236","nachhaltig","kakao","0.0029"
"1237","nachhaltig","vereinigte","0.0029"
"1238","nachhaltig","lee","0.0029"
"1239","nachhaltig","zuständigkeit","0.0029"
"1240","nachhaltig","rücksicht","0.0029"
"1241","nachhaltig","tate","0.0029"
"1242","nachhaltig","verbauen","0.0029"
"1243","nachhaltig","unnötig","0.0029"
"1244","nachhaltig","inspiration","0.0029"
"1245","nachhaltig","sortieren","0.0029"
"1246","nachhaltig","berühren","0.0029"
"1247","nachhaltig","kapitel","0.0029"
"1248","nachhaltig","polizeilich","0.0029"
"1249","nachhaltig","anpassung","0.0029"
"1250","nachhaltig","terrorismus","0.0029"
"1251","nachhaltig","sexuell","0.0029"
"1252","nachhaltig","zusammenschluss","0.0029"
"1253","nachhaltig","josef","0.0029"
"1254","nachhaltig","sicherheitspolitik","0.0029"
"1255","nachhaltig","durchbruch","0.0029"
"1256","nachhaltig","behindern","0.0029"
"1257","nachhaltig","innovative","0.0029"
"1258","nachhaltig","dm","0.0029"
"1259","nachhaltig","arbeitsplätzen","0.0029"
"1260","nachhaltig","teilnehmerinnen","0.0029"
"1261","nachhaltig","sankt","0.0029"
"1262","nachhaltig","ioc","0.0029"
"1263","nachhaltig","ressourcenverbrauch","0.0029"
"1264","nachhaltig","broschüre","0.0029"
"1265","nachhaltig","landbau","0.0029"
"1266","nachhaltig","sorgfältig","0.0029"
"1267","nachhaltig","verbrechen","0.0029"
"1268","nachhaltig","aktionsplan","0.0029"
"1269","nachhaltig","horn","0.0029"
"1270","nachhaltig","e-autos","0.0029"
"1271","nachhaltig","bundesverband","0.0029"
"1272","nachhaltig","pflanzlich","0.0029"
"1273","nachhaltig","finanzsystem","0.0029"
"1274","nachhaltig","hilfsorganisation","0.0029"
"1275","nachhaltig","menschliche","0.0029"
"1276","nachhaltig","beschloss","0.0029"
"1277","nachhaltig","beschleunigen","0.0029"
"1278","nachhaltig","gleichgewicht","0.0029"
"1279","nachhaltig","österreichisch","0.0029"
"1280","nachhaltig","hindernis","0.0029"
"1281","nachhaltig","volkswirtschaft","0.0029"
"1282","nachhaltig","wirtschaftspolitik","0.0029"
"1283","nachhaltig","lebensmittelverschwendung","0.0029"
"1284","nachhaltig","gesundheitlich","0.0029"
"1285","nachhaltig","veganer","0.0029"
"1286","nachhaltig","maß","0.0029"
"1287","nachhaltig","ermittlung","0.0029"
"1288","nachhaltig","aufklären","0.0029"
"1289","nachhaltig","mitbestimmung","0.0029"
"1290","nachhaltig","schaf","0.0029"
"1291","nachhaltig","bezweifeln","0.0029"
"1292","nachhaltig","rendite","0.0029"
"1293","nachhaltig","brennen","0.0029"
"1294","nachhaltig","historiker","0.0029"
"1295","nachhaltig","öffentlich-rechtlichen","0.0029"
"1296","nachhaltig","stichwort","0.0029"
"1297","nachhaltig","besser","0.0029"
"1298","nachhaltig","statement","0.0029"
"1299","nachhaltig","erschweren","0.0029"
"1300","nachhaltig","deal","0.0029"
"1301","nachhaltig","musikalisch","0.0029"
"1302","nachhaltig","rind","0.0029"
"1303","nachhaltig","angelegt","0.0029"
"1304","nachhaltig","erteilen","0.0029"
"1305","nachhaltig","fraglich","0.0029"
"1306","nachhaltig","milch","0.0029"
"1307","nachhaltig","reduzierung","0.0029"
"1308","nachhaltig","olympisch","0.0029"
"1309","nachhaltig","ausreichend","0.0029"
"1310","nachhaltig","regulierung","0.0029"
"1311","nachhaltig","alge","0.0029"
"1312","nachhaltig","anlässlich","0.0029"
"1313","nachhaltig","wu","0.0029"
"1314","nachhaltig","auskommen","0.0029"
"1315","nachhaltig","start-ups","0.0029"
"1316","nachhaltig","abschalten","0.0029"
"1317","nachhaltig","marine","0.0029"
"1318","nachhaltig","gestaltung","0.0029"
"1319","nachhaltig","solidarisch","0.0029"
"1320","nachhaltig","sportlich","0.0029"
"1321","nachhaltig","notwendigkeit","0.0029"
"1322","nachhaltig","geistig","0.0029"
"1323","nachhaltig","sc","0.0029"
"1324","nachhaltig","entwicklungsländern","0.0029"
"1325","nachhaltig","recycelt","0.0029"
"1326","nachhaltig","entwicklungspolitik","0.0029"
"1327","nachhaltig","go","0.0029"
"1328","nachhaltig","klimaabkommen","0.0029"
"1329","nachhaltig","erhöhung","0.0029"
"1330","nachhaltig","machbar","0.0029"
"1331","nachhaltig","künstlerin","0.0029"
"1332","nachhaltig","heutzutage","0.0029"
"1333","nachhaltig","würdigen","0.0029"
"1334","nachhaltig","wirtschaftswachstum","0.0029"
"1335","nachhaltig","geschäftsführerin","0.0029"
"1336","nachhaltig","verantwortliche","0.0029"
"1337","nachhaltig","transportieren","0.0029"
"1338","nachhaltig","reinhard","0.0029"
"1339","nachhaltig","nachfragen","0.0029"
"1340","nachhaltig","kalte","0.0029"
"1341","nachhaltig","en","0.0029"
"1342","nachhaltig","nichtregierungsorganisationen","0.0029"
"1343","nachhaltig","mitteilen","0.0029"
"1344","nachhaltig","norddeutsch","0.0029"
"1345","nachhaltig","authentisch","0.0029"
"1346","nachhaltig","enorme","0.0029"
"1347","nachhaltig","dortig","0.0029"
"1348","nachhaltig","waschen","0.0029"
"1349","nachhaltig","beschlossen","0.0029"
"1350","nachhaltig","georg","0.0029"
"1351","nachhaltig","recycling","0.0029"
"1352","nachhaltig","entgegensetzen","0.0029"
"1353","nachhaltig","wolfsburg","0.0029"
"1354","nachhaltig","anmelden","0.0029"
"1355","nachhaltig","anstrengung","0.0029"
"1356","nachhaltig","stephan","0.0029"
"1357","nachhaltig","social","0.0029"
"1358","nachhaltig","verstoß","0.0029"
"1359","nachhaltig","verdanken","0.0029"
"1360","nachhaltig","streben","0.0029"
"1361","nachhaltig","eigentum","0.0029"
"1362","nachhaltig","lebensqualität","0.0029"
"1363","nachhaltig","hinten","0.0029"
"1364","nachhaltig","argentinien","0.0029"
"1365","nachhaltig","besetzung","0.0029"
"1366","nachhaltig","religiös","0.0029"
"1367","nachhaltig","palästinensisch","0.0029"
"1368","nachhaltig","dieziger","0.0029"
"1369","nachhaltig","plädieren","0.0029"
"1370","nachhaltig","david","0.0029"
"1371","nachhaltig","wahren","0.0029"
"1372","nachhaltig","bekenntnis","0.0029"
"1373","nachhaltig","einbinden","0.0029"
"1374","nachhaltig","einheimisch","0.0029"
"1375","nachhaltig","nürnberg","0.0029"
"1376","nachhaltig","befassen","0.0029"
"1377","nachhaltig","griff","0.0029"
"1378","nachhaltig","beweis","0.0029"
"1379","nachhaltig","verbrauch","0.0029"
"1380","nachhaltig","indonesien","0.0029"
"1381","nachhaltig","vernünftig","0.0029"
"1382","nachhaltig","geflüchtete","0.0029"
"1383","nachhaltig","übrigen","0.0029"
"1384","nachhaltig","felix","0.0029"
"1385","nachhaltig","skandal","0.0029"
"1386","nachhaltig","ökostrom","0.0029"
"1387","nachhaltig","rainer","0.0029"
"1388","nachhaltig","permakultur","0.0029"
"1389","nachhaltig","festlegen","0.0029"
"1390","nachhaltig","sicherlich","0.0029"
"1391","nachhaltig","einigung","0.0029"
"1392","nachhaltig","packen","0.0029"
"1393","nachhaltig","mission","0.0029"
"1394","nachhaltig","erleichtern","0.0029"
"1395","nachhaltig","wunderbar","0.0029"
"1396","nachhaltig","lieferkette","0.0029"
"1397","nachhaltig","discounter","0.0029"
"1398","nachhaltig","julia","0.0029"
"1399","nachhaltig","house","0.0029"
"1400","nachhaltig","sportler","0.0029"
"1401","nachhaltig","on","0.0029"
"1402","nachhaltig","seither","0.0029"
"1403","nachhaltig","individuell","0.0029"
"1404","nachhaltig","befördern","0.0029"
"1405","nachhaltig","senatsverwaltung","0.0029"
"1406","nachhaltig","schiffe","0.0029"
"1407","nachhaltig","lidl","0.0029"
"1408","nachhaltig","aldi","0.0029"
"1409","nachhaltig","göttingen","0.0029"
"1410","nachhaltig","attraktiv","0.0029"
"1411","nachhaltig","rassistisch","0.0029"
"1412","nachhaltig","einhaltung","0.0029"
"1413","nachhaltig","beziehungsweise","0.0029"
"1414","nachhaltig","christine","0.0029"
"1415","nachhaltig","ngo","0.0029"
"1416","nachhaltig","halbe","0.0029"
"1417","nachhaltig","versorgung","0.0029"
"1418","nachhaltig","elektroautos","0.0029"
"1419","nachhaltig","stadion","0.0029"
"1420","nachhaltig","werbung","0.0029"
"1421","nachhaltig","kinderarbeit","0.0029"
"1422","nachhaltig","modernisierung","0.0029"
"1423","nachhaltig","erwartung","0.0029"
"1424","nachhaltig","übertragen","0.0029"
"1425","nachhaltig","begründung","0.0029"
"1426","nachhaltig","elite","0.0029"
"1427","nachhaltig","überwinden","0.0029"
"1428","nachhaltig","bremerhaven","0.0029"
"1429","nachhaltig","städtisch","0.0029"
"1430","nachhaltig","kollektion","0.0029"
"1431","nachhaltig","masse","0.0029"
"1432","nachhaltig","birgit","0.0029"
"1433","nachhaltig","flüchtlingspolitik","0.0029"
"1434","nachhaltig","pflege","0.0029"
"1435","nachhaltig","erweisen","0.0029"
"1436","nachhaltig","auslösen","0.0029"
"1437","nachhaltig","gewaltig","0.0029"
"1438","nachhaltig","verringern","0.0029"
"1439","nachhaltig","öko","0.0029"
"1440","nachhaltig","kölner","0.0029"
"1441","nachhaltig","baumwolle","0.0029"
"1442","nachhaltig","strukturell","0.0029"
"1443","nachhaltig","richard","0.0029"
"1444","nachhaltig","anforderung","0.0029"
"1445","nachhaltig","gemeinnützig","0.0029"
"1446","nachhaltig","lauf","0.0029"
"1447","nachhaltig","niveau","0.0029"
"1448","nachhaltig","zurückkehren","0.0029"
"1449","nachhaltig","schau","0.0029"
"1450","nachhaltig","potenzial","0.0029"
"1451","nachhaltig","tätigkeit","0.0029"
"1452","nachhaltig","impuls","0.0029"
"1453","nachhaltig","einkauf","0.0029"
"1454","nachhaltig","inklusive","0.0029"
"1455","nachhaltig","heinrich","0.0029"
"1456","nachhaltig","verschaffen","0.0029"
"1457","nachhaltig","ostsee","0.0029"
"1458","nachhaltig","iga","0.0029"
"1459","nachhaltig","aussicht","0.0029"
"1460","nachhaltig","abhängig","0.0029"
"1461","nachhaltig","jeweilig","0.0029"
"1462","nachhaltig","nummer","0.0029"
"1463","nachhaltig","vorliegen","0.0029"
"1464","nachhaltig","cafés","0.0029"
"1465","nachhaltig","frischen","0.0029"
"1466","nachhaltig","tunesien","0.0029"
"1467","nachhaltig","olaf","0.0029"
"1468","nachhaltig","lohnen","0.0029"
"1469","nachhaltig","summe","0.0029"
"1470","nachhaltig","aufbau","0.0029"
"1471","nachhaltig","zeitpunkt","0.0029"
"1472","nachhaltig","dick","0.0029"
"1473","nachhaltig","wirksam","0.0029"
"1474","nachhaltig","tür","0.0029"
"1475","nachhaltig","ansicht","0.0029"
"1476","nachhaltig","barcelona","0.0029"
"1477","nachhaltig","utopie","0.0029"
"1478","nachhaltig","wein","0.0029"
"1479","nachhaltig","gerd","0.0029"
"1480","nachhaltig","quasi","0.0029"
"1481","nachhaltig","halte","0.0029"
"1482","nachhaltig","wagner","0.0029"
"1483","nachhaltig","wohnungsbau","0.0029"
"1484","nachhaltig","personal","0.0029"
"1485","nachhaltig","teilnehmen","0.0029"
"1486","nachhaltig","kommunikation","0.0029"
"1487","nachhaltig","umso","0.0029"
"1488","nachhaltig","echte","0.0029"
"1489","nachhaltig","möglicherweise","0.0029"
"1490","nachhaltig","kreativ","0.0029"
"1491","nachhaltig","schwach","0.0029"
"1492","nachhaltig","rahmenbedingungen","0.0029"
"1493","nachhaltig","christoph","0.0029"
"1494","nachhaltig","forschen","0.0029"
"1495","nachhaltig","menschlich","0.0029"
"1496","nachhaltig","einführung","0.0029"
"1497","nachhaltig","ungefähr","0.0029"
"1498","nachhaltig","transport","0.0029"
"1499","nachhaltig","erläutern","0.0029"
"1500","nachhaltig","katastrophe","0.0029"
"1501","nachhaltig","kollektiv","0.0029"
"1502","nachhaltig","grundstück","0.0029"
"1503","nachhaltig","café","0.0029"
"1504","nachhaltig","braunschweig","0.0029"
"1505","nachhaltig","dutzend","0.0029"
"1506","nachhaltig","vorsitzender","0.0029"
"1507","nachhaltig","entziehen","0.0029"
"1508","nachhaltig","veranstalten","0.0029"
"1509","nachhaltig","verfügen","0.0029"
"1510","nachhaltig","el","0.0029"
"1511","nachhaltig","zugunsten","0.0029"
"1512","nachhaltig","unterscheiden","0.0029"
"1513","nachhaltig","ursache","0.0029"
"1514","nachhaltig","kunststoff","0.0029"
"1515","nachhaltig","bett","0.0029"
"1516","nachhaltig","maria","0.0029"
"1517","nachhaltig","sprecherin","0.0029"
"1518","nachhaltig","wehren","0.0029"
"1519","nachhaltig","ernsthaft","0.0029"
"1520","nachhaltig","auszeichnen","0.0029"
"1521","nachhaltig","bewerten","0.0029"
"1522","nachhaltig","himmel","0.0029"
"1523","nachhaltig","begegnen","0.0029"
"1524","nachhaltig","aufgeben","0.0029"
"1525","nachhaltig","beamte","0.0029"
"1526","nachhaltig","zunehmend","0.0029"
"1527","nachhaltig","intensiv","0.0029"
"1528","nachhaltig","gebrauchen","0.0029"
"1529","nachhaltig","krankheit","0.0029"
"1530","nachhaltig","vernetzen","0.0029"
"1531","nachhaltig","respekt","0.0028"
"1532","nachhaltig","blau","0.0028"
"1533","nachhaltig","entgegen","0.0028"
"1534","nachhaltig","antisemitismus","0.0028"
"1535","nachhaltig","veranstalter","0.0028"
"1536","nachhaltig","comic","0.0028"
"1537","nachhaltig","loben","0.0028"
"1538","nachhaltig","fc","0.0028"
"1539","nachhaltig","demonstration","0.0028"
"1540","nachhaltig","dialog","0.0028"
"1541","nachhaltig","aussage","0.0028"
"1542","nachhaltig","ernähren","0.0028"
"1543","nachhaltig","hof","0.0028"
"1544","nachhaltig","fan","0.0028"
"1545","nachhaltig","planet","0.0028"
"1546","nachhaltig","voraussetzung","0.0028"
"1547","nachhaltig","beraten","0.0028"
"1548","nachhaltig","drücken","0.0028"
"1549","nachhaltig","ausrichten","0.0028"
"1550","nachhaltig","planung","0.0028"
"1551","nachhaltig","un","0.0028"
"1552","nachhaltig","erklärung","0.0028"
"1553","nachhaltig","ausrechnen","0.0028"
"1554","nachhaltig","wandern","0.0028"
"1555","nachhaltig","verletzen","0.0028"
"1556","nachhaltig","enorm","0.0028"
"1557","nachhaltig","jenseits","0.0028"
"1558","nachhaltig","spätestens","0.0028"
"1559","nachhaltig","gang","0.0028"
"1560","nachhaltig","bitte","0.0028"
"1561","nachhaltig","ansehen","0.0028"
"1562","nachhaltig","widmen","0.0028"
"1563","nachhaltig","osten","0.0028"
"1564","nachhaltig","vermeintlich","0.0028"
"1565","nachhaltig","minister","0.0028"
"1566","nachhaltig","finke","0.0028"
"1567","nachhaltig","militärisch","0.0028"
"1568","nachhaltig","ursprünglich","0.0028"
"1569","nachhaltig","van","0.0028"
"1570","nachhaltig","hunderte","0.0028"
"1571","nachhaltig","frankfurt","0.0028"
"1572","nachhaltig","zielen","0.0028"
"1573","nachhaltig","wahrheit","0.0028"
"1574","nachhaltig","auseinandersetzung","0.0028"
"1575","nachhaltig","übrigens","0.0028"
"1576","nachhaltig","fond","0.0028"
"1577","nachhaltig","erneuerbaren","0.0028"
"1578","nachhaltig","city","0.0028"
"1579","nachhaltig","beschränken","0.0028"
"1580","nachhaltig","aufmerksamkeit","0.0028"
"1581","nachhaltig","schleichen","0.0028"
"1582","nachhaltig","freiburg","0.0028"
"1583","nachhaltig","informieren","0.0028"
"1584","nachhaltig","biologisch","0.0028"
"1585","nachhaltig","günstig","0.0028"
"1586","nachhaltig","bekämpfen","0.0028"
"1587","nachhaltig","schluss","0.0028"
"1588","nachhaltig","nachbar","0.0028"
"1589","nachhaltig","versorgen","0.0028"
"1590","nachhaltig","erheblich","0.0028"
"1591","nachhaltig","a.","0.0028"
"1592","nachhaltig","verursachen","0.0028"
"1593","nachhaltig","kaffee","0.0028"
"1594","nachhaltig","klaus","0.0028"
"1595","nachhaltig","friede","0.0028"
"1596","nachhaltig","schneider","0.0028"
"1597","nachhaltig","abschaffen","0.0028"
"1598","nachhaltig","tochter","0.0028"
"1599","nachhaltig","aufstellen","0.0028"
"1600","nachhaltig","stand","0.0028"
"1601","nachhaltig","berg","0.0028"
"1602","nachhaltig","vorstand","0.0028"
"1603","nachhaltig","untersuchen","0.0028"
"1604","nachhaltig","flughafen","0.0028"
"1605","nachhaltig","zahlreich","0.0028"
"1606","nachhaltig","weisen","0.0028"
"1607","nachhaltig","jan","0.0028"
"1608","nachhaltig","subvention","0.0028"
"1609","nachhaltig","sodass","0.0028"
"1610","nachhaltig","praxis","0.0028"
"1611","nachhaltig","pariser","0.0028"
"1612","nachhaltig","gesundheit","0.0028"
"1613","nachhaltig","sichtbar","0.0028"
"1614","nachhaltig","entscheidend","0.0028"
"1615","nachhaltig","einkommen","0.0028"
"1616","nachhaltig","arbeitsbedingungen","0.0028"
"1617","nachhaltig","architekt","0.0028"
"1618","nachhaltig","ankommen","0.0028"
"1619","nachhaltig","song","0.0028"
"1620","nachhaltig","bewusst","0.0028"
"1621","nachhaltig","reform","0.0028"
"1622","nachhaltig","türkisch","0.0028"
"1623","nachhaltig","verbrauchen","0.0028"
"1624","nachhaltig","gemüse","0.0028"
"1625","nachhaltig","richtige","0.0028"
"1626","nachhaltig","kapital","0.0028"
"1627","nachhaltig","bio","0.0028"
"1628","nachhaltig","zweifel","0.0028"
"1629","nachhaltig","außen","0.0028"
"1630","nachhaltig","sicher","0.0028"
"1631","nachhaltig","trumps","0.0028"
"1632","nachhaltig","verhandlung","0.0028"
"1633","nachhaltig","wunsch","0.0028"
"1634","nachhaltig","gemeinde","0.0028"
"1635","nachhaltig","angela","0.0028"
"1636","nachhaltig","klagen","0.0028"
"1637","nachhaltig","wissenschaftlich","0.0028"
"1638","nachhaltig","wann","0.0028"
"1639","nachhaltig","fuß","0.0028"
"1640","nachhaltig","rad","0.0028"
"1641","nachhaltig","einhalten","0.0028"
"1642","nachhaltig","kurs","0.0028"
"1643","nachhaltig","wahrscheinlich","0.0028"
"1644","nachhaltig","brasilien","0.0028"
"1645","nachhaltig","schmidt","0.0028"
"1646","nachhaltig","glück","0.0028"
"1647","nachhaltig","verhandeln","0.0028"
"1648","nachhaltig","technisch","0.0028"
"1649","nachhaltig","belegen","0.0028"
"1650","nachhaltig","wünschen","0.0028"
"1651","nachhaltig","professor","0.0028"
"1652","nachhaltig","kommission","0.0028"
"1653","nachhaltig","republik","0.0028"
"1654","nachhaltig","enthalten","0.0028"
"1655","nachhaltig","linie","0.0028"
"1656","nachhaltig","außer","0.0028"
"1657","nachhaltig","etablieren","0.0028"
"1658","nachhaltig","betrachten","0.0028"
"1659","nachhaltig","sinken","0.0028"
"1660","nachhaltig","verabschieden","0.0028"
"1661","nachhaltig","werk","0.0028"
"1662","nachhaltig","traditionell","0.0028"
"1663","nachhaltig","opfer","0.0028"
"1664","nachhaltig","verantwortlich","0.0028"
"1665","nachhaltig","senken","0.0028"
"1666","nachhaltig","digitalisierung","0.0028"
"1667","nachhaltig","historisch","0.0028"
"1668","nachhaltig","echt","0.0028"
"1669","nachhaltig","szene","0.0028"
"1670","nachhaltig","geraten","0.0028"
"1671","nachhaltig","ebene","0.0028"
"1672","nachhaltig","satz","0.0028"
"1673","nachhaltig","nahe","0.0028"
"1674","nachhaltig","anlage","0.0028"
"1675","nachhaltig","kümmern","0.0028"
"1676","nachhaltig","gutes","0.0028"
"1677","nachhaltig","thoma","0.0028"
"1678","nachhaltig","indien","0.0028"
"1679","nachhaltig","formulieren","0.0028"
"1680","nachhaltig","kommune","0.0028"
"1681","nachhaltig","tisch","0.0028"
"1682","nachhaltig","besuchen","0.0028"
"1683","nachhaltig","perspektive","0.0028"
"1684","nachhaltig","erstmals","0.0028"
"1685","nachhaltig","egal","0.0028"
"1686","nachhaltig","vorbei","0.0028"
"1687","nachhaltig","prozess","0.0028"
"1688","nachhaltig","widerstand","0.0028"
"1689","nachhaltig","branche","0.0028"
"1690","nachhaltig","martin","0.0028"
"1691","nachhaltig","hinzu","0.0028"
"1692","nachhaltig","besonder","0.0028"
"1693","nachhaltig","nötigen","0.0028"
"1694","nachhaltig","aufs","0.0028"
"1695","nachhaltig","aktion","0.0028"
"1696","nachhaltig","drohen","0.0028"
"1697","nachhaltig","team","0.0028"
"1698","nachhaltig","rein","0.0028"
"1699","nachhaltig","institution","0.0028"
"1700","nachhaltig","chef","0.0028"
"1701","nachhaltig","stattdessen","0.0028"
"1702","nachhaltig","verfügung","0.0028"
"1703","nachhaltig","öffentlichkeit","0.0028"
"1704","nachhaltig","offiziell","0.0028"
"1705","nachhaltig","zusätzlich","0.0028"
"1706","nachhaltig","staatlich","0.0028"
"1707","nachhaltig","irgendwann","0.0028"
"1708","nachhaltig","februar","0.0028"
"1709","nachhaltig","nachfrage","0.0028"
"1710","nachhaltig","ständig","0.0028"
"1711","nachhaltig","fortschritt","0.0028"
"1712","nachhaltig","werfen","0.0028"
"1713","nachhaltig","her","0.0028"
"1714","nachhaltig","leider","0.0028"
"1715","nachhaltig","ernst","0.0027"
"1716","nachhaltig","besucher","0.0027"
"1717","nachhaltig","freiheit","0.0027"
"1718","nachhaltig","hart","0.0027"
"1719","nachhaltig","russland","0.0027"
"1720","nachhaltig","mittwoch","0.0027"
"1721","nachhaltig","netz","0.0027"
"1722","nachhaltig","position","0.0027"
"1723","nachhaltig","gericht","0.0027"
"1724","nachhaltig","kommend","0.0027"
"1725","nachhaltig","verlassen","0.0027"
"1726","nachhaltig","profitieren","0.0027"
"1727","nachhaltig","theater","0.0027"
"1728","nachhaltig","feld","0.0027"
"1729","nachhaltig","nachdem","0.0027"
"1730","nachhaltig","november","0.0027"
"1731","nachhaltig","mehrheit","0.0027"
"1732","nachhaltig","holen","0.0027"
"1733","nachhaltig","verwenden","0.0027"
"1734","nachhaltig","arm","0.0027"
"1735","nachhaltig","bilden","0.0027"
"1736","nachhaltig","oben","0.0027"
"1737","nachhaltig","bundestag","0.0027"
"1738","nachhaltig","lesen","0.0027"
"1739","nachhaltig","industrie","0.0027"
"1740","nachhaltig","macht","0.0027"
"1741","nachhaltig","fischer","0.0027"
"1742","nachhaltig","baum","0.0027"
"1743","nachhaltig","musik","0.0027"
"1744","nachhaltig","politiker","0.0027"
"1745","nachhaltig","hektar","0.0027"
"1746","nachhaltig","museum","0.0027"
"1747","nachhaltig","dollar","0.0027"
"1748","nachhaltig","stecken","0.0027"
"1749","nachhaltig","modell","0.0027"
"1750","nachhaltig","hilfe","0.0027"
"1751","nachhaltig","sowohl","0.0027"
"1752","nachhaltig","ziemlich","0.0027"
"1753","nachhaltig","unabhängig","0.0027"
"1754","nachhaltig","zuständig","0.0027"
"1755","nachhaltig","schützen","0.0027"
"1756","nachhaltig","meinung","0.0027"
"1757","nachhaltig","person","0.0027"
"1758","nachhaltig","schwierig","0.0027"
"1759","nachhaltig","kohle","0.0027"
"1760","nachhaltig","kultur","0.0027"
"1761","nachhaltig","erleben","0.0027"
"1762","nachhaltig","überzeugen","0.0027"
"1763","nachhaltig","zuvor","0.0027"
"1764","nachhaltig","stück","0.0027"
"1765","nachhaltig","persönlich","0.0027"
"1766","nachhaltig","beispielsweise","0.0027"
"1767","nachhaltig","freund","0.0027"
"1768","nachhaltig","darin","0.0027"
"1769","nachhaltig","reden","0.0027"
"1770","nachhaltig","nämlich","0.0027"
"1771","nachhaltig","leisten","0.0027"
"1772","nachhaltig","bezirk","0.0027"
"1773","nachhaltig","falsch","0.0027"
"1774","nachhaltig","institut","0.0027"
"1775","nachhaltig","beteiligen","0.0027"
"1776","nachhaltig","union","0.0027"
"1777","nachhaltig","fallen","0.0027"
"1778","nachhaltig","betr.","0.0027"
"1779","nachhaltig","privat","0.0026"
"1780","nachhaltig","kampf","0.0026"
"1781","nachhaltig","jahrhundert","0.0026"
"1782","nachhaltig","übernehmen","0.0026"
"1783","nachhaltig","ähnlich","0.0026"
"1784","nachhaltig","the","0.0026"
"1785","nachhaltig","juni","0.0026"
"1786","nachhaltig","danach","0.0026"
"1787","nachhaltig","nein","0.0026"
"1788","nachhaltig","krieg","0.0026"
"1789","nachhaltig","angst","0.0026"
"1790","nachhaltig","zahlen","0.0026"
"1791","nachhaltig","verschieden","0.0026"
"1792","nachhaltig","hamburger","0.0026"
"1793","nachhaltig","national","0.0026"
"1794","nachhaltig","cdu","0.0026"
"1795","nachhaltig","kritik","0.0026"
"1796","nachhaltig","boden","0.0026"
"1797","nachhaltig","verlieren","0.0026"
"1798","nachhaltig","sitzen","0.0025"
"1799","nachhaltig","platz","0.0025"
"1800","nachhaltig","aktuell","0.0025"
"1801","nachhaltig","anfang","0.0024"
"1802","nachhaltig","wasser","0.0024"
"1803","nachhaltig","grund","0.0024"
"1804","nachhaltig","damals","0.0024"
"1805","nachhaltig","mann","0.0023"
